<?xml version="1.0" encoding="utf-8"?>
<!-- Generator: Adobe Illustrator 17.0.0, SVG Export Plug-In . SVG Version: 6.00 Build 0)  -->
<!DOCTYPE svg PUBLIC "-//W3C//DTD SVG 1.1//EN" "http://www.w3.org/Graphics/SVG/1.1/DTD/svg11.dtd" [
	<!ENTITY ns_extend "http://ns.adobe.com/Extensibility/1.0/">
	<!ENTITY ns_ai "http://ns.adobe.com/AdobeIllustrator/10.0/">
	<!ENTITY ns_graphs "http://ns.adobe.com/Graphs/1.0/">
	<!ENTITY ns_vars "http://ns.adobe.com/Variables/1.0/">
	<!ENTITY ns_imrep "http://ns.adobe.com/ImageReplacement/1.0/">
	<!ENTITY ns_sfw "http://ns.adobe.com/SaveForWeb/1.0/">
	<!ENTITY ns_custom "http://ns.adobe.com/GenericCustomNamespace/1.0/">
	<!ENTITY ns_adobe_xpath "http://ns.adobe.com/XPath/1.0/">
]>
<svg version="1.1" id="Layer_1" xmlns:x="&ns_extend;" xmlns:i="&ns_ai;" xmlns:graph="&ns_graphs;"
	 xmlns="http://www.w3.org/2000/svg" xmlns:xlink="http://www.w3.org/1999/xlink" x="0px" y="0px" width="1650px" height="470px"
	 viewBox="0 0 1650 470" enable-background="new 0 0 1650 470" xml:space="preserve">
<metadata>
	<sfw  xmlns="&ns_sfw;">
		<slices></slices>
		<sliceSourceBounds  width="1650" height="472" y="-471" x="0" bottomLeftOrigin="true"></sliceSourceBounds>
	</sfw>
</metadata>
<g id="_x34_SE7dP_1_" display="none">
	
		<image display="inline" overflow="visible" width="1650" height="472" id="_x34_SE7dP" xlink:href="BF7919FEF3F3A8C5.jpg"  transform="matrix(1 0 0 1 0 -1)">
	</image>
</g>
<g id="brilliants" display="none">
	<g display="inline">
		<path fill="#DFA90B" d="M120.274,156.113c0-4.795,7.518-8.682,16.789-8.682c9.272,0,16.79,3.887,16.79,8.683
			c-0.001,4.796-7.518,8.682-16.79,8.682C127.79,164.797,120.274,160.909,120.274,156.113"/>
		<path fill="#D0501B" d="M106.389,149.185c-0.075,0.073-0.052,0.083,0.044,0.044L106.389,149.185z"/>
		<path fill="#DFA90B" d="M120.275,98.478c0-4.795,7.518-8.682,16.789-8.682c9.272,0,16.79,3.887,16.79,8.683
			c-0.001,4.796-7.518,8.682-16.79,8.682C127.792,107.162,120.275,103.274,120.275,98.478"/>
		<path fill="#FBBE11" d="M153.853,98.478c0-3.181-7.518-5.759-16.789-5.759c-9.272,0-16.789,2.578-16.789,5.759
			c0,3.181,7.517,5.759,16.789,5.759C146.335,104.236,153.853,101.658,153.853,98.478"/>
		<path fill="#FBBE11" d="M153.853,156.113c0-3.181-7.518-5.759-16.789-5.759c-9.272,0-16.789,2.578-16.789,5.759
			s7.517,5.759,16.789,5.759C146.335,161.872,153.853,159.294,153.853,156.113"/>
		<path fill="#DFA90B" d="M170.642,127.296c-4.19-2.398-11.345,2.11-15.982,10.068c-4.636,7.957-4.999,16.352-0.807,18.75
			c4.192,2.398,11.346-2.11,15.983-10.068S174.834,129.694,170.642,127.296"/>
		<path fill="#DFA90B" d="M103.486,127.296c4.19-2.398,11.345,2.11,15.982,10.068c4.636,7.957,4.999,16.352,0.807,18.75
			c-4.192,2.398-11.346-2.11-15.983-10.068S99.294,129.694,103.486,127.296"/>
		<path fill="#DFA90B" d="M120.274,98.478c-4.191-2.398-11.345,2.11-15.982,10.068c-4.636,7.957-4.999,16.352-0.807,18.75
			c4.192,2.398,11.346-2.11,15.983-10.068C124.104,109.27,124.466,100.876,120.274,98.478"/>
		<path fill="#DFA90B" d="M153.854,98.478c4.19-2.398,11.345,2.11,15.982,10.068s4.999,16.352,0.807,18.75
			c-4.192,2.398-11.346-2.11-15.983-10.068S149.662,100.876,153.854,98.478"/>
		<path fill="#FBBE11" d="M170.642,127.296c-2.779-1.59-8.79,3.572-13.427,11.53s-6.142,15.697-3.362,17.288
			c2.78,1.59,8.791-3.572,13.428-11.53S173.422,128.886,170.642,127.296"/>
		<path fill="#FBBE11" d="M103.486,127.296c2.779-1.59,8.79,3.572,13.427,11.53c4.636,7.957,6.142,15.697,3.362,17.288
			c-2.78,1.59-8.791-3.572-13.428-11.53C102.211,136.627,100.706,128.886,103.486,127.296"/>
		<path fill="#FBBE11" d="M120.274,98.478c-2.779-1.59-8.79,3.572-13.427,11.53s-6.142,15.697-3.362,17.288
			c2.78,1.59,8.791-3.572,13.428-11.53S123.054,100.068,120.274,98.478"/>
		<path fill="#FBBE11" d="M153.854,98.478c2.779-1.59,8.79,3.572,13.427,11.53s6.142,15.697,3.362,17.288
			c-2.78,1.59-8.791-3.572-13.428-11.53S151.074,100.068,153.854,98.478"/>
		<polygon fill="#A5D8E4" points="129.956,115.096 120.275,98.477 103.485,127.296 122.849,127.296 		"/>
		<polygon fill="#2FADB6" points="129.956,115.096 144.171,115.096 153.853,98.477 120.275,98.477 		"/>
		<polygon fill="#FFFFFF" points="129.956,139.495 129.956,139.495 144.171,139.495 137.064,127.295 		"/>
		<polygon fill="#0E3753" points="151.279,127.296 170.643,127.296 153.853,98.478 144.172,115.095 		"/>
		<polygon fill="#FFFFFF" points="151.279,127.296 144.172,139.496 153.853,156.113 170.643,127.296 		"/>
		<polygon fill="#A5D8E4" points="144.171,139.495 129.957,139.495 120.275,156.114 153.853,156.114 		"/>
		<polygon fill="#0E3753" points="122.849,127.296 103.485,127.296 120.275,156.113 129.956,139.496 		"/>
		<polygon fill="#FFFFFF" points="129.956,115.096 122.849,127.296 137.064,127.296 		"/>
		<polygon fill="#2FADB6" points="122.849,127.296 129.956,139.496 137.064,127.296 		"/>
		<polygon fill="#A5D8E4" points="144.171,115.096 144.171,115.096 129.957,115.096 137.064,127.296 		"/>
		<polygon fill="#2FADB6" points="137.064,127.296 151.279,127.296 144.171,115.095 		"/>
		<polygon fill="#0E3753" points="144.171,139.495 151.279,127.295 137.064,127.295 		"/>
	</g>
	<g display="inline">
		<path fill="#DFA90B" d="M708.799,282.868c0-4.795,7.518-8.682,16.789-8.682c9.272,0,16.79,3.887,16.79,8.683
			c-0.001,4.796-7.518,8.682-16.79,8.682C716.315,291.552,708.799,287.664,708.799,282.868"/>
		<path fill="#D0501B" d="M694.914,275.94c-0.075,0.073-0.052,0.083,0.044,0.044L694.914,275.94z"/>
		<path fill="#DFA90B" d="M708.799,225.233c0-4.795,7.518-8.682,16.789-8.682c9.272,0,16.79,3.887,16.79,8.683
			c-0.001,4.796-7.518,8.682-16.79,8.682C716.317,233.917,708.799,230.029,708.799,225.233"/>
		<path fill="#FBBE11" d="M742.378,225.233c0-3.181-7.518-5.759-16.789-5.759c-9.272,0-16.789,2.578-16.789,5.759
			c0,3.181,7.517,5.759,16.789,5.759C734.86,230.991,742.378,228.413,742.378,225.233"/>
		<path fill="#FBBE11" d="M742.378,282.868c0-3.181-7.518-5.759-16.789-5.759c-9.272,0-16.789,2.578-16.789,5.759
			c0,3.181,7.517,5.759,16.789,5.759C734.86,288.627,742.378,286.049,742.378,282.868"/>
		<path fill="#DFA90B" d="M759.167,254.051c-4.19-2.398-11.346,2.11-15.982,10.068s-4.999,16.352-0.807,18.75
			c4.192,2.398,11.346-2.11,15.983-10.068C762.997,264.843,763.358,256.449,759.167,254.051"/>
		<path fill="#DFA90B" d="M692.01,254.051c4.19-2.398,11.345,2.11,15.982,10.068c4.636,7.957,4.999,16.352,0.807,18.75
			c-4.192,2.398-11.346-2.11-15.983-10.068S687.819,256.449,692.01,254.051"/>
		<path fill="#DFA90B" d="M708.799,225.233c-4.191-2.398-11.345,2.11-15.982,10.068c-4.636,7.957-4.999,16.352-0.807,18.75
			c4.192,2.398,11.346-2.11,15.983-10.068C712.628,236.025,712.99,227.631,708.799,225.233"/>
		<path fill="#DFA90B" d="M742.378,225.233c4.19-2.398,11.345,2.11,15.982,10.068c4.636,7.957,4.999,16.352,0.807,18.75
			c-4.192,2.398-11.346-2.11-15.983-10.068C738.549,236.025,738.187,227.631,742.378,225.233"/>
		<path fill="#FBBE11" d="M759.167,254.051c-2.779-1.59-8.791,3.572-13.427,11.53s-6.141,15.697-3.362,17.288
			c2.78,1.59,8.791-3.572,13.428-11.53C760.442,263.382,761.947,255.641,759.167,254.051"/>
		<path fill="#FBBE11" d="M692.01,254.051c2.779-1.59,8.79,3.572,13.427,11.53c4.636,7.957,6.142,15.697,3.362,17.288
			c-2.78,1.59-8.792-3.572-13.428-11.53S689.23,255.641,692.01,254.051"/>
		<path fill="#FBBE11" d="M708.799,225.233c-2.779-1.59-8.79,3.572-13.427,11.53c-4.636,7.957-6.141,15.697-3.362,17.288
			c2.78,1.59,8.791-3.572,13.428-11.53C710.073,234.564,711.579,226.823,708.799,225.233"/>
		<path fill="#FBBE11" d="M742.378,225.233c2.779-1.59,8.79,3.572,13.427,11.53c4.636,7.957,6.142,15.697,3.362,17.288
			c-2.78,1.59-8.792-3.572-13.428-11.53C741.104,234.564,739.598,226.823,742.378,225.233"/>
		<polygon fill="#A5D8E4" points="718.481,241.851 708.799,225.232 692.01,254.051 711.374,254.051 		"/>
		<polygon fill="#2FADB6" points="718.481,241.851 732.696,241.851 742.377,225.232 708.799,225.232 		"/>
		<polygon fill="#FFFFFF" points="718.481,266.25 718.481,266.25 732.696,266.25 725.588,254.05 		"/>
		<polygon fill="#0E3753" points="739.804,254.051 759.168,254.051 742.378,225.233 732.696,241.85 		"/>
		<polygon fill="#FFFFFF" points="739.804,254.051 732.696,266.251 742.378,282.868 759.168,254.051 		"/>
		<polygon fill="#A5D8E4" points="732.696,266.25 718.481,266.25 708.8,282.869 742.378,282.869 		"/>
		<polygon fill="#0E3753" points="711.374,254.051 692.009,254.051 708.799,282.868 718.481,266.251 		"/>
		<polygon fill="#FFFFFF" points="718.481,241.851 711.374,254.051 725.588,254.051 		"/>
		<polygon fill="#2FADB6" points="711.374,254.051 718.481,266.251 725.588,254.051 		"/>
		<polygon fill="#A5D8E4" points="732.696,241.851 732.696,241.851 718.481,241.851 725.589,254.051 		"/>
		<polygon fill="#2FADB6" points="725.589,254.051 739.803,254.051 732.696,241.85 		"/>
		<polygon fill="#0E3753" points="732.696,266.25 739.803,254.05 725.589,254.05 		"/>
	</g>
	<g display="inline">
		<path fill="#DFA90B" d="M81.851,371.607c-0.095-2.243,3.345-4.21,7.681-4.394c4.337-0.184,7.931,1.486,8.026,3.729
			c0.094,2.243-3.345,4.21-7.682,4.394C85.539,375.52,81.946,373.85,81.851,371.607"/>
		<path fill="#D0501B" d="M75.219,368.641c-0.034,0.036-0.022,0.04,0.022,0.02L75.219,368.641z"/>
		<path fill="#DFA90B" d="M80.71,344.647c-0.095-2.243,3.345-4.21,7.681-4.394c4.337-0.184,7.931,1.486,8.026,3.729
			c0.094,2.243-3.345,4.21-7.682,4.394C84.398,348.56,80.805,346.891,80.71,344.647"/>
		<path fill="#FBBE11" d="M96.417,343.982c-0.063-1.488-3.63-2.545-7.967-2.361c-4.337,0.184-7.802,1.538-7.739,3.026
			s3.63,2.545,7.967,2.361C93.014,346.825,96.48,345.47,96.417,343.982"/>
		<path fill="#FBBE11" d="M97.558,370.942c-0.063-1.488-3.63-2.545-7.967-2.361c-4.337,0.184-7.802,1.538-7.739,3.026
			c0.063,1.488,3.63,2.545,7.967,2.361C94.155,373.785,97.621,372.43,97.558,370.942"/>
		<path fill="#DFA90B" d="M104.841,357.13c-2.007-1.039-5.265,1.212-7.276,5.026c-2.011,3.814-2.015,7.748-0.006,8.787
			s5.266-1.212,7.277-5.026C106.846,362.103,106.849,358.169,104.841,357.13"/>
		<path fill="#DFA90B" d="M73.427,358.459c1.912-1.205,5.349,0.763,7.675,4.393c2.326,3.63,2.662,7.55,0.749,8.755
			c-1.913,1.205-5.349-0.763-7.676-4.393C71.849,363.584,71.514,359.665,73.427,358.459"/>
		<path fill="#DFA90B" d="M80.71,344.647c-2.008-1.039-5.265,1.212-7.276,5.026c-2.011,3.814-2.015,7.748-0.006,8.787
			c2.008,1.039,5.266-1.212,7.277-5.026C82.715,349.62,82.718,345.686,80.71,344.647"/>
		<path fill="#DFA90B" d="M96.417,343.982c1.912-1.205,5.349,0.763,7.675,4.393c2.326,3.63,2.662,7.55,0.749,8.755
			c-1.913,1.205-5.349-0.763-7.676-4.393C94.839,349.106,94.504,345.187,96.417,343.982"/>
		<path fill="#FBBE11" d="M104.841,357.13c-1.332-0.689-4.041,1.845-6.052,5.659c-2.011,3.814-2.562,7.464-1.23,8.153
			c1.332,0.689,4.042-1.845,6.053-5.659S106.173,357.819,104.841,357.13"/>
		<path fill="#FBBE11" d="M73.427,358.459c1.269-0.799,4.183,1.497,6.509,5.127s3.184,7.221,1.915,8.02
			c-1.269,0.799-4.183-1.497-6.509-5.127S72.158,359.259,73.427,358.459"/>
		<path fill="#FBBE11" d="M80.71,344.647c-1.332-0.689-4.041,1.845-6.052,5.659c-2.011,3.814-2.562,7.464-1.23,8.154
			c1.332,0.689,4.042-1.845,6.053-5.659C81.491,348.986,82.042,345.336,80.71,344.647"/>
		<path fill="#FBBE11" d="M96.417,343.982c1.269-0.799,4.183,1.497,6.509,5.127c2.326,3.63,3.184,7.221,1.915,8.02
			c-1.269,0.799-4.183-1.497-6.509-5.127C96.006,348.372,95.148,344.781,96.417,343.982"/>
		<polygon fill="#A5D8E4" points="85.568,352.229 80.71,344.647 73.427,358.46 82.485,358.076 		"/>
		<polygon fill="#2FADB6" points="85.568,352.229 92.217,351.947 96.417,343.982 80.71,344.647 		"/>
		<polygon fill="#FFFFFF" points="86.051,363.642 86.051,363.642 92.7,363.361 89.134,357.794 		"/>
		<polygon fill="#0E3753" points="95.783,357.513 104.841,357.13 96.417,343.982 92.217,351.947 		"/>
		<polygon fill="#FFFFFF" points="95.783,357.513 92.7,363.361 97.558,370.942 104.841,357.13 		"/>
		<polygon fill="#A5D8E4" points="92.7,363.361 86.051,363.642 81.851,371.607 97.558,370.943 		"/>
		<polygon fill="#0E3753" points="82.485,358.076 73.427,358.459 81.851,371.607 86.051,363.642 		"/>
		<polygon fill="#FFFFFF" points="85.568,352.229 82.485,358.076 89.134,357.795 		"/>
		<polygon fill="#2FADB6" points="82.485,358.076 86.051,363.642 89.134,357.795 		"/>
		<polygon fill="#A5D8E4" points="92.217,351.947 92.217,351.947 85.568,352.229 89.134,357.795 		"/>
		<polygon fill="#2FADB6" points="89.134,357.795 95.783,357.513 92.217,351.947 		"/>
		<polygon fill="#0E3753" points="92.7,363.361 95.783,357.513 89.134,357.794 		"/>
	</g>
	<g display="inline">
		<path fill="#FBBE11" d="M1243.226,186.905l0.854-0.248c2.024-0.56,3.035-2.863,2.176-5.094c-1.028-2.88-2.446-5.622-3.972-8.267
			c-1.52-2.668-3.343-5.132-5.244-7.542c-1.575-1.802-4.137-2.057-5.599-0.646l-0.645,0.605c2.878,2.979,5.407,6.293,7.482,9.867
			C1240.401,179.131,1242.02,182.96,1243.226,186.905"/>
		<path fill="#FBBE11" d="M1243.011,194.992c-0.29-1.712-0.469-3.446-0.986-5.111l-0.649-2.448c-0.471-1.672-1.178-3.269-1.76-4.905
			c-0.355-0.92-0.847-1.781-1.265-2.674c-0.559-1.132-1.742-1.663-2.623-1.179l-1.13,0.608c-0.883,0.483-1.199,1.706-0.702,2.714
			c0.375,0.806,0.83,1.578,1.144,2.411c0.517,1.477,1.169,2.914,1.587,4.424l0.585,2.209c0.477,1.501,0.619,3.069,0.889,4.613
			c0.166,0.876,0.274,1.757,0.289,2.649c0.061,1.123,0.939,2.022,1.947,1.998l1.287-0.042c1.006-0.023,1.778-1.076,1.708-2.335
			C1243.309,196.939,1243.189,195.963,1243.011,194.992"/>
		<path fill="#FBBE11" d="M1249.237,192.58c-0.3-2.37-2.499-3.835-4.479-3.337l-0.866,0.206c1.042,3.999,1.398,8.124,1.518,12.235
			c-0.12,4.109-0.476,8.236-1.518,12.233l0.866,0.205c1.981,0.5,4.179-0.968,4.479-3.336c0.583-3.01,0.659-6.06,0.798-9.103
			C1249.895,198.641,1249.819,195.59,1249.237,192.58"/>
		<path fill="#FBBE11" d="M1228.917,163.86l0.614-0.637c1.432-1.441,1.172-3.969-0.654-5.523c-2.443-1.874-4.941-3.675-7.646-5.174
			c-2.68-1.503-5.46-2.902-8.38-3.918c-2.265-0.847-4.598,0.15-5.164,2.147l-0.251,0.842c3.998,1.19,7.879,2.787,11.479,4.879
			C1222.539,158.525,1225.897,161.02,1228.917,163.86"/>
		<path fill="#FBBE11" d="M1234.644,173.309l-1.8-2.36c-1.003-1.431-2.273-2.644-3.444-3.939l-1.818-1.78
			c-1.32-1.145-2.558-2.385-4.016-3.364l-2.403-1.756c-1.068-0.69-2.406-0.499-2.922,0.346l-0.672,1.083
			c-0.527,0.861-0.134,2.003,0.814,2.62l2.169,1.588c1.322,0.876,2.43,2.009,3.629,3.037l1.642,1.609
			c1.052,1.172,2.209,2.261,3.107,3.558l1.631,2.13c0.629,0.936,1.793,1.312,2.662,0.787l1.093-0.672
			C1235.168,175.683,1235.353,174.357,1234.644,173.309"/>
		<path fill="#FBBE11" d="M1224.42,171.697l-0.645,0.605c-1.477,1.423-1.777,3.533-0.71,4.725c1.289,1.67,2.562,3.348,3.594,5.186
			c1.037,1.816,2.037,3.686,2.718,5.664c0.572,1.481,2.621,2.261,4.553,1.729l0.854-0.248c-1.007-3.283-2.347-6.472-4.121-9.431
			C1228.935,176.947,1226.824,174.181,1224.42,171.697"/>
		<path fill="#FBBE11" d="M1199.212,151.854c-0.984-0.171-1.973-0.279-2.972-0.294c-1.275-0.06-2.332,0.707-2.349,1.703l-0.032,1.27
			c-0.017,0.996,0.899,1.853,2.036,1.905c0.904,0.006,1.797,0.109,2.684,0.265c1.565,0.252,3.156,0.384,4.68,0.841l2.245,0.558
			c1.533,0.405,2.995,1.035,4.499,1.535c0.847,0.306,1.635,0.747,2.455,1.111c1.028,0.484,2.267,0.162,2.751-0.711l0.606-1.12
			c0.483-0.872-0.066-2.036-1.22-2.58c-0.909-0.407-1.785-0.888-2.723-1.228c-1.663-0.564-3.289-1.251-4.987-1.7l-2.488-0.623
			C1202.706,152.288,1200.947,152.13,1199.212,151.854"/>
		<path fill="#FBBE11" d="M1192.454,158.126c-3.482,0.118-6.972,0.391-10.345,1.255l0.207,0.856c0.51,1.972,2.182,3.18,3.788,3.01
			c2.085-0.42,4.224-0.421,6.349-0.558c2.126,0.136,4.264,0.138,6.351,0.559c1.605,0.167,3.277-1.038,3.788-3.011l0.208-0.855
			C1199.427,158.516,1195.938,158.243,1192.454,158.126"/>
		<path fill="#FBBE11" d="M1204.949,159.925l-0.252,0.844c-0.54,1.906,0.249,3.925,1.752,4.491c2.006,0.673,3.902,1.657,5.742,2.681
			c1.863,1.018,3.564,2.273,5.258,3.544c1.208,1.054,3.347,0.758,4.789-0.699l0.614-0.636c-2.52-2.37-5.322-4.454-8.343-6.159
			C1211.509,162.241,1208.277,160.919,1204.949,159.925"/>
		<path fill="#FBBE11" d="M1170.327,156.407c-1.149,0.551-1.686,1.717-1.195,2.586l0.615,1.116c0.49,0.87,1.729,1.183,2.751,0.693
			c0.817-0.371,1.601-0.819,2.444-1.129c1.499-0.51,2.956-1.154,4.487-1.567l2.239-0.576c1.52-0.47,3.11-0.612,4.676-0.877
			c0.886-0.165,1.781-0.271,2.684-0.285c1.139-0.061,2.05-0.926,2.026-1.922l-0.042-1.269c-0.024-0.994-1.091-1.755-2.365-1.685
			c-1,0.021-1.989,0.14-2.974,0.316c-1.734,0.287-3.492,0.463-5.18,0.973l-2.483,0.641c-1.693,0.463-3.314,1.162-4.971,1.737
			C1172.104,155.508,1171.232,155.995,1170.327,156.407"/>
		<path fill="#FBBE11" d="M1180.212,160.767l-0.251-0.842c-3.328,0.995-6.562,2.316-9.56,4.065
			c-3.021,1.705-5.825,3.788-8.344,6.159l0.614,0.637c1.443,1.455,3.582,1.753,4.789,0.699c1.693-1.271,3.394-2.526,5.256-3.544
			c1.843-1.024,3.737-2.009,5.743-2.681C1179.962,164.693,1180.753,162.674,1180.212,160.767"/>
		<path fill="#FBBE11" d="M1180.052,150.941c4.055-1.027,8.237-1.379,12.402-1.496c4.167,0.117,8.349,0.469,12.404,1.496
			l0.208-0.855c0.505-1.954-0.981-4.122-3.383-4.418c-3.05-0.576-6.143-0.651-9.228-0.787c-3.086,0.136-6.179,0.211-9.229,0.786
			c-2.403,0.297-3.888,2.465-3.383,4.419L1180.052,150.941z"/>
		<path fill="#FBBE11" d="M1166.502,164.091c0.949-0.62,1.33-1.77,0.798-2.627l-0.681-1.077c-0.52-0.84-1.865-1.024-2.927-0.323
			l-2.393,1.777c-1.452,0.99-2.68,2.243-3.994,3.396c-0.647,0.551-1.248,1.151-1.803,1.794c-1.162,1.302-2.418,2.524-3.41,3.962
			l-1.782,2.37c-0.697,1.053-0.503,2.373,0.352,2.881l1.098,0.664c0.873,0.518,2.031,0.133,2.656-0.804l1.61-2.138
			c0.888-1.306,2.038-2.399,3.08-3.58l1.628-1.621c1.189-1.038,2.292-2.179,3.609-3.065L1166.502,164.091z"/>
		<path fill="#FBBE11" d="M1161.134,172.302l-0.646-0.605c-2.402,2.485-4.516,5.25-6.242,8.23c-1.774,2.959-3.114,6.149-4.122,9.432
			l0.855,0.248c1.932,0.532,3.98-0.247,4.553-1.729c0.682-1.979,1.681-3.849,2.719-5.665c1.032-1.837,2.303-3.515,3.592-5.185
			C1162.911,175.835,1162.61,173.725,1161.134,172.302"/>
		<path fill="#FBBE11" d="M1155.991,163.86c3.02-2.841,6.379-5.335,10.002-7.384c3.6-2.093,7.482-3.689,11.48-4.879l-0.251-0.843
			c-0.567-1.997-2.901-2.993-5.164-2.146c-2.918,1.013-5.699,2.413-8.38,3.917c-2.704,1.5-5.203,3.299-7.645,5.174
			c-1.826,1.554-2.085,4.081-0.655,5.523L1155.991,163.86z"/>
		<path fill="#FBBE11" d="M1146.487,179.842c-0.411,0.897-0.901,1.761-1.244,2.686c-0.571,1.641-1.271,3.244-1.724,4.92
			l-0.631,2.454c-0.504,1.668-0.667,3.403-0.946,5.115c-0.172,0.97-0.283,1.947-0.298,2.932c-0.061,1.258,0.717,2.3,1.727,2.318
			l1.287,0.032c1.01,0.018,1.879-0.887,1.931-2.008c0.007-0.89,0.112-1.772,0.269-2.648c0.255-1.544,0.388-3.113,0.853-4.617
			l0.565-2.214c0.412-1.512,1.05-2.955,1.557-4.438c0.309-0.835,0.756-1.613,1.127-2.422c0.488-1.014,0.163-2.236-0.722-2.713
			l-1.135-0.599C1148.219,178.162,1147.037,178.702,1146.487,179.842"/>
		<path fill="#FBBE11" d="M1150.44,191.682l-0.866-0.206c-0.876,3.328-1.154,6.771-1.274,10.206
			c0.12,3.436,0.396,6.879,1.274,10.207l0.866-0.205c1.999-0.504,3.223-2.153,3.053-3.737c-0.427-2.058-0.428-4.167-0.567-6.265
			c0.138-2.096,0.139-4.205,0.567-6.262C1153.663,193.835,1152.439,192.185,1150.44,191.682"/>
		<path fill="#FBBE11" d="M1140.828,186.656l0.854,0.248c1.206-3.944,2.825-7.773,4.946-11.325c2.077-3.574,4.605-6.887,7.485-9.867
			l-0.646-0.605c-1.46-1.411-4.024-1.154-5.599,0.646c-1.901,2.41-3.725,4.874-5.245,7.542c-1.523,2.644-2.942,5.388-3.97,8.267
			C1137.792,183.794,1138.803,186.096,1140.828,186.656"/>
		<path fill="#FBBE11" d="M1141.682,216.461l-0.855,0.248c-2.024,0.56-3.034,2.863-2.175,5.094c1.028,2.879,2.446,5.622,3.971,8.267
			c1.519,2.669,3.343,5.132,5.244,7.542c1.575,1.802,4.137,2.057,5.599,0.646l0.645-0.605c-2.878-2.979-5.407-6.292-7.484-9.867
			C1144.507,224.234,1142.888,220.406,1141.682,216.461"/>
		<path fill="#FBBE11" d="M1141.897,208.374c0.29,1.713,0.469,3.446,0.986,5.112l0.649,2.448c0.471,1.673,1.178,3.269,1.762,4.905
			c0.354,0.92,0.845,1.782,1.264,2.672c0.559,1.134,1.74,1.664,2.623,1.18l1.13-0.608c0.883-0.483,1.199-1.706,0.702-2.714
			c-0.375-0.806-0.83-1.578-1.144-2.411c-0.517-1.477-1.169-2.914-1.587-4.424l-0.585-2.209c-0.477-1.501-0.619-3.069-0.889-4.613
			c-0.166-0.876-0.274-1.757-0.289-2.649c-0.061-1.123-0.939-2.023-1.947-1.997l-1.287,0.041c-1.006,0.023-1.778,1.076-1.708,2.335
			C1141.599,206.427,1141.719,207.403,1141.897,208.374"/>
		<path fill="#FBBE11" d="M1140.15,214.123l0.865-0.206c-1.041-3.999-1.397-8.124-1.515-12.235
			c0.118-4.109,0.474-8.235,1.516-12.235l-0.867-0.205c-1.981-0.499-4.178,0.968-4.479,3.337c-0.581,3.009-0.659,6.06-0.797,9.103
			c0.138,3.043,0.215,6.094,0.797,9.103C1135.972,213.156,1138.168,214.622,1140.15,214.123"/>
		<path fill="#FBBE11" d="M1155.991,239.506l-0.614,0.637c-1.432,1.441-1.172,3.969,0.654,5.523
			c2.443,1.874,4.941,3.675,7.645,5.173c2.68,1.503,5.46,2.903,8.38,3.918c2.265,0.847,4.598-0.149,5.164-2.146l0.251-0.844
			c-3.998-1.189-7.88-2.785-11.479-4.878C1162.369,244.841,1159.011,242.347,1155.991,239.506"/>
		<path fill="#FBBE11" d="M1152.065,232.417c1.003,1.431,2.273,2.644,3.444,3.939l1.818,1.78c1.32,1.145,2.558,2.386,4.016,3.364
			l2.403,1.757c1.067,0.689,2.407,0.496,2.922-0.348l0.672-1.083c0.525-0.861,0.135-2.003-0.814-2.62l-2.169-1.588
			c-1.322-0.877-2.43-2.009-3.629-3.037l-1.642-1.608c-1.052-1.173-2.21-2.262-3.107-3.559l-1.631-2.13
			c-0.629-0.935-1.794-1.312-2.663-0.786l-1.093,0.672c-0.85,0.512-1.037,1.84-0.326,2.886L1152.065,232.417z"/>
		<path fill="#FBBE11" d="M1160.488,231.67l0.646-0.607c1.475-1.422,1.775-3.532,0.708-4.723c-1.288-1.671-2.562-3.349-3.594-5.186
			c-1.038-1.816-2.037-3.686-2.717-5.665c-0.574-1.481-2.622-2.261-4.554-1.729l-0.855,0.249c1.008,3.283,2.349,6.472,4.122,9.431
			C1155.973,226.42,1158.084,229.185,1160.488,231.67"/>
		<path fill="#FBBE11" d="M1185.697,251.513c0.984,0.169,1.973,0.279,2.972,0.292c1.275,0.06,2.332-0.707,2.349-1.702l0.032-1.271
			c0.017-0.995-0.899-1.852-2.036-1.904c-0.904-0.007-1.797-0.109-2.684-0.265c-1.565-0.252-3.156-0.384-4.68-0.842l-2.245-0.558
			c-1.533-0.405-2.995-1.035-4.499-1.535c-0.847-0.306-1.633-0.745-2.455-1.111c-1.028-0.483-2.267-0.161-2.751,0.712l-0.606,1.119
			c-0.484,0.873,0.066,2.037,1.22,2.582c0.909,0.405,1.785,0.887,2.723,1.227c1.663,0.564,3.289,1.253,4.987,1.7l2.487,0.623
			C1182.202,251.077,1183.962,251.237,1185.697,251.513"/>
		<path fill="#FBBE11" d="M1179.959,243.442l0.251-0.844c0.54-1.906-0.249-3.926-1.752-4.491c-2.006-0.673-3.902-1.657-5.742-2.681
			c-1.862-1.018-3.564-2.273-5.257-3.544c-1.208-1.054-3.348-0.758-4.789,0.698l-0.615,0.637c2.521,2.37,5.324,4.456,8.344,6.159
			C1173.398,241.125,1176.632,242.447,1179.959,243.442"/>
		<path fill="#FBBE11" d="M1214.582,246.959c1.149-0.551,1.686-1.717,1.195-2.586l-0.615-1.116c-0.49-0.871-1.729-1.184-2.751-0.693
			c-0.817,0.37-1.601,0.819-2.444,1.129c-1.499,0.51-2.956,1.153-4.487,1.566l-2.238,0.577c-1.52,0.47-3.11,0.61-4.676,0.877
			c-0.886,0.165-1.782,0.271-2.684,0.285c-1.139,0.06-2.05,0.926-2.026,1.921l0.042,1.27c0.024,0.994,1.091,1.755,2.365,1.685
			c1-0.022,1.99-0.141,2.974-0.317c1.734-0.286,3.492-0.463,5.18-0.973l2.482-0.64c1.693-0.464,3.314-1.162,4.971-1.737
			C1212.804,247.857,1213.677,247.372,1214.582,246.959"/>
		<path fill="#FBBE11" d="M1204.696,242.598l0.251,0.844c3.328-0.995,6.562-2.316,9.56-4.066c3.022-1.705,5.824-3.788,8.344-6.159
			l-0.614-0.636c-1.443-1.457-3.582-1.753-4.789-0.7c-1.693,1.272-3.394,2.528-5.258,3.546c-1.841,1.023-3.737,2.009-5.742,2.681
			C1204.946,238.672,1204.156,240.692,1204.696,242.598"/>
		<path fill="#FBBE11" d="M1198.803,240.118c-2.085,0.421-4.224,0.422-6.349,0.559c-2.126-0.136-4.264-0.138-6.349-0.559
			c-1.605-0.168-3.278,1.039-3.789,3.011l-0.208,0.856c3.374,0.865,6.864,1.137,10.346,1.255c3.482-0.118,6.973-0.389,10.346-1.255
			l-0.208-0.856C1202.082,241.157,1200.409,239.95,1198.803,240.118"/>
		<path fill="#FBBE11" d="M1204.857,252.426c-4.055,1.027-8.237,1.378-12.402,1.496c-4.167-0.118-8.349-0.469-12.404-1.497
			l-0.208,0.855c-0.505,1.954,0.981,4.123,3.383,4.419c3.05,0.575,6.143,0.65,9.228,0.787c3.086-0.138,6.179-0.212,9.229-0.787
			c2.403-0.296,3.888-2.464,3.383-4.419L1204.857,252.426z"/>
		<path fill="#FBBE11" d="M1218.29,242.98c0.52,0.84,1.865,1.023,2.927,0.323l2.393-1.777c1.452-0.99,2.68-2.244,3.993-3.396
			c0.649-0.551,1.247-1.151,1.804-1.794c1.16-1.302,2.418-2.525,3.41-3.962l1.781-2.37c0.697-1.054,0.504-2.374-0.354-2.881
			l-1.097-0.664c-0.874-0.52-2.031-0.133-2.654,0.803l-1.611,2.139c-0.888,1.306-2.038,2.397-3.08,3.58l-1.628,1.62
			c-1.189,1.039-2.292,2.179-3.609,3.067l-2.158,1.608c-0.949,0.62-1.331,1.77-0.798,2.627L1218.29,242.98z"/>
		<path fill="#FBBE11" d="M1228.917,239.506c-3.02,2.842-6.379,5.336-10.002,7.384c-3.6,2.093-7.482,3.689-11.48,4.878l0.251,0.844
			c0.566,1.997,2.901,2.993,5.164,2.146c2.918-1.013,5.699-2.413,8.38-3.917c2.704-1.5,5.203-3.299,7.645-5.173
			c1.826-1.555,2.085-4.084,0.655-5.524L1228.917,239.506z"/>
		<path fill="#FBBE11" d="M1238.421,223.524c0.411-0.897,0.901-1.761,1.244-2.686c0.571-1.641,1.271-3.244,1.725-4.92l0.63-2.453
			c0.505-1.669,0.667-3.404,0.946-5.115c0.172-0.971,0.283-1.947,0.298-2.933c0.06-1.259-0.718-2.3-1.727-2.317l-1.287-0.032
			c-1.01-0.017-1.879,0.885-1.931,2.008c-0.007,0.892-0.111,1.772-0.269,2.648c-0.255,1.545-0.388,3.113-0.853,4.617l-0.565,2.214
			c-0.411,1.513-1.049,2.955-1.557,4.44c-0.31,0.833-0.756,1.611-1.125,2.421c-0.489,1.014-0.164,2.236,0.721,2.713l1.135,0.599
			C1236.689,225.204,1237.871,224.664,1238.421,223.524"/>
		<path fill="#FBBE11" d="M1236.608,201.684c-0.12-3.436-0.395-6.879-1.272-10.207l-0.868,0.206c-2,0.504-3.223,2.152-3.053,3.737
			c0.427,2.057,0.428,4.167,0.567,6.264c-0.138,2.096-0.14,4.206-0.567,6.264c-0.171,1.584,1.053,3.234,3.053,3.737l0.868,0.206
			C1236.214,208.562,1236.489,205.12,1236.608,201.684"/>
		<path fill="#FBBE11" d="M1229.377,215.489c-0.682,1.979-1.681,3.849-2.719,5.664c-1.032,1.837-2.303,3.516-3.592,5.186
			c-1.068,1.191-0.768,3.301,0.708,4.725l0.645,0.605c2.404-2.486,4.516-5.25,6.244-8.23c1.774-2.96,3.114-6.149,4.122-9.432
			l-0.855-0.248C1231.997,213.228,1229.951,214.007,1229.377,215.489"/>
		<path fill="#FBBE11" d="M1244.081,216.71l-0.854-0.248c-1.206,3.945-2.825,7.773-4.946,11.323
			c-2.077,3.575-4.605,6.889-7.485,9.868l0.646,0.605c1.46,1.411,4.024,1.153,5.599-0.646c1.901-2.41,3.725-4.873,5.245-7.542
			c1.523-2.644,2.943-5.388,3.97-8.267C1247.116,219.572,1246.105,217.27,1244.081,216.71"/>
	</g>
	<polygon display="inline" fill="#0E3753" points="632.026,105.257 624.246,99.951 624.94,108.071 	"/>
	<polygon display="inline" fill="#FFFFFF" points="624.246,99.951 607.134,115.144 624.94,108.071 	"/>
	<polygon display="inline" fill="#2FADB6" points="633.388,121.173 625.914,119.457 626.621,127.724 	"/>
	<polygon display="inline" fill="#0E3753" points="625.914,119.457 607.134,115.144 626.621,127.724 	"/>
	<polygon display="inline" fill="#A5D8E4" points="624.94,108.071 607.134,115.144 625.914,119.457 	"/>
	<polygon display="inline" fill="#A5D8E4" points="632.712,113.275 625.914,119.457 633.388,121.173 	"/>
	<polygon display="inline" fill="#FFFFFF" points="632.026,105.257 624.94,108.071 632.712,113.275 	"/>
	<polygon display="inline" fill="#2FADB6" points="632.712,113.275 624.94,108.071 625.914,119.457 	"/>
	<polygon display="inline" fill="#0E3753" points="1436.034,391.497 1445.392,392.555 1440.986,385.699 	"/>
	<polygon display="inline" fill="#FFFFFF" points="1445.392,392.555 1453.429,371.13 1440.986,385.699 	"/>
	<polygon display="inline" fill="#2FADB6" points="1427.398,378.058 1434.808,376.085 1430.323,369.106 	"/>
	<polygon display="inline" fill="#0E3753" points="1434.808,376.086 1453.429,371.13 1430.323,369.106 	"/>
	<polygon display="inline" fill="#A5D8E4" points="1440.986,385.699 1453.429,371.13 1434.808,376.085 	"/>
	<polygon display="inline" fill="#A5D8E4" points="1431.684,384.726 1434.808,376.086 1427.398,378.058 	"/>
	<polygon display="inline" fill="#FFFFFF" points="1436.034,391.497 1440.986,385.699 1431.684,384.726 	"/>
	<polygon display="inline" fill="#2FADB6" points="1431.684,384.726 1440.986,385.7 1434.808,376.086 	"/>
	<g display="inline">
		<path fill="#FBBE11" d="M465.881,102.927c-26.233-26.233-68.762-26.231-94.994,0.001c-26.231,26.231-26.231,68.759,0.001,94.992
			s68.758,26.23,94.989-0.001C492.11,171.686,492.114,129.159,465.881,102.927 M381.811,186.997
			c-20.201-20.201-20.2-52.95-0.003-73.148c20.201-20.201,52.949-20.201,73.15,0c20.198,20.198,20.2,52.948-0.001,73.149
			C434.76,207.196,402.008,207.195,381.811,186.997"/>
		<polygon fill="#0E3753" points="471.78,65.816 446.908,67.445 462.83,83.366 		"/>
		<polygon fill="#FFFFFF" points="446.908,67.445 440.329,127.469 462.828,83.366 		"/>
		<polygon fill="#A5D8E4" points="485.153,105.691 501.361,121.899 502.987,97.024 		"/>
		<polygon fill="#0E3753" points="440.33,127.469 501.362,121.899 485.154,105.691 		"/>
		<polygon fill="#FFFFFF" points="485.153,105.691 502.987,97.024 471.78,65.816 462.829,83.367 		"/>
		<polygon fill="#A5D8E4" points="462.829,83.366 440.33,127.47 485.153,105.69 		"/>
	</g>
	<polygon display="inline" fill="#FBBE11" points="940.956,329.718 926.836,356.874 950.575,337.553 	"/>
	<g display="inline">
		<path fill="#A5D8E4" d="M933.037,374.796c-5.625,6.906-15.783,7.944-22.689,2.319c-6.905-5.624-7.942-15.782-2.317-22.688
			c5.624-6.905,15.782-7.944,22.687-2.319C937.624,357.733,938.662,367.891,933.037,374.796"/>
		<path fill="#FFFFFF" d="M922.606,358.37c-1.687,2.071-4.734,2.383-6.806,0.696c-2.072-1.688-2.383-4.736-0.696-6.807
			s4.735-2.383,6.807-0.695C923.983,353.252,924.293,356.299,922.606,358.37"/>
		<path fill="#FBBE11" d="M912.539,378.899c-0.985,1.209-2.764,1.391-3.974,0.405c-1.21-0.986-1.392-2.764-0.407-3.974
			c0.985-1.21,2.764-1.392,3.974-0.406C913.343,375.91,913.524,377.689,912.539,378.899"/>
		<polygon fill="#FBBE11" points="979.969,361.495 970.349,353.66 956.23,380.816 		"/>
		<path fill="#A5D8E4" d="M962.431,398.738c-5.625,6.906-15.783,7.944-22.689,2.319c-6.905-5.624-7.942-15.782-2.317-22.688
			c5.624-6.905,15.782-7.944,22.687-2.319C967.018,381.675,968.055,391.833,962.431,398.738"/>
		<path fill="#FFFFFF" d="M952,382.313c-1.687,2.071-4.734,2.383-6.806,0.696c-2.071-1.687-2.383-4.735-0.696-6.806
			c1.687-2.071,4.735-2.383,6.806-0.696C953.376,377.194,953.687,380.242,952,382.313"/>
		<path fill="#FBBE11" d="M941.932,402.841c-0.985,1.209-2.764,1.391-3.974,0.405c-1.209-0.985-1.392-2.764-0.407-3.974
			c0.986-1.21,2.765-1.391,3.974-0.406C942.736,399.853,942.918,401.632,941.932,402.841"/>
	</g>
</g>
<g id="money" display="none">
	<g display="inline">
		<defs>
			<rect id="SVGID_1_" x="786.519" y="400.057" width="28.943" height="28.943"/>
		</defs>
		<clipPath id="SVGID_2_">
			<use xlink:href="#SVGID_1_"  overflow="visible"/>
		</clipPath>
		<path clip-path="url(#SVGID_2_)" fill="#DC800A" d="M815.457,414.905c-0.208,7.989-6.853,14.297-14.842,14.089
			c-7.991-0.206-14.299-6.851-14.091-14.842c0.208-7.989,6.853-14.297,14.844-14.089
			C809.357,400.27,815.665,406.916,815.457,414.905"/>
		<path clip-path="url(#SVGID_2_)" fill="#E9BC10" d="M813.34,414.85c-0.177,6.819-5.85,12.206-12.672,12.027
			c-6.819-0.177-12.206-5.848-12.029-12.67c0.179-6.819,5.852-12.206,12.672-12.029C808.133,402.356,813.517,408.031,813.34,414.85"
			/>
		<path clip-path="url(#SVGID_2_)" fill="#E9BC10" d="M809.923,414.762c-0.128,4.934-4.23,8.83-9.165,8.703
			c-4.934-0.13-8.831-4.232-8.701-9.169c0.128-4.932,4.23-8.828,9.165-8.701C806.157,405.725,810.051,409.827,809.923,414.762"/>
		<path clip-path="url(#SVGID_2_)" fill="#F3D685" d="M801.223,405.596c-4.934-0.128-9.037,3.767-9.167,8.701
			c-0.096,3.741,2.121,7,5.347,8.416l7.726-16.094C803.958,406.003,802.635,405.633,801.223,405.596"/>
		<path clip-path="url(#SVGID_2_)" fill="#DC800A" d="M805.61,415.55c-1.04-1.455-2.451-1.897-3.961-2.371
			c-0.531-0.165-1.079-0.338-1.657-0.564c-0.413-0.161-0.812-0.368-1.156-0.596c-0.666-0.444-1.022-1.062-1.003-1.74
			c0.028-0.725,0.527-1.431,1.191-1.679c0.385-0.143,0.832-0.212,1.321-0.199c1.423,0.037,2.966,0.737,3.517,1.592
			c0.165,0.256,0.448,0.413,0.755,0.421c0.185,0.004,0.366-0.045,0.521-0.145c0.427-0.277,0.55-0.849,0.273-1.276
			c-0.604-0.932-1.744-1.704-3.13-2.119c-0.212-0.063-0.425-0.114-0.639-0.157l-0.218-0.045l0.024-0.953l-1.624-0.041l-0.024,0.906
			c-0.513,0.035-0.999,0.134-1.421,0.289c-1.755,0.655-2.595,2.235-2.302,4.337c0.252,1.811,2.542,2.847,3.238,3.122
			c0.609,0.238,1.193,0.421,1.708,0.582l0.224,0.071c0.234,0.073,0.47,0.145,0.702,0.224c0.674,0.23,2.725,0.924,2.565,2.791
			c-0.079,0.934-0.598,1.392-1.148,1.75c-0.517,0.34-1.191,0.509-1.948,0.489c-0.35-0.008-0.714-0.059-1.081-0.147
			c-1.339-0.322-2.044-0.739-2.801-1.651c-0.169-0.202-0.419-0.324-0.684-0.332c-0.224-0.006-0.44,0.071-0.613,0.216
			c-0.189,0.157-0.307,0.377-0.328,0.623c-0.022,0.246,0.051,0.484,0.208,0.672c1.034,1.24,2.08,1.785,3.287,2.129l-0.029,1.166
			l1.624,0.041l0.024-0.889l0.35,0.014c1.146,0.029,2.155-0.234,3.002-0.786c1.107-0.721,1.801-1.665,2.003-2.731
			C806.57,417.563,806.3,416.522,805.61,415.55"/>
		<path clip-path="url(#SVGID_2_)" fill="#DC800A" d="M805.61,415.55c-1.04-1.455-2.451-1.897-3.961-2.371
			c-0.531-0.165-1.079-0.338-1.657-0.564c-0.413-0.161-0.812-0.368-1.156-0.596c-0.666-0.444-1.022-1.062-1.003-1.74
			c0.028-0.725,0.527-1.431,1.191-1.679c0.385-0.143,0.832-0.212,1.321-0.199c1.423,0.037,2.966,0.737,3.517,1.592
			c0.165,0.256,0.448,0.413,0.755,0.421c0.185,0.004,0.366-0.045,0.521-0.145c0.427-0.277,0.55-0.849,0.273-1.276
			c-0.604-0.932-1.744-1.704-3.13-2.119c-0.212-0.063-0.425-0.114-0.639-0.157l-0.218-0.045l0.024-0.953l-1.624-0.041l-0.024,0.906
			c-0.513,0.035-0.999,0.134-1.421,0.289c-1.755,0.655-2.595,2.235-2.302,4.337c0.252,1.811,2.542,2.847,3.238,3.122
			c0.609,0.238,1.193,0.421,1.708,0.582l0.224,0.071c0.234,0.073,0.47,0.145,0.702,0.224c0.674,0.23,2.725,0.924,2.565,2.791
			c-0.079,0.934-0.598,1.392-1.148,1.75c-0.517,0.34-1.191,0.509-1.948,0.489c-0.35-0.008-0.714-0.059-1.081-0.147
			c-1.339-0.322-2.044-0.739-2.801-1.651c-0.169-0.202-0.419-0.324-0.684-0.332c-0.224-0.006-0.44,0.071-0.613,0.216
			c-0.189,0.157-0.307,0.377-0.328,0.623c-0.022,0.246,0.051,0.484,0.208,0.672c1.034,1.24,2.08,1.785,3.287,2.129l-0.029,1.166
			l1.624,0.041l0.024-0.889l0.35,0.014c1.146,0.029,2.155-0.234,3.002-0.786c1.107-0.721,1.801-1.665,2.003-2.731
			C806.57,417.563,806.3,416.522,805.61,415.55"/>
		<path clip-path="url(#SVGID_2_)" fill="#E5EF59" d="M800.68,426.849c-6.81-0.177-12.206-5.825-12.031-12.589
			c0.177-6.764,5.86-12.123,12.67-11.946c6.808,0.177,12.206,5.825,12.029,12.589C813.173,421.667,807.49,427.026,800.68,426.849
			 M801.264,404.388c-5.665-0.147-10.393,4.305-10.541,9.925c-0.145,5.622,4.344,10.315,10.01,10.46
			c5.666,0.149,10.395-4.305,10.541-9.925C811.419,409.228,806.929,404.535,801.264,404.388"/>
	</g>
	<g display="inline">
		<defs>
			<rect id="SVGID_3_" x="1476.613" y="220.999" width="68.124" height="68.124"/>
		</defs>
		<clipPath id="SVGID_4_">
			<use xlink:href="#SVGID_3_"  overflow="visible"/>
		</clipPath>
		<path clip-path="url(#SVGID_4_)" fill="#DC800A" d="M1544.726,255.947c-0.49,18.804-16.13,33.653-34.934,33.162
			c-18.809-0.486-33.657-16.125-33.167-34.934c0.49-18.804,16.13-33.653,34.939-33.162
			C1530.368,221.499,1545.216,237.143,1544.726,255.947"/>
		<path clip-path="url(#SVGID_4_)" fill="#E9BC10" d="M1539.744,255.818c-0.417,16.051-13.77,28.73-29.826,28.308
			c-16.051-0.416-28.729-13.766-28.313-29.822c0.421-16.051,13.775-28.73,29.826-28.313
			C1527.487,226.409,1540.16,239.767,1539.744,255.818"/>
		<path clip-path="url(#SVGID_4_)" fill="#E9BC10" d="M1531.701,255.609c-0.301,11.614-9.958,20.785-21.572,20.484
			c-11.614-0.305-20.785-9.962-20.479-21.581c0.301-11.609,9.957-20.78,21.571-20.479
			C1522.835,234.338,1532.001,243.995,1531.701,255.609"/>
		<path clip-path="url(#SVGID_4_)" fill="#F3D685" d="M1511.222,234.035c-11.614-0.301-21.271,8.865-21.576,20.479
			c-0.227,8.805,4.993,16.477,12.586,19.809l18.184-37.882C1517.659,234.993,1514.545,234.123,1511.222,234.035"/>
		<path clip-path="url(#SVGID_4_)" fill="#DC800A" d="M1521.549,257.466c-2.448-3.424-5.77-4.465-9.324-5.58
			c-1.249-0.389-2.54-0.796-3.901-1.328c-0.972-0.379-1.911-0.865-2.721-1.402c-1.569-1.046-2.406-2.499-2.36-4.095
			c0.065-1.707,1.24-3.369,2.804-3.952c0.907-0.338,1.957-0.5,3.109-0.467c3.35,0.088,6.982,1.735,8.278,3.748
			c0.389,0.602,1.055,0.972,1.777,0.99c0.435,0.009,0.861-0.106,1.226-0.342c1.004-0.652,1.296-1.999,0.643-3.003
			c-1.42-2.193-4.104-4.012-7.366-4.988c-0.5-0.148-1-0.268-1.504-0.37l-0.514-0.106l0.056-2.244l-3.822-0.097l-0.055,2.133
			c-1.208,0.083-2.351,0.315-3.345,0.68c-4.132,1.541-6.108,5.261-5.418,10.207c0.592,4.262,5.983,6.7,7.621,7.348
			c1.434,0.56,2.809,0.99,4.021,1.37l0.528,0.167c0.551,0.171,1.106,0.342,1.652,0.527c1.587,0.541,6.413,2.175,6.038,6.57
			c-0.185,2.198-1.407,3.276-2.702,4.118c-1.217,0.801-2.804,1.198-4.585,1.152c-0.824-0.019-1.68-0.139-2.545-0.347
			c-3.151-0.759-4.812-1.74-6.594-3.887c-0.398-0.477-0.986-0.763-1.61-0.782c-0.527-0.014-1.036,0.167-1.444,0.509
			c-0.444,0.37-0.722,0.888-0.773,1.467c-0.051,0.578,0.12,1.138,0.49,1.582c2.434,2.92,4.896,4.201,7.737,5.011l-0.069,2.744
			l3.822,0.097l0.055-2.091l0.824,0.032c2.698,0.069,5.071-0.551,7.066-1.851c2.605-1.698,4.238-3.919,4.715-6.427
			C1523.807,262.204,1523.173,259.752,1521.549,257.466"/>
		<path clip-path="url(#SVGID_4_)" fill="#DC800A" d="M1521.549,257.466c-2.448-3.424-5.77-4.465-9.324-5.58
			c-1.249-0.389-2.54-0.796-3.901-1.328c-0.972-0.379-1.911-0.865-2.721-1.402c-1.569-1.046-2.406-2.499-2.36-4.095
			c0.065-1.707,1.24-3.369,2.804-3.952c0.907-0.338,1.957-0.5,3.109-0.467c3.35,0.088,6.982,1.735,8.278,3.748
			c0.389,0.602,1.055,0.972,1.777,0.99c0.435,0.009,0.861-0.106,1.226-0.342c1.004-0.652,1.296-1.999,0.643-3.003
			c-1.42-2.193-4.104-4.012-7.366-4.988c-0.5-0.148-1-0.268-1.504-0.37l-0.514-0.106l0.056-2.244l-3.822-0.097l-0.055,2.133
			c-1.208,0.083-2.351,0.315-3.345,0.68c-4.132,1.541-6.108,5.261-5.418,10.207c0.592,4.262,5.983,6.7,7.621,7.348
			c1.434,0.56,2.809,0.99,4.021,1.37l0.528,0.167c0.551,0.171,1.106,0.342,1.652,0.527c1.587,0.541,6.413,2.175,6.038,6.57
			c-0.185,2.198-1.407,3.276-2.702,4.118c-1.217,0.801-2.804,1.198-4.585,1.152c-0.824-0.019-1.68-0.139-2.545-0.347
			c-3.151-0.759-4.812-1.74-6.594-3.887c-0.398-0.477-0.986-0.763-1.61-0.782c-0.527-0.014-1.036,0.167-1.444,0.509
			c-0.444,0.37-0.722,0.888-0.773,1.467c-0.051,0.578,0.12,1.138,0.49,1.582c2.434,2.92,4.896,4.201,7.737,5.011l-0.069,2.744
			l3.822,0.097l0.055-2.091l0.824,0.032c2.698,0.069,5.071-0.551,7.066-1.851c2.605-1.698,4.238-3.919,4.715-6.427
			C1523.807,262.204,1523.173,259.752,1521.549,257.466"/>
		<path clip-path="url(#SVGID_4_)" fill="#E5EF59" d="M1509.944,284.061c-16.028-0.416-28.729-13.71-28.318-29.632
			c0.417-15.922,13.793-28.535,29.822-28.119c16.024,0.416,28.729,13.71,28.313,29.632
			C1539.349,271.864,1525.973,284.477,1509.944,284.061 M1511.319,231.192c-13.335-0.347-24.463,10.133-24.81,23.362
			c-0.342,13.233,10.226,24.278,23.561,24.621c13.335,0.352,24.468-10.133,24.81-23.362
			C1535.222,242.583,1524.654,231.539,1511.319,231.192"/>
	</g>
	<g display="inline">
		<defs>
			<rect id="SVGID_5_" x="191.907" y="229.288" width="49.468" height="49.468"/>
		</defs>
		<clipPath id="SVGID_6_">
			<use xlink:href="#SVGID_5_"  overflow="visible"/>
		</clipPath>
		<path clip-path="url(#SVGID_6_)" fill="#DC800A" d="M241.367,254.666c-0.356,13.655-11.713,24.437-25.367,24.081
			c-13.658-0.353-24.44-11.709-24.084-25.367c0.356-13.655,11.713-24.437,25.371-24.081
			C230.941,229.651,241.723,241.011,241.367,254.666"/>
		<path clip-path="url(#SVGID_6_)" fill="#E9BC10" d="M237.749,254.572c-0.302,11.656-9.999,20.862-21.658,20.556
			c-11.656-0.302-20.862-9.996-20.559-21.655c0.306-11.656,10.002-20.862,21.658-20.559
			C228.849,233.217,238.051,242.917,237.749,254.572"/>
		<path clip-path="url(#SVGID_6_)" fill="#E9BC10" d="M231.908,254.42c-0.218,8.433-7.231,15.093-15.664,14.874
			c-8.433-0.222-15.093-7.234-14.871-15.671c0.218-8.43,7.231-15.089,15.664-14.871C225.471,238.975,232.127,245.987,231.908,254.42
			"/>
		<path clip-path="url(#SVGID_6_)" fill="#F3D685" d="M217.038,238.754c-8.433-0.218-15.446,6.438-15.667,14.871
			c-0.165,6.394,3.625,11.965,9.139,14.384l13.204-27.508C221.712,239.45,219.451,238.818,217.038,238.754"/>
		<path clip-path="url(#SVGID_6_)" fill="#DC800A" d="M224.537,255.769c-1.777-2.486-4.19-3.242-6.77-4.052
			c-0.907-0.282-1.845-0.578-2.832-0.964c-0.706-0.276-1.388-0.628-1.976-1.018c-1.139-0.759-1.747-1.814-1.714-2.974
			c0.047-1.24,0.9-2.446,2.036-2.869c0.659-0.245,1.421-0.363,2.258-0.339c2.433,0.064,5.07,1.26,6.011,2.722
			c0.282,0.437,0.766,0.706,1.29,0.719c0.316,0.007,0.625-0.077,0.89-0.249c0.729-0.474,0.941-1.451,0.467-2.181
			c-1.031-1.593-2.98-2.913-5.349-3.622c-0.363-0.108-0.726-0.195-1.092-0.269l-0.373-0.077l0.04-1.63l-2.775-0.071l-0.04,1.549
			c-0.877,0.06-1.707,0.228-2.429,0.494c-3,1.119-4.435,3.82-3.934,7.412c0.43,3.094,4.344,4.865,5.534,5.336
			c1.042,0.407,2.039,0.719,2.92,0.995l0.383,0.121c0.4,0.124,0.803,0.249,1.199,0.383c1.152,0.393,4.657,1.579,4.385,4.771
			c-0.134,1.596-1.021,2.379-1.962,2.99c-0.884,0.581-2.036,0.87-3.33,0.837c-0.598-0.013-1.22-0.101-1.848-0.252
			c-2.288-0.551-3.494-1.263-4.788-2.822c-0.289-0.346-0.716-0.554-1.169-0.568c-0.383-0.01-0.753,0.121-1.048,0.37
			c-0.323,0.269-0.524,0.645-0.561,1.065s0.087,0.827,0.356,1.149c1.767,2.12,3.555,3.051,5.618,3.639l-0.05,1.992l2.775,0.071
			l0.04-1.519l0.598,0.024c1.959,0.05,3.682-0.4,5.131-1.344c1.892-1.233,3.078-2.846,3.424-4.667
			C226.176,259.209,225.716,257.429,224.537,255.769"/>
		<path clip-path="url(#SVGID_6_)" fill="#DC800A" d="M224.537,255.769c-1.777-2.486-4.19-3.242-6.77-4.052
			c-0.907-0.282-1.845-0.578-2.832-0.964c-0.706-0.276-1.388-0.628-1.976-1.018c-1.139-0.759-1.747-1.814-1.714-2.974
			c0.047-1.24,0.9-2.446,2.036-2.869c0.659-0.245,1.421-0.363,2.258-0.339c2.433,0.064,5.07,1.26,6.011,2.722
			c0.282,0.437,0.766,0.706,1.29,0.719c0.316,0.007,0.625-0.077,0.89-0.249c0.729-0.474,0.941-1.451,0.467-2.181
			c-1.031-1.593-2.98-2.913-5.349-3.622c-0.363-0.108-0.726-0.195-1.092-0.269l-0.373-0.077l0.04-1.63l-2.775-0.071l-0.04,1.549
			c-0.877,0.06-1.707,0.228-2.429,0.494c-3,1.119-4.435,3.82-3.934,7.412c0.43,3.094,4.344,4.865,5.534,5.336
			c1.042,0.407,2.039,0.719,2.92,0.995l0.383,0.121c0.4,0.124,0.803,0.249,1.199,0.383c1.152,0.393,4.657,1.579,4.385,4.771
			c-0.134,1.596-1.021,2.379-1.962,2.99c-0.884,0.581-2.036,0.87-3.33,0.837c-0.598-0.013-1.22-0.101-1.848-0.252
			c-2.288-0.551-3.494-1.263-4.788-2.822c-0.289-0.346-0.716-0.554-1.169-0.568c-0.383-0.01-0.753,0.121-1.048,0.37
			c-0.323,0.269-0.524,0.645-0.561,1.065s0.087,0.827,0.356,1.149c1.767,2.12,3.555,3.051,5.618,3.639l-0.05,1.992l2.775,0.071
			l0.04-1.519l0.598,0.024c1.959,0.05,3.682-0.4,5.131-1.344c1.892-1.233,3.078-2.846,3.424-4.667
			C226.176,259.209,225.716,257.429,224.537,255.769"/>
		<path clip-path="url(#SVGID_6_)" fill="#E5EF59" d="M216.11,275.08c-11.639-0.302-20.862-9.955-20.563-21.517
			c0.302-11.561,10.016-20.721,21.655-20.418c11.635,0.302,20.862,9.955,20.559,21.517
			C237.463,266.223,227.749,275.383,216.11,275.08 M217.108,236.69c-9.683-0.252-17.764,7.358-18.016,16.964
			c-0.249,9.609,7.425,17.63,17.109,17.878c9.683,0.255,17.767-7.358,18.016-16.964C234.466,244.962,226.792,236.942,217.108,236.69
			"/>
	</g>
	<g display="inline">
		<defs>
			<rect id="SVGID_7_" x="278.478" y="338.579" width="74.272" height="80.279"/>
		</defs>
		<clipPath id="SVGID_8_">
			<use xlink:href="#SVGID_7_"  overflow="visible"/>
		</clipPath>
		<path clip-path="url(#SVGID_8_)" fill="#C6C6C6" d="M335.115,343.586c-5.737-3.179-12.325-5.004-19.338-5.004
			c-6.727,0-13.07,1.674-18.643,4.616v5.905c0.25,0.331,0.499,0.663,0.745,0.994c5.193-3.265,11.322-5.164,17.898-5.164
			c6.633,0,12.824,1.931,18.049,5.25c0.413-0.569,0.847-1.125,1.289-1.669V343.586z"/>
		<path clip-path="url(#SVGID_8_)" fill="#898989" d="M335.039,346.973c-5.737-3.184-12.325-5.004-19.338-5.004
			c-6.727,0-13.07,1.674-18.643,4.612v5.909c0.25,0.331,0.499,0.663,0.745,0.994c5.193-3.265,11.322-5.164,17.898-5.164
			c6.633,0,12.824,1.927,18.045,5.25c0.421-0.573,0.855-1.125,1.293-1.669V346.973z"/>
		<path clip-path="url(#SVGID_8_)" fill="#FFFFFF" d="M349.807,380.026c0,18.884-15.308,34.192-34.196,34.192
			c-18.884,0-34.192-15.308-34.192-34.192c0-18.884,15.308-34.196,34.192-34.196C334.5,345.83,349.807,361.142,349.807,380.026"/>
		<path clip-path="url(#SVGID_8_)" fill="#398013" d="M315.613,417.162c-20.476,0-37.134-16.658-37.134-37.134
			c0-20.48,16.658-37.138,37.134-37.138s37.134,16.658,37.134,37.138C352.747,400.503,336.089,417.162,315.613,417.162
			 M315.613,348.773c-17.231,0-31.25,14.019-31.25,31.254c0,17.231,14.019,31.25,31.25,31.25s31.25-14.019,31.25-31.25
			C346.863,362.792,332.844,348.773,315.613,348.773"/>
		<path clip-path="url(#SVGID_8_)" fill="#5F9E3D" d="M315.283,392.436c-6.666,0-12.096-5.422-12.096-12.092
			c0-6.67,5.43-12.096,12.096-12.096c6.67,0,12.092,5.426,12.092,12.096C327.375,387.014,321.953,392.436,315.283,392.436
			 M315.283,369.558c-5.946,0-10.786,4.837-10.786,10.786c0,5.946,4.841,10.782,10.786,10.782c5.95,0,10.786-4.837,10.786-10.782
			C326.07,374.395,321.233,369.558,315.283,369.558"/>
		<path clip-path="url(#SVGID_8_)" fill="#2A2626" d="M307.379,382.099c6.645-2.492,12.235-3.961,12.493-3.286
			c0.25,0.675-4.931,3.245-11.576,5.733c-6.645,2.492-12.235,3.965-12.489,3.286C295.554,387.156,300.734,384.591,307.379,382.099"
			/>
		<path clip-path="url(#SVGID_8_)" fill="#2A2626" d="M316.509,390.283c0.176,8.327-0.266,15.091-0.986,15.103
			c-0.724,0.016-1.453-6.719-1.629-15.046c-0.176-8.327,0.266-15.087,0.99-15.103C315.605,375.221,316.333,381.96,316.509,390.283"
			/>
		<path clip-path="url(#SVGID_8_)" fill="#212121" d="M312.722,354.385h1.003v-3.229h-0.798v-0.364
			c0.401-0.07,0.687-0.176,0.929-0.323h0.434v3.916h0.904v0.466h-2.471V354.385z"/>
		<path clip-path="url(#SVGID_8_)" fill="#212121" d="M315.866,354.515c1.318-1.313,2.062-2.103,2.062-2.807
			c0-0.503-0.278-0.859-0.835-0.859c-0.364,0-0.679,0.233-0.933,0.528l-0.323-0.323c0.364-0.397,0.757-0.667,1.326-0.667
			c0.81,0,1.314,0.516,1.314,1.293c0,0.822-0.749,1.641-1.788,2.725c0.241-0.02,0.507-0.041,0.737-0.041h1.268v0.487h-2.828V354.515
			z"/>
		<path clip-path="url(#SVGID_8_)" fill="#212121" d="M341.735,381.236c0.262,0.274,0.606,0.524,1.121,0.524
			c0.528,0,0.904-0.319,0.904-0.806c0-0.52-0.356-0.872-1.399-0.872v-0.434c0.933,0,1.244-0.356,1.244-0.814
			c0-0.426-0.291-0.696-0.757-0.696c-0.364,0-0.675,0.184-0.933,0.446l-0.303-0.356c0.336-0.315,0.741-0.548,1.256-0.548
			c0.761,0,1.313,0.405,1.313,1.113c0,0.528-0.323,0.863-0.798,1.043v0.025c0.528,0.127,0.945,0.512,0.945,1.113
			c0,0.777-0.638,1.252-1.44,1.252c-0.7,0-1.146-0.295-1.44-0.618L341.735,381.236z"/>
		<path clip-path="url(#SVGID_8_)" fill="#212121" d="M316.879,406.443c-0.176-0.213-0.446-0.344-0.72-0.344
			c-0.61,0-1.125,0.475-1.154,1.862c0.274-0.34,0.667-0.552,1.023-0.552c0.757,0,1.252,0.454,1.252,1.354
			c0,0.839-0.593,1.408-1.297,1.408c-0.859,0-1.514-0.7-1.514-2.107c0-1.76,0.798-2.439,1.67-2.439c0.475,0,0.81,0.201,1.06,0.466
			L316.879,406.443z M316.744,408.763c0-0.569-0.27-0.929-0.81-0.929c-0.274,0-0.618,0.168-0.912,0.581
			c0.065,0.851,0.405,1.309,0.962,1.309C316.412,409.724,316.744,409.34,316.744,408.763"/>
		<path clip-path="url(#SVGID_8_)" fill="#212121" d="M286.7,380.917c0.176,0.213,0.446,0.352,0.72,0.352
			c0.618,0,1.138-0.483,1.158-1.882c-0.274,0.352-0.663,0.565-1.027,0.565c-0.757,0-1.244-0.454-1.244-1.354
			c0-0.839,0.589-1.408,1.293-1.408c0.863,0,1.51,0.7,1.51,2.107c0,1.76-0.798,2.439-1.67,2.439c-0.466,0-0.818-0.201-1.06-0.462
			L286.7,380.917z M288.566,378.941c-0.074-0.851-0.413-1.305-0.966-1.305c-0.43,0-0.765,0.385-0.765,0.962
			c0,0.569,0.27,0.929,0.81,0.929C287.928,379.526,288.271,379.358,288.566,378.941"/>
		<path clip-path="url(#SVGID_8_)" fill="#6EB748" d="M284.361,380.026c0-17.235,14.019-31.254,31.25-31.254
			c8.139,0,15.553,3.126,21.122,8.241l4.211-4.108c-6.641-6.207-15.549-10.017-25.333-10.017c-20.476,0-37.134,16.662-37.134,37.138
			c0,9.456,3.56,18.094,9.399,24.658l4.215-4.112C287.287,395.072,284.361,387.887,284.361,380.026"/>
		<path clip-path="url(#SVGID_8_)" fill="#6EA058" d="M315.608,410.468c-16.789,0-30.448-13.663-30.448-30.452
			c0-16.789,13.659-30.452,30.448-30.452c16.793,0,30.456,13.663,30.456,30.452C346.064,396.805,332.401,410.468,315.608,410.468
			 M315.608,350.219c-16.429,0-29.797,13.368-29.797,29.797c0,16.429,13.368,29.797,29.797,29.797
			c16.433,0,29.801-13.368,29.801-29.797C345.41,363.587,332.041,350.219,315.608,350.219"/>
		<path clip-path="url(#SVGID_8_)" fill="#398013" d="M315.608,413.381c-18.397,0-33.361-14.968-33.361-33.365
			s14.964-33.365,33.361-33.365c18.401,0,33.365,14.968,33.365,33.365S334.009,413.381,315.608,413.381 M315.608,348.614
			c-17.313,0-31.401,14.088-31.401,31.401c0,17.317,14.088,31.401,31.401,31.401c17.317,0,31.405-14.084,31.405-31.401
			C347.014,362.702,332.925,348.614,315.608,348.614"/>
		<path clip-path="url(#SVGID_8_)" fill="#398013" d="M298.839,417.353c-0.344,0.765-1.252,1.391-2.013,1.391h-3.233
			c-0.761,0-1.383-0.704-1.383-1.559v-8.405c0-0.859,0.618-1.485,1.375-1.391l7.865,0.97c0.761,0.094,1.097,0.798,0.749,1.563
			L298.839,417.353z"/>
		<path clip-path="url(#SVGID_8_)" fill="#398013" d="M332.186,417.468c0.348,0.765,1.252,1.391,2.013,1.391h3.233
			c0.761,0,1.387-0.704,1.387-1.559v-8.409c0-0.855-0.622-1.481-1.379-1.387l-7.869,0.97c-0.753,0.094-1.093,0.798-0.745,1.563
			L332.186,417.468z"/>
		<path clip-path="url(#SVGID_8_)" fill="#FFFFFF" d="M332.393,344.494c0.053,0.008,0.102,0.016,0.155,0.029v-1.682
			c-5.033-2.447-10.811-3.855-16.961-3.855c-5.896,0-11.461,1.289-16.347,3.556v1.551c4.849-2.222,10.357-3.482,16.192-3.482
			c6.15,0,11.932,1.404,16.961,3.85V344.494z"/>
	</g>
	<g display="inline">
		<path fill="#6C3625" d="M1294.978,407.991c0.448,1.722-0.597,3.496-2.319,3.944l-101.526,26.425
			c-1.722,0.448-3.5-0.591-3.948-2.313l-18.743-72.011c-0.448-1.722,0.597-3.496,2.319-3.944l101.526-26.425
			c1.722-0.448,3.5,0.591,3.948,2.313L1294.978,407.991z"/>
		<path fill="#592C1F" d="M1272.289,333.664l-48.752,12.689l20.373,78.273l48.752-12.689c1.722-0.448,2.766-2.227,2.318-3.949
			l-18.743-72.01C1275.791,334.26,1274.012,333.216,1272.289,333.664"/>
		<path fill="#F1C410" d="M1221.517,379.832c0.052,0.403,0.122,0.811,0.227,1.216l2.871,11.03c1.329,5.108,6.541,8.167,11.649,6.837
			c5.103-1.328,8.167-6.541,6.837-11.649l-2.871-11.03c-0.105-0.405-0.244-0.795-0.4-1.171L1221.517,379.832z"/>
		<path fill="#F39C12" d="M1235.798,397.128c-4.111,1.07-8.328-1.405-9.397-5.516l-2.715-10.432l14.908-3.88l2.715,10.432
			C1242.379,391.843,1239.908,396.058,1235.798,397.128"/>
		<path fill="#A26A4C" d="M1276.236,335.981c-0.448-1.722-2.226-2.761-3.948-2.313l-101.526,26.425
			c-1.722,0.448-2.768,2.222-2.319,3.944l4.27,16.404c3.754,5.436,9.247,8.885,14.917,9.169l84.323-21.948
			c4.812-3.012,7.926-8.702,8.554-15.278L1276.236,335.981z"/>
		<path fill="#C48B66" d="M1268.06,365.683l-2.62,0.682c-0.123,0.032-0.248-0.041-0.28-0.164c-0.032-0.123,0.041-0.248,0.164-0.28
			l2.551-0.664c0.144-0.095,0.292-0.192,0.436-0.287c0.103-0.069,0.247-0.043,0.321,0.059c0.07,0.108,0.044,0.252-0.064,0.322
			c-0.156,0.109-0.318,0.215-0.482,0.315L1268.06,365.683z M1263.204,366.947l-3.129,0.814c-0.123,0.032-0.253-0.04-0.285-0.163
			c-0.032-0.123,0.046-0.249,0.169-0.281l3.129-0.814c0.123-0.032,0.253,0.04,0.285,0.163S1263.328,366.915,1263.204,366.947
			 M1257.84,368.343l-3.134,0.816c-0.123,0.032-0.248-0.041-0.28-0.164c-0.032-0.123,0.041-0.248,0.164-0.28l3.134-0.816
			c0.123-0.032,0.248,0.041,0.28,0.164C1258.036,368.187,1257.963,368.311,1257.84,368.343 M1252.471,369.741l-3.129,0.814
			c-0.123,0.032-0.253-0.04-0.285-0.163s0.046-0.249,0.169-0.281l3.129-0.814c0.123-0.032,0.248,0.041,0.28,0.164
			C1252.667,369.584,1252.594,369.708,1252.471,369.741 M1247.102,371.138l-3.129,0.814c-0.123,0.032-0.248-0.041-0.28-0.164
			s0.041-0.248,0.164-0.28l3.129-0.814c0.123-0.032,0.253,0.04,0.285,0.163C1247.303,370.98,1247.225,371.106,1247.102,371.138
			 M1241.737,372.534l-3.134,0.816c-0.123,0.032-0.248-0.041-0.28-0.164s0.041-0.248,0.164-0.28l3.134-0.816
			c0.123-0.032,0.248,0.041,0.28,0.164C1241.934,372.378,1241.861,372.502,1241.737,372.534 M1236.368,373.932l-3.129,0.814
			c-0.123,0.032-0.253-0.04-0.285-0.163s0.046-0.249,0.169-0.281l3.129-0.814c0.123-0.032,0.253,0.04,0.285,0.163
			S1236.492,373.9,1236.368,373.932 M1231.004,375.328l-3.134,0.816c-0.123,0.032-0.248-0.041-0.28-0.164
			c-0.032-0.123,0.041-0.248,0.164-0.28l3.134-0.816c0.123-0.032,0.248,0.041,0.28,0.164S1231.127,375.296,1231.004,375.328
			 M1225.635,376.725l-3.129,0.814c-0.128,0.033-0.253-0.04-0.285-0.163c-0.032-0.123,0.041-0.248,0.169-0.281l3.129-0.814
			c0.123-0.032,0.248,0.041,0.28,0.164S1225.758,376.693,1225.635,376.725 M1220.266,378.123l-3.129,0.814
			c-0.123,0.032-0.248-0.041-0.28-0.164c-0.032-0.123,0.041-0.248,0.164-0.28l3.129-0.814c0.123-0.032,0.253,0.04,0.285,0.163
			S1220.389,378.091,1220.266,378.123 M1214.901,379.519l-3.134,0.816c-0.123,0.032-0.248-0.041-0.28-0.164
			c-0.032-0.123,0.041-0.248,0.164-0.28l3.134-0.816c0.123-0.032,0.248,0.041,0.28,0.164
			C1215.098,379.363,1215.025,379.487,1214.901,379.519 M1209.532,380.917l-3.129,0.814c-0.123,0.032-0.253-0.04-0.285-0.163
			s0.046-0.249,0.169-0.281l3.129-0.814c0.123-0.032,0.248,0.041,0.28,0.164C1209.728,380.76,1209.655,380.884,1209.532,380.917
			 M1204.168,382.313l-3.134,0.816c-0.123,0.032-0.248-0.041-0.28-0.164s0.041-0.248,0.164-0.28l3.134-0.816
			c0.123-0.032,0.248,0.041,0.28,0.164C1204.364,382.156,1204.291,382.281,1204.168,382.313 M1198.799,383.71l-3.129,0.814
			c-0.128,0.033-0.253-0.04-0.285-0.163s0.041-0.248,0.169-0.281l3.129-0.814c0.123-0.032,0.248,0.041,0.28,0.164
			C1198.995,383.554,1198.922,383.678,1198.799,383.71 M1193.429,385.108l-3.129,0.814c-0.123,0.032-0.248-0.041-0.28-0.164
			c-0.032-0.123,0.041-0.248,0.164-0.28l3.129-0.814c0.123-0.032,0.253,0.04,0.285,0.163
			C1193.631,384.95,1193.553,385.076,1193.429,385.108 M1188.024,385.919c-0.03,0.008-0.067,0.007-0.099,0.005
			c-1.058-0.178-2.12-0.471-3.156-0.87c-0.118-0.048-0.179-0.18-0.132-0.303c0.043-0.117,0.18-0.179,0.298-0.13
			c1.008,0.391,2.041,0.675,3.066,0.846c0.126,0.02,0.21,0.14,0.191,0.267C1188.178,385.826,1188.107,385.898,1188.024,385.919
			 M1270.298,363.936c-0.079,0.021-0.168,0.002-0.227-0.062c-0.088-0.093-0.084-0.242,0.009-0.329
			c0.757-0.714,1.458-1.523,2.088-2.404c0.073-0.103,0.214-0.129,0.324-0.053c0.103,0.073,0.125,0.215,0.051,0.319
			c-0.643,0.91-1.365,1.741-2.148,2.477C1270.365,363.908,1270.333,363.927,1270.298,363.936 M1182.818,384.081
			c-0.054,0.014-0.115,0.004-0.17-0.024c-0.935-0.515-1.849-1.131-2.714-1.823c-0.1-0.079-0.117-0.228-0.038-0.327
			c0.079-0.1,0.229-0.112,0.324-0.032c0.845,0.676,1.739,1.276,2.649,1.776c0.117,0.064,0.153,0.203,0.093,0.318
			C1182.931,384.025,1182.878,384.066,1182.818,384.081 M1273.626,359.534c-0.054,0.014-0.114,0.009-0.168-0.019
			c-0.111-0.061-0.153-0.203-0.092-0.313c0.487-0.922,0.915-1.909,1.259-2.936c0.042-0.122,0.174-0.182,0.294-0.145
			c0.122,0.042,0.187,0.173,0.145,0.294c-0.354,1.051-0.792,2.061-1.294,3.003C1273.738,359.479,1273.685,359.519,1273.626,359.534
			 M1178.418,380.737c-0.079,0.021-0.163,0-0.222-0.063c-0.761-0.756-1.477-1.586-2.134-2.469c-0.079-0.101-0.059-0.248,0.043-0.322
			c0.101-0.079,0.248-0.059,0.328,0.046c0.64,0.861,1.348,1.678,2.089,2.418c0.088,0.093,0.089,0.24,0.002,0.331
			C1178.494,380.707,1178.457,380.727,1178.418,380.737 M1275.525,354.34c-0.035,0.009-0.07,0.013-0.11,0.002
			c-0.123-0.026-0.202-0.148-0.172-0.277c0.198-0.9,0.35-1.835,0.442-2.776l-0.078-0.301c-0.032-0.123,0.041-0.248,0.164-0.28
			s0.248,0.041,0.28,0.164l0.093,0.418c-0.088,0.977-0.242,1.944-0.452,2.879C1275.672,354.254,1275.604,354.319,1275.525,354.34
			 M1175.427,376.188c-0.123,0.032-0.248-0.041-0.28-0.164l-0.814-3.129c-0.032-0.123,0.04-0.253,0.163-0.285
			c0.123-0.032,0.249,0.046,0.281,0.169l0.814,3.129C1175.623,376.032,1175.55,376.156,1175.427,376.188 M1275.305,348.917
			c-0.123,0.032-0.248-0.041-0.28-0.164l-0.816-3.134c-0.032-0.123,0.041-0.248,0.164-0.28s0.248,0.041,0.28,0.164l0.816,3.134
			C1275.501,348.761,1275.428,348.885,1275.305,348.917 M1174.03,370.824c-0.123,0.032-0.248-0.041-0.28-0.164l-0.816-3.134
			c-0.032-0.123,0.041-0.248,0.164-0.28c0.123-0.032,0.248,0.041,0.28,0.164l0.816,3.134
			C1174.227,370.668,1174.154,370.792,1174.03,370.824 M1273.908,343.553c-0.123,0.032-0.249-0.046-0.281-0.169l-0.814-3.129
			c-0.032-0.123,0.041-0.248,0.164-0.28c0.123-0.032,0.248,0.041,0.28,0.164l0.814,3.129
			C1274.104,343.391,1274.032,343.521,1273.908,343.553 M1172.633,365.455c-0.123,0.032-0.248-0.041-0.28-0.164l-0.814-3.129
			c-0.032-0.123,0.04-0.253,0.163-0.285c0.123-0.032,0.249,0.046,0.281,0.169l0.814,3.129
			C1172.829,365.298,1172.756,365.423,1172.633,365.455 M1272.511,338.184c-0.123,0.032-0.248-0.041-0.28-0.164l-0.504-1.935
			c-0.032-0.123,0.04-0.253,0.163-0.285c0.123-0.032,0.249,0.046,0.281,0.169l0.503,1.935
			C1272.707,338.027,1272.634,338.151,1272.511,338.184"/>
		<path fill="#C48B66" d="M1273.727,337.35c0.229,0.878-0.197,1.753-0.952,1.95l-99.246,25.832c-0.75,0.195-1.548-0.361-1.777-1.239
			s0.197-1.753,0.947-1.948l99.246-25.832C1272.7,335.915,1273.498,336.471,1273.727,337.35"/>
		<path fill="#6C3625" d="M1240.266,376.55c0.068,0.504-0.277,1.021-0.771,1.149l-16.547,4.307
			c-0.493,0.128-1.047-0.154-1.233-0.628l-3.578-9.112c-0.186-0.473,0.065-0.965,0.558-1.094l19.231-5.006
			c0.493-0.128,0.953,0.179,1.021,0.683L1240.266,376.55z"/>
		
			<rect x="1221.471" y="376.92" transform="matrix(0.9678 -0.2519 0.2519 0.9678 -55.865 322.3495)" fill="#F4D862" width="19.413" height="4.931"/>
		
			<rect x="1228.401" y="376.841" transform="matrix(0.9678 -0.2519 0.2519 0.9678 -55.8353 322.4233)" fill="#F4E4A2" width="6.16" height="4.931"/>
		
			<rect x="1222.411" y="381.76" transform="matrix(0.9678 -0.2519 0.2519 0.9678 -56.7468 322.6729)" fill="#F39C12" width="19.179" height="2.463"/>
		
			<rect x="1222.842" y="382.971" transform="matrix(0.9678 -0.2519 0.2519 0.9678 -57.0297 322.8494)" fill="#F4D862" width="19.413" height="2.427"/>
		
			<rect x="1229.767" y="382.894" transform="matrix(0.9678 -0.2519 0.2519 0.9678 -57.0005 322.9221)" fill="#F4E4A2" width="6.16" height="2.427"/>
		<path d="M1235.702,392.974l-0.914-1.933c0.108-0.191,0.153-0.424,0.093-0.656c-0.121-0.464-0.593-0.741-1.057-0.621
			c-0.464,0.121-0.741,0.593-0.62,1.057c0.063,0.242,0.223,0.432,0.431,0.541l0.139,2.114L1235.702,392.974z"/>
		<path fill="#A26A4C" d="M1222.183,378.466c-0.109,0.028-0.223-0.026-0.267-0.136l-1.261-2.981
			c-0.052-0.118,0.004-0.249,0.122-0.301c0.115-0.046,0.254,0.003,0.3,0.122l1.261,2.981c0.052,0.118-0.002,0.254-0.122,0.301
			C1222.208,378.459,1222.198,378.462,1222.183,378.466 M1238.719,373.45c-0.01,0.003-0.02,0.005-0.03,0.008
			c-0.127,0.017-0.241-0.074-0.258-0.202l-0.433-3.202c-0.017-0.127,0.078-0.247,0.195-0.262c0.127-0.017,0.246,0.073,0.262,0.195
			l0.434,3.207C1238.905,373.313,1238.828,373.422,1238.719,373.45 M1220.026,373.357c-0.109,0.028-0.229-0.03-0.272-0.135
			l-0.429-1.021l2.575-0.675c0.123-0.032,0.254,0.045,0.286,0.168c0.032,0.123-0.046,0.249-0.169,0.281l-2.057,0.541l0.222,0.527
			c0.046,0.115-0.007,0.255-0.122,0.301C1220.045,373.347,1220.036,373.355,1220.026,373.357 M1237.974,367.954
			c-0.01,0.003-0.015,0.004-0.025,0.006c-0.096,0.015-0.182-0.032-0.227-0.104l-2.738,0.718c-0.123,0.032-0.254-0.045-0.286-0.168
			c-0.031-0.118,0.041-0.248,0.164-0.28l3.226-0.845l0.056,0.418C1238.161,367.821,1238.087,367.924,1237.974,367.954
			 M1224.251,371.388c-0.123,0.032-0.248-0.041-0.28-0.164c-0.032-0.123,0.041-0.248,0.164-0.28l3.131-0.826
			c0.123-0.032,0.248,0.041,0.281,0.169c0.031,0.118-0.041,0.248-0.164,0.28L1224.251,371.388z M1229.618,369.981
			c-0.123,0.032-0.248-0.041-0.28-0.164s0.04-0.253,0.163-0.285l3.127-0.819c0.123-0.032,0.253,0.04,0.285,0.163
			s-0.04,0.253-0.168,0.286L1229.618,369.981z"/>
		<path fill="#6C3625" d="M1244.051,331.775c-0.058,2.044-1.793,3.639-3.87,3.674c-14.197,0.702-26.737,3.966-39.475,10.274
			c-1.826,0.981-4.123,0.436-5.165-1.322c-1.046-1.751-0.324-4.12,1.663-5.191c13.76-6.875,27.494-10.449,42.86-11.156
			C1242.32,328.02,1244.11,329.736,1244.051,331.775"/>
		<path fill="#A26A4C" d="M1196.203,345.216c0.304-0.938,0.978-1.788,1.963-2.318c13.76-6.875,27.494-10.449,42.86-11.155
			c1.118-0.017,2.121,0.396,2.844,1.067c0.104-0.328,0.173-0.672,0.184-1.033c0.053-2.043-1.732-3.759-3.989-3.725
			c-15.366,0.706-29.1,4.281-42.86,11.156c-1.987,1.07-2.714,3.441-1.667,5.197C1195.724,344.713,1195.947,344.982,1196.203,345.216
			"/>
		<path fill="#F39C12" d="M1202.001,351.959c0.011-0.14,0.002-0.275-0.032-0.408c-0.281-1.081-2.015-1.567-3.866-1.086
			c-1.855,0.483-3.127,1.752-2.846,2.833c0.035,0.133,0.093,0.255,0.171,0.372L1202.001,351.959z"/>
		<path fill="#F1C410" d="M1200.197,349.643c0.417,1.604,0.254,2.959-1.35,3.376c-1.604,0.417-2.295-0.557-2.712-2.161l-2.504-5.956
			c-0.417-1.604,0.546-3.246,2.15-3.663c1.604-0.417,3.246,0.546,3.663,2.15L1200.197,349.643z"/>
		<path fill="#F4D862" d="M1195.597,341.299c-1.494,0.494-2.366,2.065-1.965,3.605l2.504,5.956c0.401,1.54,1.049,2.493,2.522,2.199
			L1195.597,341.299z"/>
		<path d="M1197.018,344.003c0.104,0.4-0.137,0.81-0.537,0.914c-0.405,0.105-0.815-0.136-0.919-0.535
			c-0.104-0.4,0.137-0.81,0.542-0.916C1196.503,343.362,1196.914,343.603,1197.018,344.003"/>
		<path fill="#F39C12" d="M1248.182,339.939c0.011-0.14,0.002-0.275-0.032-0.408c-0.281-1.081-2.015-1.567-3.866-1.086
			c-1.856,0.483-3.127,1.752-2.846,2.833c0.035,0.133,0.093,0.255,0.171,0.372L1248.182,339.939z"/>
		<path fill="#F1C410" d="M1246.378,337.623c0.417,1.604,0.254,2.959-1.35,3.376c-1.604,0.417-2.295-0.557-2.712-2.161l-2.504-5.956
			c-0.417-1.604,0.546-3.246,2.15-3.663c1.604-0.417,3.246,0.546,3.663,2.15L1246.378,337.623z"/>
		<path fill="#F4D862" d="M1241.778,329.279c-1.494,0.494-2.366,2.065-1.965,3.605l2.504,5.956c0.401,1.54,1.049,2.493,2.522,2.199
			L1241.778,329.279z"/>
		<path d="M1243.198,331.983c0.104,0.4-0.137,0.81-0.537,0.914c-0.405,0.105-0.81-0.137-0.914-0.537s0.132-0.809,0.537-0.914
			C1242.683,331.343,1243.094,331.584,1243.198,331.983"/>
	</g>
	<g display="inline">
		<g>
			<path fill="#702C12" d="M894.099,206.507c-3.359,0-6.164-0.751-8.361-2.245c-2.633-1.784-4.263-4.54-4.854-8.188
				c-1.015-6.275,0.086-10.84,3.261-13.553c3.722-3.181,10.071-3.433,18.37-0.726c2.399,0.781,4.386,0.375,5.604-1.138
				c1.046-1.298,1.243-3.113,0.48-4.411c-0.929-1.575-3.211-2.178-6.263-1.655c-9.099,1.569-14.863,1.021-18.13-1.735
				c-1.926-1.624-2.904-3.95-2.904-6.909c0-4.196,1.895-6.183,3.482-7.118c3.642-2.141,9.425-1.027,17.183,3.298
				c2.811,1.569,5.205,2.03,6.398,1.224c0.664-0.437,0.984-1.341,0.861-2.412c-0.148-1.286-1.034-3.045-3.039-3.796
				c-1.858-0.701-4.319-1.193-6.706-1.68c-5.272-1.064-10.255-2.067-12.261-5.402c-0.898-1.489-1.064-3.218-0.498-5.149
				c0.984-3.347,3.058-4.553,4.614-4.977c5.807-1.581,13.768,5.125,16.924,8.084c1.31,1.23,2.658,1.6,3.802,1.046
				c1.107-0.535,1.796-1.833,1.686-3.156c-0.185-2.227-2.405-4.116-6.084-5.186c-1.452-0.418-5.869-1.704-6.374-5.094
				c-0.597-4.03,4.583-7.407,10.071-10.981c0.787-0.517,1.563-1.021,2.282-1.507c0.917-0.615,2.166-0.375,2.781,0.541
				c0.621,0.917,0.381,2.159-0.535,2.781c-0.744,0.498-1.532,1.015-2.344,1.544c-2.233,1.452-4.54,2.953-6.22,4.405
				c-2.159,1.864-2.073,2.621-2.073,2.627c0,0.012,0.271,0.892,3.531,1.839c7.61,2.209,8.797,6.816,8.957,8.693
				c0.252,2.99-1.329,5.838-3.931,7.099c-2.664,1.286-5.758,0.64-8.293-1.729c-5.297-4.971-10.569-7.838-13.128-7.143
				c-0.541,0.148-1.323,0.541-1.821,2.239c-0.32,1.095-0.111,1.643,0.08,1.956c1.101,1.821,5.629,2.738,9.628,3.544
				c2.541,0.511,5.162,1.046,7.315,1.852c3.094,1.157,5.242,3.876,5.611,7.087c0.301,2.596-0.677,4.915-2.608,6.207
				c-1.803,1.2-5.1,1.993-10.575-1.058c-8.748-4.879-12.15-3.962-13.202-3.347c-1.003,0.591-1.507,1.821-1.507,3.667
				c0,2.332,0.843,3.31,1.477,3.845c2.239,1.883,7.241,2.172,14.87,0.855c6.798-1.175,9.53,2.104,10.397,3.568
				c1.612,2.744,1.292,6.337-0.812,8.951c-2.264,2.824-5.992,3.728-9.966,2.436c-6.798-2.221-11.96-2.233-14.525-0.043
				c-2.042,1.747-2.682,5.069-1.907,9.88c0.412,2.547,1.44,4.35,3.144,5.512c2.522,1.71,6.601,2.006,11.8,0.861
				c12.323-2.725,22.012-1.169,26.688,0c1.07,0.271,1.741,1.36,1.477,2.436c-0.271,1.07-1.335,1.729-2.412,1.458
				c-4.368-1.095-13.362-2.535-24.891,0.012C898.27,206.248,896.086,206.507,894.099,206.507"/>
			<path fill="#FFC226" d="M1024.209,122.337h-12.975c-5.34,0-9.8-16.678-10.877-21.698c-0.886-0.135-3.168-0.228-6.214-0.289
				c-3.414,2.313-7.967,3.728-12.962,3.728c-4.86,0-9.296-1.341-12.679-3.544c-3.119,0.111-5.518,0.252-6.54,0.424
				c-1.194,4.854-5.574,21.378-10.803,21.378h-12.526l-28.632,71.641h142.832L1024.209,122.337z"/>
			<polygon fill="#F9D98A" points="1024.209,122.337 938.634,122.337 910.003,193.978 			"/>
			<path fill="#702C12" d="M1010.189,122.124c-4.866-1.938-8.822-16.795-9.831-21.483c-0.886-0.135-3.168-0.234-6.214-0.289
				c-3.414,2.313-7.967,3.728-12.962,3.728c-4.86,0-9.296-1.341-12.679-3.544c-3.119,0.105-5.518,0.252-6.54,0.424
				c-1.114,4.534-5.008,19.237-9.776,21.163H1010.189z"/>
			<polygon fill="#702C12" points="1052.837,193.976 910.004,193.976 926.338,208.661 1036.503,208.661 			"/>
			<path fill="#D56C40" d="M1022.679,152.891c0,13.971-18.081,25.291-40.382,25.291s-40.376-11.32-40.376-25.291
				s18.075-25.291,40.376-25.291S1022.679,138.92,1022.679,152.891"/>
			<path fill="#EC8658" d="M1022.679,149.715c0,13.971-18.081,25.291-40.382,25.291s-40.376-11.32-40.376-25.291
				c0-13.971,18.075-25.297,40.376-25.297S1022.679,135.744,1022.679,149.715"/>
			<g opacity="0.2">
				<g>
					<defs>
						<rect id="SVGID_9_" x="941.919" y="124.421" width="66.451" height="42.271"/>
					</defs>
					<clipPath id="SVGID_10_">
						<use xlink:href="#SVGID_9_"  overflow="visible"/>
					</clipPath>
					<path clip-path="url(#SVGID_10_)" fill="#FFFFFF" d="M952.367,166.692c14.076-8.908,51.284-33.295,56.002-36.291
						c-7.032-3.728-16.131-5.98-26.072-5.98c-22.301,0-40.376,11.326-40.376,25.291
						C941.921,156.246,945.877,162.201,952.367,166.692"/>
				</g>
			</g>
			<path fill="#EFF2F4" d="M982.299,161.099c-13.473,0-23.919-5.611-23.919-13.393c0-7.795,10.446-13.387,23.919-13.387
				c13.473,0,23.925,4.928,23.925,13.387C1006.224,157.266,995.772,161.099,982.299,161.099"/>
			<path fill="#FFFFFF" d="M966.102,154.661c0-7.136,9.56-12.255,21.889-12.255c6.417,0,12.076,1.224,16.038,3.482
				c-1.267-6.73-10.311-10.606-21.735-10.606c-12.329,0-21.895,5.119-21.895,12.255c0,3.402,2.196,6.355,5.826,8.508
				C966.145,155.59,966.102,155.128,966.102,154.661"/>
			<path fill="#30363E" d="M1016.183,148.871c-2.99,0-5.303-1.593-5.303-2.971c0-1.372,2.313-2.965,5.303-2.965
				c2.99,0,5.303,1.593,5.303,2.965C1021.486,147.278,1019.173,148.871,1016.183,148.871"/>
			<path fill="#30363E" d="M1008.733,138.489c-2.793,0-4.965-1.495-4.965-2.781s2.172-2.775,4.965-2.775
				c2.793,0,4.965,1.489,4.965,2.775S1011.526,138.489,1008.733,138.489"/>
			<path fill="#30363E" d="M994.747,132.182c-2.793,0-4.965-1.495-4.965-2.781c0-1.28,2.172-2.775,4.965-2.775
				s4.965,1.495,4.965,2.775C999.712,130.687,997.54,132.182,994.747,132.182"/>
			<path fill="#30363E" d="M977.288,131.13c-2.793,0-4.965-1.495-4.965-2.781s2.172-2.775,4.965-2.775
				c2.793,0,4.965,1.489,4.965,2.775S980.081,131.13,977.288,131.13"/>
			<path fill="#30363E" d="M961.938,135.035c-2.793,0-4.965-1.495-4.965-2.781c0-1.286,2.172-2.775,4.965-2.775
				s4.965,1.489,4.965,2.775C966.903,133.54,964.731,135.035,961.938,135.035"/>
			<path fill="#30363E" d="M950.762,144.056c-2.793,0-4.965-1.495-4.965-2.781s2.172-2.775,4.965-2.775
				c2.793,0,4.965,1.489,4.965,2.775S953.555,144.056,950.762,144.056"/>
			<path fill="#30363E" d="M949.416,156.287c-3.045,0-5.408-1.624-5.408-3.027c0-1.397,2.362-3.027,5.408-3.027
				c3.045,0,5.408,1.63,5.408,3.027C954.823,154.663,952.461,156.287,949.416,156.287"/>
			<path fill="#30363E" d="M959.245,166.091c-3.291,0-5.838-1.759-5.838-3.267c0-1.513,2.547-3.273,5.838-3.273
				c3.285,0,5.838,1.759,5.838,3.273C965.084,164.331,962.531,166.091,959.245,166.091"/>
			<path fill="#30363E" d="M977.603,172.083c-3.55,0-6.306-1.895-6.306-3.531c0-1.63,2.756-3.525,6.306-3.525
				s6.306,1.895,6.306,3.525C983.909,170.189,981.153,172.083,977.603,172.083"/>
			<polygon fill="#FFC226" points="1024.799,153.228 1018.352,162.979 1007.229,153.037 1009.173,150.46 			"/>
			<polygon fill="#702C12" points="1024.799,153.228 1018.352,162.979 1018.352,170.724 1024.695,160.309 			"/>
			<path fill="#FFC226" d="M1053.658,112.821c-9.739-18.407-37.995-31.72-71.345-31.72c-33.467,0-61.81,13.411-71.45,31.917
				c-0.72,0.917-0.898,2.202-0.338,3.316l6.57,13.073c0.775,1.538,2.645,2.153,4.183,1.384l32.021-16.069
				c1.538-0.769,2.159-2.639,1.39-4.177l-4.405-8.767c10.046-1.575,20.819-2.43,32.028-2.43c11.227,0,22.018,0.861,32.089,2.442
				l-4.768,9.493c-0.769,1.538-0.148,3.408,1.39,4.183l32.021,16.069c1.538,0.769,3.414,0.148,4.183-1.39l6.933-13.811
				C1054.759,115.141,1054.513,113.744,1053.658,112.821"/>
			<path fill="#702C12" d="M952.355,105.93c-0.062,0.031-37.589,18.875-37.589,18.875l2.332,4.602
				c0.769,1.538,2.639,2.159,4.177,1.384l32.028-16.069c1.538-0.769,2.159-2.639,1.384-4.177L952.355,105.93z"/>
			<path fill="#702C12" d="M1012.007,106.557l-2.375,4.725c-0.769,1.538-0.148,3.414,1.39,4.183l32.028,16.069
				c1.538,0.769,3.408,0.148,4.177-1.39l2.375-4.725L1012.007,106.557z"/>
			<path fill="#F9D98A" d="M1050.29,109.863c-14.796-13.178-40.48-21.415-67.98-21.415c-27.893,0-53.08,8.035-67.913,21.317
				c5.063-7.241,13.35-13.682,23.802-18.432c12.821-5.82,28.072-8.896,44.11-8.896c15.983,0,31.191,3.058,43.981,8.841
				C1036.848,96.052,1045.215,102.555,1050.29,109.863"/>
			<path fill="#DDE4E8" d="M1058.354,104.869c-0.744-0.88-1.556-1.661-2.43-2.338l1.292-4.792c1.729,1.107,3.316,2.485,4.706,4.134
				c6.656,7.924,6.386,19.397-0.172,26.995c-1.163-1.034-2.325-2.061-3.494-3.088
				C1063.312,119.886,1063.509,111.009,1058.354,104.869 M1063.312,130.252c1.163,1.034,2.319,2.067,3.476,3.107
				c8.754-10.059,9.142-25.31,0.295-35.83c-2.307-2.75-5.051-4.928-8.041-6.533l-1.255,4.645c2.11,1.273,4.054,2.898,5.734,4.891
				C1070.855,109.256,1070.547,121.892,1063.312,130.252 M1068.622,135.02c1.151,1.04,2.295,2.092,3.433,3.15
				c11.129-12.655,11.658-31.941,0.486-45.224c-3.285-3.913-7.259-6.909-11.597-8.976l-1.243,4.583
				c3.457,1.772,6.626,4.239,9.271,7.389C1078.619,107.416,1078.188,124.057,1068.622,135.02 M901.679,125.78
				c-1.163,1.027-2.332,2.055-3.494,3.088c-6.552-7.598-6.829-19.071-0.166-26.995c1.384-1.649,2.978-3.027,4.7-4.134l1.298,4.792
				c-0.874,0.677-1.692,1.458-2.43,2.338C896.432,111.009,896.629,119.886,901.679,125.78 M896.419,100.532
				c1.673-1.993,3.617-3.617,5.734-4.891l-1.255-4.645c-2.99,1.606-5.734,3.784-8.047,6.533c-8.847,10.52-8.459,25.771,0.295,35.83
				c1.157-1.04,2.313-2.073,3.476-3.107C889.394,121.892,889.086,109.256,896.419,100.532 M890.963,95.942
				c2.652-3.15,5.82-5.617,9.271-7.389l-1.237-4.583c-4.343,2.067-8.318,5.063-11.603,8.976
				c-11.166,13.282-10.643,32.569,0.486,45.224c1.138-1.058,2.282-2.11,3.439-3.15C881.747,124.057,881.316,107.416,890.963,95.942"
				/>
		</g>
	</g>
	<g display="inline">
		<path fill="#2D3C42" d="M650.133,432.339c-0.307,2.454-2.544,4.196-4.998,3.897l-136.127-16.904
			c-2.454-0.307-4.203-2.544-3.897-4.998l7.87-63.365c0.307-2.461,2.544-4.203,4.998-3.897l136.127,16.904
			c2.454,0.3,4.203,2.544,3.897,4.998L650.133,432.339z"/>
		<polygon fill="#DDE4E8" points="535.067,353.365 527.113,417.406 630.721,430.268 638.675,366.233 		"/>
		<path fill="#EC8658" d="M520.196,406.874c-0.23,1.875-1.938,3.207-3.813,2.97c-1.875-0.23-3.2-1.938-2.97-3.813
			c0.237-1.868,1.938-3.2,3.813-2.97C519.102,403.298,520.426,404.999,520.196,406.874"/>
		<path fill="#4D6889" d="M645.359,391.44c-3.904-0.481-7.466,2.293-7.954,6.204c-0.481,3.904,2.293,7.466,6.197,7.954
			c3.911,0.481,7.473-2.293,7.954-6.197C652.044,395.49,649.27,391.928,645.359,391.44 M643.784,404.155
			c-3.109-0.383-5.319-3.227-4.935-6.336c0.383-3.102,3.228-5.319,6.336-4.935c3.102,0.39,5.319,3.228,4.935,6.337
			C649.73,402.328,646.893,404.538,643.784,404.155"/>
		<path fill="#4D6889" d="M519.648,396.998c-0.112,0.906-0.941,1.555-1.847,1.443c-0.906-0.118-1.554-0.941-1.443-1.854l3.221-25.89
			c0.112-0.906,0.934-1.555,1.847-1.443c0.906,0.112,1.555,0.941,1.436,1.854L519.648,396.998z"/>
		<path fill="#DDE4E8" d="M478.591,361.292c-1.687-0.23-3.374-0.46-5.061-0.69c2.217-11.544,8.281-22.105,17.218-29.926
			c9.578-8.379,21.854-13.042,34.561-13.126l0.349-0.007c5.73,0,11.349,0.92,16.751,2.726l-3.011,4.399
			c-4.468-1.338-9.076-2.015-13.733-2.015h-0.321C502.333,322.799,482.989,338.929,478.591,361.292 M525.253,308.376h0.411
			c7.612,0,15.043,1.366,22.112,4.064l2.956-4.315c-7.982-3.221-16.402-4.852-25.067-4.852h-0.446
			c-16.186,0.112-31.808,6.065-43.986,16.772c-11.502,10.115-19.219,23.805-21.888,38.737c1.652,0.202,3.332,0.404,5.075,0.627
			C469.745,330.369,495.537,308.571,525.253,308.376 M492.003,363.188c3.437-15.677,17.183-26.921,33.432-27.026h0.223
			c1.854,0,3.715,0.153,5.549,0.453l3.151-4.594c-2.844-0.641-5.758-0.962-8.693-0.962H525.4c-9.445,0.063-18.577,3.52-25.708,9.738
			c-6.511,5.674-10.986,13.307-12.75,21.665C488.629,362.707,490.316,362.944,492.003,363.188"/>
	</g>
</g>
<g id="settings">
	<path fill="#FFFFFF" d="M781.372,144.91l9.026,2.917l2.286-6.967c0.6-1.899,2.067-3.398,4.934-4.166
		c2.875-0.778,10.498-1.756,13.225-10.03c2.695-8.249-2.364-16.199-7.785-19.333c-5.426-3.095-11.99-4.371-18.069-0.915
		c-5.448,3.05-7.432,6.246-9.96,13.897l9.01,2.957l0.586-1.784c1.319-4.08,3.205-8.232,9.412-7.52
		c3.404,0.424,6.061,2.401,7.279,4.705c1.357,2.651-0.091,7.116-4.06,8.262l-6.179,1.782c-3.567,0.941-5.271,2.714-6.289,5.793
		L781.372,144.91L781.372,144.91z"/>
	<polygon fill="#FFFFFF" points="777.144,157.652 780.173,148.425 789.27,151.41 786.242,160.638 	"/>
	<path fill="#FFFFFF" d="M1074.694,359.351l5.477-2.775l-2.126-4.243c-0.59-1.146-0.599-2.504,0.368-4.164
		c0.966-1.668,4.023-5.593,1.504-10.638c-2.522-5.019-8.472-6.365-12.391-5.334c-3.904,1.052-7.502,3.458-8.72,7.818
		c-1.113,3.885-0.567,6.258,1.759,10.926l5.488-2.749l-0.544-1.087c-1.254-2.476-2.281-5.244,0.896-7.746
		c1.757-1.357,3.879-1.66,5.49-1.157c1.832,0.599,3.202,3.311,1.901,5.647l-2.027,3.636c-1.21,2.059-1.185,3.65-0.249,5.529
		L1074.694,359.351L1074.694,359.351z"/>
	<polygon fill="#FFFFFF" points="1078.561,367.133 1075.745,361.513 1081.286,358.737 1084.102,364.358 	"/>
	<path fill="#FFFFFF" d="M1295.552,127.233l3.454,0.185l0.155-2.669c0.034-0.725,0.411-1.391,1.35-1.929
		c0.94-0.543,3.536-1.6,3.724-4.771c0.179-3.159-2.347-5.489-4.55-6.087c-2.202-0.584-4.635-0.42-6.454,1.366
		c-1.635,1.584-2.036,2.896-2.212,5.829l3.452,0.2l0.04-0.684c0.084-1.561,0.36-3.201,2.615-3.53
		c1.239-0.169,2.361,0.28,3.005,0.978c0.726,0.808,0.633,2.517-0.659,3.291l-2.011,1.205c-1.169,0.665-1.604,1.449-1.675,2.63
		L1295.552,127.233L1295.552,127.233z"/>
	<polygon fill="#FFFFFF" points="1295.253,132.119 1295.458,128.584 1298.943,128.786 1298.738,132.321 	"/>
	<path fill="#FFFFFF" d="M1527.166,133.278l10.203,3.26l2.556-7.875c0.671-2.147,2.322-3.844,5.556-4.722
		c3.243-0.889,11.847-2.021,14.896-11.373c3.013-9.324-2.729-18.283-8.861-21.802c-6.138-3.475-13.555-4.891-20.407-0.967
		c-6.14,3.464-8.369,7.08-11.196,15.728l10.185,3.306l0.655-2.017c1.475-4.612,3.589-9.307,10.6-8.525
		c3.845,0.467,6.852,2.689,8.237,5.286c1.542,2.988-0.077,8.035-4.554,9.344l-6.971,2.034c-4.025,1.076-5.941,3.083-7.08,6.564
		L1527.166,133.278L1527.166,133.278z"/>
	<polygon fill="#FFFFFF" points="1522.439,147.681 1525.824,137.251 1536.107,140.589 1532.722,151.019 	"/>
	<path fill="#FFFFFF" d="M1352.437,426.313l3.057,0.977l0.766-2.36c0.201-0.643,0.696-1.152,1.665-1.415
		c0.972-0.266,3.55-0.606,4.464-3.408c0.903-2.794-0.818-5.478-2.655-6.533c-1.839-1.041-4.062-1.466-6.115-0.29
		c-1.84,1.038-2.508,2.122-3.355,4.713l3.052,0.991l0.196-0.604c0.442-1.382,1.076-2.789,3.176-2.555
		c1.152,0.14,2.053,0.806,2.468,1.584c0.462,0.895-0.023,2.408-1.365,2.8l-2.089,0.61c-1.206,0.322-1.78,0.924-2.122,1.967
		L1352.437,426.313L1352.437,426.313z"/>
	<polygon fill="#FFFFFF" points="1351.02,430.629 1352.035,427.504 1355.116,428.504 1354.101,431.629 	"/>
	<path fill="#FFFFFF" d="M183.884,379.161l13.817-8.349l-6.405-10.709c-1.772-2.889-2.062-6.447,0.148-10.989
		c2.206-4.563,9.452-15.453,1.858-28.186c-7.597-12.666-23.46-15.029-33.535-11.557c-10.03,3.523-18.992,10.538-21.331,22.207
		c-2.155,10.405-0.26,16.52,6.754,28.303l13.851-8.284l-1.641-2.743c-3.773-6.247-7.007-13.302,0.832-20.485
		c4.342-3.902,9.846-5.113,14.167-4.109c4.921,1.212,9.045,8.054,6.092,14.435l-4.602,9.93c-2.769,5.636-2.39,9.802,0.432,14.546
		l9.564,15.991L183.884,379.161z"/>
	<polygon fill="#FFFFFF" points="195.548,398.808 187.064,384.624 201.048,376.26 209.532,390.444 	"/>
	<path fill="#FFFFFF" d="M230.155,102.022l5.32-3.215l-2.466-4.124c-0.682-1.113-0.794-2.482,0.057-4.231
		c0.849-1.757,3.64-5.95,0.715-10.853c-2.925-4.877-9.033-5.787-12.913-4.45c-3.862,1.356-7.313,4.058-8.213,8.551
		c-0.83,4.007-0.1,6.361,2.601,10.898l5.333-3.19l-0.632-1.056c-1.453-2.405-2.698-5.122,0.32-7.888
		c1.672-1.502,3.791-1.969,5.455-1.582c1.895,0.467,3.483,3.101,2.346,5.558l-1.772,3.824c-1.066,2.17-0.92,3.774,0.166,5.601
		L230.155,102.022L230.155,102.022z"/>
	<polygon fill="#FFFFFF" points="234.646,109.587 231.379,104.125 236.764,100.905 240.031,106.367 	"/>
	<path fill="#FFFFFF" d="M568.348,223.114v-6.01h-3.906c-0.267-0.968-0.634-1.87-1.135-2.738l2.771-2.771l-4.24-4.24l-2.771,2.771
		c-0.835-0.501-1.769-0.868-2.738-1.135v-3.906h-6.01v3.906c-0.968,0.267-1.87,0.634-2.738,1.135l-2.771-2.771l-4.24,4.24
		l2.771,2.771c-0.501,0.835-0.868,1.769-1.135,2.738H538.3v6.01h3.906c0.267,0.968,0.634,1.87,1.135,2.738l-2.771,2.771l4.24,4.24
		l2.771-2.771c0.835,0.501,1.769,0.868,2.738,1.135v3.906h6.01v-3.906c0.968-0.267,1.87-0.634,2.738-1.135l2.771,2.771l4.24-4.24
		l-2.771-2.771c0.501-0.835,0.868-1.769,1.135-2.738H568.348L568.348,223.114z M553.324,226.119c-3.305,0-6.01-2.704-6.01-6.01
		s2.704-6.01,6.01-6.01s6.01,2.704,6.01,6.01S556.629,226.119,553.324,226.119z"/>
	<path fill="#FFFFFF" d="M862.567,312.012v-10.61h-6.896c-0.472-1.709-1.12-3.301-2.004-4.833l4.892-4.892l-7.486-7.486
		l-4.892,4.892c-1.474-0.884-3.124-1.533-4.833-2.004v-6.896h-10.609v6.896c-1.709,0.472-3.301,1.12-4.833,2.004l-4.892-4.892
		l-7.486,7.486l4.892,4.892c-0.884,1.474-1.532,3.124-2.004,4.833h-6.896v10.61h6.896c0.472,1.709,1.12,3.301,2.004,4.833
		l-4.892,4.892l7.486,7.486l4.892-4.892c1.474,0.884,3.124,1.533,4.833,2.004v6.896h10.609v-6.896
		c1.709-0.472,3.301-1.12,4.833-2.004l4.892,4.892l7.486-7.486l-4.892-4.892c0.884-1.474,1.532-3.124,2.004-4.833H862.567
		L862.567,312.012z M836.043,317.316c-5.835,0-10.609-4.774-10.609-10.61s4.774-10.609,10.609-10.609
		c5.835,0,10.609,4.774,10.609,10.609S841.878,317.316,836.043,317.316z"/>
	<path fill="#FFFFFF" d="M1358.95,259.17v-5.718h-3.717c-0.254-0.921-0.604-1.779-1.08-2.605l2.637-2.637l-4.034-4.034l-2.637,2.637
		c-0.794-0.477-1.684-0.826-2.605-1.08v-3.717h-5.718v3.717c-0.921,0.254-1.779,0.604-2.605,1.08l-2.637-2.637l-4.034,4.034
		l2.637,2.637c-0.477,0.794-0.826,1.684-1.08,2.605h-3.717v5.718h3.717c0.254,0.921,0.604,1.779,1.08,2.605l-2.637,2.637
		l4.034,4.034l2.637-2.637c0.794,0.477,1.684,0.826,2.605,1.08v3.717h5.718v-3.717c0.921-0.254,1.779-0.604,2.605-1.08l2.637,2.637
		l4.034-4.034l-2.637-2.637c0.477-0.794,0.826-1.684,1.08-2.605L1358.95,259.17L1358.95,259.17z M1344.654,262.029
		c-3.145,0-5.718-2.573-5.718-5.718c0-3.145,2.573-5.718,5.718-5.718s5.718,2.573,5.718,5.718
		C1350.372,259.456,1347.799,262.029,1344.654,262.029z"/>
</g>
</svg>
