<?xml version="1.0" encoding="utf-8"?>
<!-- Generator: Adobe Illustrator 17.0.0, SVG Export Plug-In . SVG Version: 6.00 Build 0)  -->
<!DOCTYPE svg PUBLIC "-//W3C//DTD SVG 1.1//EN" "http://www.w3.org/Graphics/SVG/1.1/DTD/svg11.dtd">
<svg version="1.1" id="Layer_1" xmlns="http://www.w3.org/2000/svg" xmlns:xlink="http://www.w3.org/1999/xlink" x="0px" y="0px"
	 width="1827px" height="665px" viewBox="0 0 1827 665" enable-background="new 0 0 1827 665" xml:space="preserve">
<g id="_x31_">
	<g>
		<path fill="#DFA90B" d="M197.268,67.387c0-4.795,7.518-8.682,16.789-8.682c9.272,0,16.79,3.887,16.79,8.683
			c-0.001,4.796-7.518,8.682-16.79,8.682C204.784,76.071,197.268,72.183,197.268,67.387"/>
		<path fill="#D0501B" d="M183.383,60.459c-0.075,0.073-0.052,0.083,0.044,0.044L183.383,60.459z"/>
		<path fill="#DFA90B" d="M197.269,9.752c0-4.795,7.518-8.682,16.789-8.682c9.272,0,16.79,3.887,16.79,8.683
			c-0.001,4.796-7.518,8.682-16.79,8.682C204.786,18.436,197.269,14.548,197.269,9.752"/>
		<path fill="#FBBE11" d="M230.847,9.752c0-3.181-7.518-5.759-16.789-5.759c-9.272,0-16.789,2.578-16.789,5.759
			c0,3.181,7.516,5.759,16.789,5.759C223.33,15.51,230.847,12.932,230.847,9.752"/>
		<path fill="#FBBE11" d="M230.847,67.387c0-3.181-7.518-5.759-16.789-5.759c-9.272,0-16.789,2.578-16.789,5.759
			s7.516,5.759,16.789,5.759C223.33,73.146,230.847,70.568,230.847,67.387"/>
		<path fill="#DFA90B" d="M247.636,38.57c-4.19-2.398-11.345,2.11-15.982,10.068s-4.999,16.352-0.807,18.75
			c4.192,2.398,11.346-2.11,15.983-10.068S251.828,40.968,247.636,38.57"/>
		<path fill="#DFA90B" d="M180.48,38.57c4.19-2.398,11.345,2.11,15.982,10.068s4.999,16.352,0.807,18.75
			c-4.192,2.398-11.346-2.11-15.983-10.068S176.288,40.968,180.48,38.57"/>
		<path fill="#DFA90B" d="M197.268,9.752c-4.191-2.398-11.345,2.11-15.982,10.068c-4.636,7.957-4.999,16.352-0.807,18.75
			c4.192,2.398,11.346-2.11,15.983-10.068S201.46,12.15,197.268,9.752"/>
		<path fill="#DFA90B" d="M230.848,9.752c4.19-2.398,11.345,2.11,15.982,10.068s4.999,16.352,0.807,18.75
			c-4.192,2.398-11.346-2.11-15.983-10.068S226.656,12.15,230.848,9.752"/>
		<path fill="#FBBE11" d="M247.636,38.57c-2.779-1.59-8.79,3.572-13.427,11.53s-6.142,15.697-3.362,17.288
			c2.78,1.59,8.791-3.572,13.428-11.53S250.416,40.16,247.636,38.57"/>
		<path fill="#FBBE11" d="M180.48,38.57c2.779-1.59,8.79,3.572,13.427,11.53s6.142,15.697,3.362,17.288
			c-2.78,1.59-8.791-3.572-13.428-11.53S177.7,40.16,180.48,38.57"/>
		<path fill="#FBBE11" d="M197.268,9.752c-2.779-1.59-8.79,3.572-13.427,11.53s-6.142,15.697-3.362,17.288
			c2.78,1.59,8.791-3.572,13.428-11.53S200.048,11.342,197.268,9.752"/>
		<path fill="#FBBE11" d="M230.848,9.752c2.779-1.59,8.79,3.572,13.427,11.53s6.142,15.697,3.362,17.288
			c-2.78,1.59-8.791-3.572-13.428-11.53S228.068,11.342,230.848,9.752"/>
		<polygon fill="#A5D8E4" points="206.95,26.37 197.269,9.751 180.479,38.57 199.843,38.57 		"/>
		<polygon fill="#2FADB6" points="206.95,26.37 221.165,26.37 230.847,9.751 197.269,9.751 		"/>
		<polygon fill="#FFFFFF" points="206.95,50.769 206.95,50.769 221.165,50.769 214.058,38.569 		"/>
		<polygon fill="#0E3753" points="228.273,38.57 247.637,38.57 230.847,9.752 221.166,26.369 		"/>
		<polygon fill="#FFFFFF" points="228.273,38.57 221.166,50.77 230.847,67.387 247.637,38.57 		"/>
		<polygon fill="#A5D8E4" points="221.165,50.769 206.951,50.769 197.269,67.388 230.847,67.388 		"/>
		<polygon fill="#0E3753" points="199.843,38.57 180.479,38.57 197.269,67.387 206.95,50.77 		"/>
		<polygon fill="#FFFFFF" points="206.95,26.37 199.843,38.57 214.058,38.57 		"/>
		<polygon fill="#2FADB6" points="199.843,38.57 206.95,50.77 214.058,38.57 		"/>
		<polygon fill="#A5D8E4" points="221.165,26.37 221.165,26.37 206.951,26.37 214.058,38.57 		"/>
		<polygon fill="#2FADB6" points="214.058,38.57 228.273,38.57 221.165,26.369 		"/>
		<polygon fill="#0E3753" points="221.165,50.769 228.273,38.569 214.058,38.569 		"/>
	</g>
	<g>
		<path fill="#DFA90B" d="M1468.177,618.363c0-4.795,7.518-8.682,16.789-8.682c9.272,0,16.79,3.887,16.79,8.683
			c-0.001,4.796-7.518,8.682-16.79,8.682C1475.694,627.047,1468.177,623.16,1468.177,618.363"/>
		<path fill="#D0501B" d="M1454.292,611.436c-0.075,0.073-0.052,0.083,0.045,0.044L1454.292,611.436z"/>
		<path fill="#DFA90B" d="M1468.178,560.728c0-4.795,7.517-8.682,16.789-8.682c9.272,0,16.79,3.887,16.79,8.683
			c-0.001,4.796-7.517,8.682-16.79,8.682C1475.695,569.412,1468.178,565.525,1468.178,560.728"/>
		<path fill="#FBBE11" d="M1501.756,560.728c0-3.181-7.517-5.759-16.789-5.759c-9.272,0-16.789,2.578-16.789,5.759
			s7.516,5.759,16.789,5.759C1494.239,566.487,1501.756,563.909,1501.756,560.728"/>
		<path fill="#FBBE11" d="M1501.756,618.364c0-3.181-7.517-5.759-16.789-5.759c-9.272,0-16.789,2.578-16.789,5.759
			s7.516,5.759,16.789,5.759C1494.239,624.123,1501.756,621.545,1501.756,618.364"/>
		<path fill="#DFA90B" d="M1518.545,589.546c-4.19-2.398-11.345,2.11-15.982,10.068c-4.636,7.957-4.999,16.352-0.807,18.75
			s11.346-2.11,15.983-10.068C1522.375,600.339,1522.737,591.945,1518.545,589.546"/>
		<path fill="#DFA90B" d="M1451.389,589.546c4.19-2.398,11.346,2.11,15.982,10.068c4.636,7.957,4.999,16.352,0.807,18.75
			s-11.346-2.11-15.983-10.068S1447.197,591.945,1451.389,589.546"/>
		<path fill="#DFA90B" d="M1468.177,560.728c-4.191-2.398-11.345,2.11-15.982,10.068c-4.636,7.957-4.999,16.352-0.807,18.75
			s11.346-2.11,15.983-10.068S1472.369,563.127,1468.177,560.728"/>
		<path fill="#DFA90B" d="M1501.757,560.728c4.19-2.398,11.346,2.11,15.982,10.068c4.636,7.957,4.999,16.352,0.807,18.75
			s-11.346-2.11-15.983-10.068S1497.565,563.127,1501.757,560.728"/>
		<path fill="#FBBE11" d="M1518.545,589.546c-2.779-1.59-8.79,3.572-13.427,11.53s-6.141,15.697-3.362,17.288
			c2.78,1.59,8.791-3.572,13.428-11.53S1521.325,591.137,1518.545,589.546"/>
		<path fill="#FBBE11" d="M1451.389,589.546c2.779-1.59,8.791,3.572,13.427,11.53c4.636,7.957,6.141,15.697,3.362,17.288
			c-2.78,1.59-8.792-3.572-13.428-11.53C1450.114,598.877,1448.609,591.137,1451.389,589.546"/>
		<path fill="#FBBE11" d="M1468.177,560.728c-2.779-1.59-8.79,3.572-13.427,11.53c-4.636,7.957-6.141,15.697-3.362,17.288
			c2.78,1.59,8.792-3.572,13.428-11.53C1469.452,570.059,1470.957,562.319,1468.177,560.728"/>
		<path fill="#FBBE11" d="M1501.757,560.728c2.779-1.59,8.791,3.572,13.427,11.53c4.636,7.957,6.141,15.697,3.362,17.288
			c-2.78,1.59-8.792-3.572-13.428-11.53C1500.482,570.059,1498.977,562.319,1501.757,560.728"/>
		<polygon fill="#A5D8E4" points="1477.859,577.346 1468.178,560.728 1451.388,589.546 1470.752,589.546 		"/>
		<polygon fill="#2FADB6" points="1477.859,577.346 1492.074,577.346 1501.756,560.728 1468.178,560.728 		"/>
		<polygon fill="#FFFFFF" points="1477.859,601.746 1477.859,601.746 1492.074,601.746 1484.967,589.545 		"/>
		<polygon fill="#0E3753" points="1499.182,589.546 1518.546,589.546 1501.756,560.728 1492.075,577.346 		"/>
		<polygon fill="#FFFFFF" points="1499.182,589.546 1492.075,601.746 1501.756,618.364 1518.546,589.546 		"/>
		<polygon fill="#A5D8E4" points="1492.074,601.746 1477.86,601.746 1468.178,618.364 1501.756,618.364 		"/>
		<polygon fill="#0E3753" points="1470.752,589.546 1451.388,589.546 1468.178,618.364 1477.859,601.746 		"/>
		<polygon fill="#FFFFFF" points="1477.859,577.346 1470.752,589.546 1484.967,589.546 		"/>
		<polygon fill="#2FADB6" points="1470.752,589.546 1477.859,601.746 1484.967,589.546 		"/>
		<polygon fill="#A5D8E4" points="1492.074,577.346 1492.074,577.346 1477.86,577.346 1484.967,589.546 		"/>
		<polygon fill="#2FADB6" points="1484.967,589.546 1499.182,589.546 1492.074,577.346 		"/>
		<polygon fill="#0E3753" points="1492.074,601.746 1499.182,589.545 1484.967,589.545 		"/>
	</g>
	<g>
		<path fill="#DFA90B" d="M157.148,282.967c0-2.365,3.707-4.283,8.279-4.283c4.573,0,8.28,1.917,8.28,4.284
			c-0.001,2.366-3.707,4.283-8.28,4.283C160.855,287.251,157.148,285.333,157.148,282.967"/>
		<path fill="#D0501B" d="M150.301,279.549c-0.037,0.036-0.025,0.041,0.022,0.022L150.301,279.549z"/>
		<path fill="#DFA90B" d="M157.148,254.534c0-2.365,3.707-4.283,8.279-4.283c4.573,0,8.28,1.917,8.28,4.284
			c-0.001,2.366-3.707,4.283-8.28,4.283C160.856,258.818,157.148,256.9,157.148,254.534"/>
		<path fill="#FBBE11" d="M173.707,254.534c0-1.569-3.707-2.841-8.279-2.841c-4.573,0-8.279,1.272-8.279,2.841
			c0,1.569,3.707,2.841,8.279,2.841C170,257.375,173.707,256.103,173.707,254.534"/>
		<path fill="#FBBE11" d="M173.707,282.967c0-1.569-3.707-2.841-8.279-2.841c-4.573,0-8.279,1.272-8.279,2.841
			s3.707,2.841,8.279,2.841C170,285.808,173.707,284.536,173.707,282.967"/>
		<path fill="#DFA90B" d="M181.987,268.751c-2.066-1.183-5.595,1.041-7.881,4.967c-2.286,3.926-2.465,8.067-0.398,9.25
			s5.595-1.041,7.882-4.967C183.876,274.075,184.054,269.934,181.987,268.751"/>
		<path fill="#DFA90B" d="M148.869,268.751c2.066-1.183,5.595,1.041,7.881,4.967c2.286,3.926,2.465,8.067,0.398,9.25
			s-5.595-1.041-7.882-4.967C146.98,274.075,146.802,269.934,148.869,268.751"/>
		<path fill="#DFA90B" d="M157.148,254.534c-2.067-1.183-5.595,1.041-7.881,4.967s-2.465,8.067-0.398,9.25
			c2.067,1.183,5.595-1.041,7.882-4.967C159.037,259.858,159.215,255.717,157.148,254.534"/>
		<path fill="#DFA90B" d="M173.708,254.534c2.066-1.183,5.595,1.041,7.881,4.967c2.286,3.926,2.465,8.067,0.398,9.25
			c-2.067,1.183-5.595-1.041-7.882-4.967C171.819,259.858,171.641,255.717,173.708,254.534"/>
		<path fill="#FBBE11" d="M181.987,268.751c-1.371-0.784-4.335,1.762-6.621,5.688c-2.286,3.926-3.029,7.744-1.658,8.529
			c1.371,0.784,4.335-1.762,6.622-5.688C182.616,273.354,183.358,269.535,181.987,268.751"/>
		<path fill="#FBBE11" d="M148.869,268.751c1.371-0.784,4.335,1.762,6.621,5.688c2.286,3.926,3.029,7.744,1.658,8.529
			c-1.371,0.784-4.335-1.762-6.622-5.688C148.24,273.354,147.498,269.535,148.869,268.751"/>
		<path fill="#FBBE11" d="M157.148,254.534c-1.371-0.784-4.335,1.762-6.621,5.688s-3.029,7.744-1.658,8.529
			c1.371,0.784,4.335-1.762,6.622-5.688C157.777,259.137,158.519,255.319,157.148,254.534"/>
		<path fill="#FBBE11" d="M173.708,254.534c1.371-0.784,4.335,1.762,6.621,5.688c2.286,3.926,3.029,7.744,1.658,8.529
			c-1.371,0.784-4.335-1.762-6.622-5.688C173.079,259.137,172.337,255.319,173.708,254.534"/>
		<polygon fill="#A5D8E4" points="161.923,262.732 157.148,254.533 148.868,268.751 158.418,268.751 		"/>
		<polygon fill="#2FADB6" points="161.923,262.732 168.933,262.732 173.707,254.533 157.148,254.533 		"/>
		<polygon fill="#FFFFFF" points="161.923,274.769 161.923,274.769 168.933,274.769 165.428,268.75 		"/>
		<polygon fill="#0E3753" points="172.438,268.751 181.987,268.751 173.707,254.534 168.933,262.732 		"/>
		<polygon fill="#FFFFFF" points="172.438,268.751 168.933,274.769 173.707,282.967 181.987,268.751 		"/>
		<polygon fill="#A5D8E4" points="168.933,274.769 161.923,274.769 157.149,282.967 173.707,282.967 		"/>
		<polygon fill="#0E3753" points="158.418,268.751 148.868,268.751 157.148,282.967 161.923,274.769 		"/>
		<polygon fill="#FFFFFF" points="161.923,262.732 158.418,268.751 165.428,268.751 		"/>
		<polygon fill="#2FADB6" points="158.418,268.751 161.923,274.769 165.428,268.751 		"/>
		<polygon fill="#A5D8E4" points="168.933,262.732 168.933,262.732 161.923,262.732 165.428,268.751 		"/>
		<polygon fill="#2FADB6" points="165.428,268.751 172.438,268.751 168.933,262.732 		"/>
		<polygon fill="#0E3753" points="168.933,274.769 172.438,268.75 165.428,268.75 		"/>
	</g>
	<g id="Layer_5">
		<path fill="#FBBE11" d="M174.203,639.909c17.462,17.462,45.772,17.461,63.233-0.001c17.461-17.461,17.461-45.77-0.001-63.232
			s-45.769-17.46-63.23,0.001C156.744,594.139,156.741,622.447,174.203,639.909 M230.165,583.947
			c13.447,13.447,13.446,35.247,0.002,48.691c-13.447,13.447-35.246,13.447-48.693,0c-13.445-13.445-13.446-35.245,0.001-48.692
			C194.919,570.502,216.72,570.502,230.165,583.947"/>
		<polygon fill="#0E3753" points="170.276,664.612 186.833,663.528 176.234,652.93 		"/>
		<polygon fill="#FFFFFF" points="186.833,663.527 191.212,623.572 176.235,652.93 		"/>
		<polygon fill="#A5D8E4" points="161.374,638.069 150.586,627.28 149.503,643.838 		"/>
		<polygon fill="#0E3753" points="191.211,623.572 150.585,627.28 161.374,638.069 		"/>
		<polygon fill="#FFFFFF" points="161.374,638.069 149.503,643.838 170.277,664.612 176.235,652.929 		"/>
		<polygon fill="#A5D8E4" points="176.235,652.93 191.211,623.572 161.375,638.069 		"/>
		<line fill="none" x1="269.052" y1="608.293" x2="191.505" y2="685.84"/>
		<line fill="none" x1="205.821" y1="545.062" x2="269.052" y2="608.293"/>
		<polyline fill="none" points="191.505,685.84 128.274,622.609 205.821,545.062 		"/>
	</g>
	<g>
		<path fill="#FBBE11" d="M1454.969,133.843c-26.233-26.233-68.762-26.231-94.994,0.001c-26.231,26.231-26.231,68.759,0.001,94.992
			c26.233,26.233,68.758,26.23,94.989-0.001C1481.198,202.602,1481.201,160.076,1454.969,133.843 M1370.898,217.913
			c-20.201-20.201-20.2-52.95-0.003-73.148c20.201-20.201,52.949-20.201,73.15,0c20.198,20.198,20.2,52.948-0.001,73.149
			C1423.847,238.112,1391.096,238.111,1370.898,217.913"/>
		<polygon fill="#0E3753" points="1460.868,96.732 1435.995,98.361 1451.917,114.282 		"/>
		<polygon fill="#FFFFFF" points="1435.995,98.362 1429.417,158.385 1451.916,114.282 		"/>
		<polygon fill="#A5D8E4" points="1474.241,136.607 1490.448,152.815 1492.075,127.94 		"/>
		<polygon fill="#0E3753" points="1429.417,158.386 1490.449,152.815 1474.241,136.607 		"/>
		<polygon fill="#FFFFFF" points="1474.241,136.607 1492.075,127.94 1460.867,96.732 1451.917,114.283 		"/>
		<polygon fill="#A5D8E4" points="1451.916,114.282 1429.417,158.386 1474.24,136.606 		"/>
	</g>
</g>
</svg>
