<?xml version="1.0" encoding="utf-8"?>
<!-- Generator: Adobe Illustrator 17.0.0, SVG Export Plug-In . SVG Version: 6.00 Build 0)  -->
<!DOCTYPE svg PUBLIC "-//W3C//DTD SVG 1.1//EN" "http://www.w3.org/Graphics/SVG/1.1/DTD/svg11.dtd">
<svg version="1.1" id="Layer_1" xmlns="http://www.w3.org/2000/svg" xmlns:xlink="http://www.w3.org/1999/xlink" x="0px" y="0px"
	 width="1827px" height="665px" viewBox="0 0 1827 665" enable-background="new 0 0 1827 665" xml:space="preserve">
<g id="_x33_">
	<polygon fill="#FBBE11" points="1540.536,67.993 1570.766,93.404 1553.104,58.082 	"/>
	<g>
		<path fill="#A5D8E4" d="M1595.077,90.63c7.116,9.024,5.57,22.107-3.454,29.223c-9.023,7.115-22.106,5.568-29.222-3.456
			c-7.115-9.023-5.569-22.106,3.453-29.221C1574.879,80.06,1587.962,81.608,1595.077,90.63"/>
		<path fill="#FFFFFF" d="M1571.462,99.151c2.134,2.706,1.671,6.632-1.036,8.767s-6.633,1.671-8.767-1.036
			c-2.134-2.706-1.67-6.632,1.037-8.767S1569.328,96.445,1571.462,99.151"/>
		<path fill="#FBBE11" d="M1594.485,117.597c1.246,1.58,0.975,3.871-0.606,5.118c-1.581,1.247-3.872,0.976-5.118-0.604
			c-1.247-1.581-0.976-3.872,0.605-5.119C1590.947,115.745,1593.238,116.016,1594.485,117.597"/>
		<polygon fill="#FBBE11" points="1591.514,27.794 1578.944,37.706 1609.174,63.116 		"/>
		<path fill="#A5D8E4" d="M1633.486,60.342c7.116,9.024,5.57,22.107-3.454,29.223c-9.023,7.115-22.106,5.568-29.222-3.456
			c-7.115-9.023-5.569-22.106,3.453-29.221C1613.288,49.772,1626.371,51.319,1633.486,60.342"/>
		<path fill="#FFFFFF" d="M1609.871,68.863c2.134,2.706,1.671,6.632-1.036,8.767c-2.706,2.134-6.632,1.67-8.766-1.036
			c-2.134-2.706-1.67-6.632,1.036-8.767C1603.812,65.692,1607.737,66.157,1609.871,68.863"/>
		<path fill="#FBBE11" d="M1632.894,87.309c1.246,1.58,0.975,3.871-0.606,5.118c-1.58,1.246-3.872,0.976-5.118-0.604
			c-1.247-1.581-0.975-3.873,0.605-5.119C1629.356,85.457,1631.647,85.728,1632.894,87.309"/>
	</g>
	<polygon fill="#FBBE11" points="1590.391,439.873 1576.271,467.029 1600.01,447.708 	"/>
	<g>
		<path fill="#A5D8E4" d="M1582.473,484.951c-5.625,6.906-15.783,7.944-22.689,2.319c-6.905-5.624-7.942-15.782-2.317-22.688
			c5.624-6.905,15.782-7.944,22.687-2.319C1587.059,467.888,1588.097,478.046,1582.473,484.951"/>
		<path fill="#FFFFFF" d="M1572.042,468.525c-1.687,2.071-4.734,2.383-6.806,0.696c-2.072-1.688-2.383-4.736-0.696-6.807
			s4.735-2.383,6.807-0.695C1573.418,463.407,1573.729,466.454,1572.042,468.525"/>
		<path fill="#FBBE11" d="M1561.974,489.054c-0.985,1.209-2.764,1.391-3.974,0.405c-1.21-0.986-1.392-2.764-0.407-3.974
			c0.985-1.21,2.764-1.392,3.974-0.406C1562.778,486.065,1562.959,487.844,1561.974,489.054"/>
		<polygon fill="#FBBE11" points="1629.404,471.65 1619.784,463.815 1605.665,490.971 		"/>
		<path fill="#A5D8E4" d="M1611.866,508.893c-5.625,6.906-15.783,7.944-22.689,2.319c-6.905-5.624-7.942-15.782-2.317-22.688
			c5.624-6.905,15.782-7.944,22.687-2.319C1616.453,491.83,1617.49,501.988,1611.866,508.893"/>
		<path fill="#FFFFFF" d="M1601.435,492.468c-1.687,2.071-4.734,2.383-6.806,0.696c-2.071-1.687-2.383-4.735-0.696-6.806
			c1.687-2.071,4.735-2.383,6.806-0.696C1602.811,487.349,1603.122,490.397,1601.435,492.468"/>
		<path fill="#FBBE11" d="M1591.367,512.996c-0.985,1.209-2.764,1.391-3.974,0.405c-1.209-0.985-1.392-2.764-0.407-3.974
			c0.985-1.21,2.765-1.391,3.974-0.406C1592.171,510.008,1592.353,511.787,1591.367,512.996"/>
	</g>
	<polygon fill="#FBBE11" points="314.489,97.923 295.062,135.285 327.722,108.702 	"/>
	<g>
		<path fill="#A5D8E4" d="M303.594,159.942c-7.739,9.501-21.714,10.93-31.216,3.19c-9.5-7.738-10.927-21.714-3.188-31.215
			c7.738-9.5,21.713-10.929,31.214-3.191C309.905,136.467,311.332,150.442,303.594,159.942"/>
		<path fill="#FFFFFF" d="M289.243,137.344c-2.321,2.85-6.514,3.279-9.364,0.957c-2.85-2.322-3.279-6.516-0.958-9.365
			c2.321-2.85,6.515-3.278,9.365-0.956C291.136,130.301,291.564,134.494,289.243,137.344"/>
		<path fill="#FBBE11" d="M275.391,165.588c-1.355,1.664-3.803,1.914-5.467,0.558s-1.915-3.803-0.56-5.467
			c1.356-1.665,3.803-1.915,5.468-0.559S276.747,163.923,275.391,165.588"/>
		<polygon fill="#FBBE11" points="368.164,141.643 354.929,130.863 335.503,168.225 		"/>
		<path fill="#A5D8E4" d="M344.035,192.883c-7.739,9.501-21.714,10.93-31.216,3.19c-9.5-7.738-10.927-21.714-3.188-31.215
			c7.738-9.5,21.713-10.929,31.214-3.191C350.346,169.408,351.773,183.383,344.035,192.883"/>
		<path fill="#FFFFFF" d="M329.683,170.285c-2.321,2.85-6.514,3.279-9.364,0.957c-2.85-2.321-3.278-6.515-0.957-9.364
			c2.321-2.85,6.515-3.278,9.364-0.957C331.577,163.242,332.004,167.435,329.683,170.285"/>
		<path fill="#FBBE11" d="M315.832,198.529c-1.355,1.664-3.803,1.914-5.467,0.558c-1.664-1.355-1.915-3.803-0.56-5.467
			c1.356-1.665,3.804-1.914,5.468-0.559C316.938,194.417,317.188,196.864,315.832,198.529"/>
	</g>
</g>
</svg>
