<?xml version="1.0" encoding="utf-8"?>
<!-- Generator: Adobe Illustrator 17.0.0, SVG Export Plug-In . SVG Version: 6.00 Build 0)  -->
<!DOCTYPE svg PUBLIC "-//W3C//DTD SVG 1.1//EN" "http://www.w3.org/Graphics/SVG/1.1/DTD/svg11.dtd" [
	<!ENTITY ns_extend "http://ns.adobe.com/Extensibility/1.0/">
	<!ENTITY ns_ai "http://ns.adobe.com/AdobeIllustrator/10.0/">
	<!ENTITY ns_graphs "http://ns.adobe.com/Graphs/1.0/">
	<!ENTITY ns_vars "http://ns.adobe.com/Variables/1.0/">
	<!ENTITY ns_imrep "http://ns.adobe.com/ImageReplacement/1.0/">
	<!ENTITY ns_sfw "http://ns.adobe.com/SaveForWeb/1.0/">
	<!ENTITY ns_custom "http://ns.adobe.com/GenericCustomNamespace/1.0/">
	<!ENTITY ns_adobe_xpath "http://ns.adobe.com/XPath/1.0/">
]>
<svg version="1.1" id="Layer_1" xmlns:x="&ns_extend;" xmlns:i="&ns_ai;" xmlns:graph="&ns_graphs;"
	 xmlns="http://www.w3.org/2000/svg" xmlns:xlink="http://www.w3.org/1999/xlink" x="0px" y="0px" width="64px" height="64px"
	 viewBox="0 0 64 64" enable-background="new 0 0 64 64" xml:space="preserve">
<metadata>
	<sfw  xmlns="&ns_sfw;">
		<slices></slices>
		<sliceSourceBounds  height="52.222" width="63.451" x="0.108" y="-56.009" bottomLeftOrigin="true"></sliceSourceBounds>
	</sfw>
</metadata>
<g>
	<g>
		<g>
			<g>
				<g>
					<defs>
						<rect id="SVGID_1_" x="4.66" y="37.427" width="4.627" height="9.059"/>
					</defs>
					<clipPath id="SVGID_2_">
						<use xlink:href="#SVGID_1_"  overflow="visible"/>
					</clipPath>
				</g>
			</g>
			<g>
				<g>
					<defs>
						<rect id="SVGID_3_" x="30.197" y="25.323" width="0.378" height="1.617"/>
					</defs>
					<clipPath id="SVGID_4_">
						<use xlink:href="#SVGID_3_"  overflow="visible"/>
					</clipPath>
				</g>
			</g>
			<g>
				<g>
					<defs>
						<rect id="SVGID_5_" x="26.697" y="25.812" width="0.167" height="0.863"/>
					</defs>
					<clipPath id="SVGID_6_">
						<use xlink:href="#SVGID_5_"  overflow="visible"/>
					</clipPath>
				</g>
			</g>
			<g>
				<g>
					<defs>
						<rect id="SVGID_7_" x="25.559" y="26.712" width="6.425" height="0.492"/>
					</defs>
					<clipPath id="SVGID_8_">
						<use xlink:href="#SVGID_7_"  overflow="visible"/>
					</clipPath>
				</g>
			</g>
			<g>
				<g>
					<defs>
						<rect id="SVGID_9_" x="22.187" y="27.379" width="1.291" height="1.985"/>
					</defs>
					<clipPath id="SVGID_10_">
						<use xlink:href="#SVGID_9_"  overflow="visible"/>
					</clipPath>
				</g>
			</g>
			<g>
				<g>
					<defs>
						<rect id="SVGID_11_" x="25.604" y="28.124" width="0.05" height="0.609"/>
					</defs>
					<clipPath id="SVGID_12_">
						<use xlink:href="#SVGID_11_"  overflow="visible"/>
					</clipPath>
				</g>
			</g>
			<g>
				<g>
					<defs>
						<rect id="SVGID_13_" x="25.081" y="27.506" width="0.221" height="1.927"/>
					</defs>
					<clipPath id="SVGID_14_">
						<use xlink:href="#SVGID_13_"  overflow="visible"/>
					</clipPath>
				</g>
			</g>
			<g>
				<g>
					<defs>
						<rect id="SVGID_15_" x="25.995" y="27.478" width="0.27" height="1.924"/>
					</defs>
					<clipPath id="SVGID_16_">
						<use xlink:href="#SVGID_15_"  overflow="visible"/>
					</clipPath>
				</g>
			</g>
			<g>
				<g>
					<defs>
						<rect id="SVGID_17_" x="8.7" y="25.606" width="9.897" height="9.732"/>
					</defs>
					<clipPath id="SVGID_18_">
						<use xlink:href="#SVGID_17_"  overflow="visible"/>
					</clipPath>
				</g>
			</g>
			<g>
				<g>
					<defs>
						<rect id="SVGID_19_" x="14.627" y="8.156" width="5.918" height="11.587"/>
					</defs>
					<clipPath id="SVGID_20_">
						<use xlink:href="#SVGID_19_"  overflow="visible"/>
					</clipPath>
				</g>
			</g>
			<g>
				<g>
					<defs>
						<rect id="SVGID_21_" x="24.471" y="3.788" width="3.893" height="7.622"/>
					</defs>
					<clipPath id="SVGID_22_">
						<use xlink:href="#SVGID_21_"  overflow="visible"/>
					</clipPath>
				</g>
			</g>
			<g>
				<g>
					<defs>
						<rect id="SVGID_23_" x="0.108" y="33.829" width="3.892" height="7.62"/>
					</defs>
					<clipPath id="SVGID_24_">
						<use xlink:href="#SVGID_23_"  overflow="visible"/>
					</clipPath>
				</g>
			</g>
			<g>
				<g>
					<defs>
						<rect id="SVGID_25_" x="28.516" y="47.16" width="4.521" height="8.849"/>
					</defs>
					<clipPath id="SVGID_26_">
						<use xlink:href="#SVGID_25_"  overflow="visible"/>
					</clipPath>
				</g>
			</g>
			<g>
				<g>
					<defs>
						<rect id="SVGID_27_" x="1.02" y="13.919" width="10.199" height="9.617"/>
					</defs>
					<clipPath id="SVGID_28_">
						<use xlink:href="#SVGID_27_"  overflow="visible"/>
					</clipPath>
				</g>
			</g>
			<g>
				<g>
					<defs>
						<rect id="SVGID_29_" x="12.208" y="39.389" width="13.342" height="10.667"/>
					</defs>
					<clipPath id="SVGID_30_">
						<use xlink:href="#SVGID_29_"  overflow="visible"/>
					</clipPath>
				</g>
			</g>
		</g>
	</g>
	<g>
		<g>
			<g opacity="0.25">
				<g>
					<defs>
						<rect id="SVGID_31_" x="4.66" y="37.427" width="4.627" height="9.059"/>
					</defs>
					<clipPath id="SVGID_32_">
						<use xlink:href="#SVGID_31_"  overflow="visible"/>
					</clipPath>
					<g clip-path="url(#SVGID_32_)">
						<path fill="#FFFFFF" d="M6.685,45.414c-0.035,0.008-0.06,0.013-0.076,0.013H6.543c-0.207,0-0.399-0.005-0.573-0.021
							c-0.168-0.013-0.329-0.036-0.47-0.057c-0.149-0.023-0.291-0.057-0.424-0.098c-0.139-0.039-0.274-0.077-0.416-0.129
							c0.008-0.142,0.041-0.283,0.082-0.425c0.043-0.147,0.098-0.286,0.147-0.422c0.234,0.075,0.476,0.136,0.715,0.19
							c0.247,0.054,0.541,0.077,0.894,0.077c0.554,0,0.97-0.1,1.242-0.306c0.272-0.203,0.405-0.494,0.405-0.849
							c0-0.175-0.03-0.329-0.084-0.448c-0.063-0.126-0.147-0.234-0.264-0.324c-0.111-0.09-0.266-0.175-0.438-0.247
							c-0.174-0.072-0.386-0.16-0.622-0.255l-0.489-0.19c-0.204-0.082-0.391-0.17-0.56-0.268c-0.171-0.098-0.318-0.206-0.443-0.34
							c-0.128-0.131-0.223-0.291-0.291-0.468c-0.071-0.18-0.101-0.394-0.101-0.648c0-0.489,0.158-0.898,0.473-1.212
							c0.315-0.316,0.766-0.512,1.359-0.589v-0.937c0.103-0.023,0.22-0.036,0.348-0.036c0.136,0,0.261,0.013,0.37,0.036v0.898
							c0.283,0.015,0.56,0.044,0.84,0.087c0.274,0.044,0.511,0.1,0.707,0.175c-0.033,0.268-0.109,0.538-0.228,0.798
							c-0.179-0.064-0.391-0.118-0.628-0.17c-0.239-0.044-0.511-0.067-0.826-0.067c-0.427,0-0.756,0.072-0.989,0.226
							c-0.228,0.157-0.345,0.401-0.345,0.715c0,0.154,0.03,0.288,0.09,0.399c0.065,0.113,0.155,0.214,0.269,0.306
							c0.122,0.082,0.264,0.16,0.432,0.234c0.168,0.072,0.353,0.142,0.563,0.229l0.389,0.157c0.247,0.098,0.467,0.198,0.663,0.296
							c0.196,0.103,0.364,0.229,0.503,0.368c0.141,0.142,0.25,0.306,0.329,0.502c0.073,0.19,0.117,0.427,0.117,0.7
							c0,0.548-0.168,0.996-0.497,1.343c-0.326,0.342-0.791,0.571-1.386,0.679v1.109c-0.057,0.013-0.117,0.021-0.177,0.033
							c-0.057,0.003-0.117,0.005-0.174,0.005c-0.06,0-0.12-0.003-0.185-0.005c-0.057-0.013-0.12-0.021-0.182-0.033V45.414z"/>
					</g>
				</g>
			</g>
			<g>
				<path fill="#F7CB98" d="M20.468,26.123c0,0,6.18-2.318,9.093-2.192c0,0,1.568-0.723,2.78,0.373l3.856,2.617
					c0,0-7.191,0.682-7.033-0.057c0.158-0.741-1.959,0.746-3.568,0.334c0,0-2.813,0.828-4.025,0.461
					C21.572,27.659,19.514,27.464,20.468,26.123"/>
			</g>
			<g>
				<path fill="#FE8407" d="M25.498,35.911l1.68,0.075l0.432-9.568l-18.478-0.81L8.7,35.172l12.708,0.558
					c0,0,0.891-0.664,2.772-0.113L25.498,35.911z"/>
			</g>
			<g>
				<polygon fill="#FFD54B" points="10.3,32.108 9.158,31.197 10.552,30.716 				"/>
			</g>
			<g>
				
					<rect x="8.94" y="28.338" transform="matrix(0.9994 0.0354 -0.0354 0.9994 1.0519 -0.6264)" fill="#FFD54B" width="18.514" height="2.044"/>
			</g>
			<g>
				<path fill="#FE8407" d="M21.408,35.731l3.731,0.098c0,0-1.527-1.392-2.158-1.158C22.356,34.905,21.408,35.731,21.408,35.731"/>
			</g>
			<g>
				<path fill="#F7CB98" d="M28.181,30.653c0,0-2.329,0.34-3.441,0.193c0,0-2.4-0.352-2.886-1.672c0,0-0.932-1.24,0.038-1.945
					c0,0,1.864-0.435,2.976-0.018c0,0,2.946-1.073,5.737-0.175c0,0,2.704,0.026,3.582,0.219l1.973-0.363
					c0,0,2.269,1.083,2.875,1.765c0,0,4.343,2.11,5.096,2.148c0,0,4.055,1.099,5.289,1.132c0.168,0.003,0.285-0.013,0.329-0.051
					c0.399-0.337-2.628,8.503-2.628,8.503s-2.745-2.493-7.349-2.701c0,0-2.541-0.327-2.824-1.155c0,0-1.035-0.226-4.351-2.439
					C29.281,31.881,28.181,30.653,28.181,30.653"/>
			</g>
			<g opacity="0.5">
				<g>
					<defs>
						<rect id="SVGID_33_" x="30.197" y="25.323" width="0.378" height="1.617"/>
					</defs>
					<clipPath id="SVGID_34_">
						<use xlink:href="#SVGID_33_"  overflow="visible"/>
					</clipPath>
					<g clip-path="url(#SVGID_34_)">
						<path fill="#3F3F3F" d="M30.511,26.912c-0.008,0.01-0.022,0.018-0.038,0.028l-0.011-0.021
							c0.014-0.005,0.024-0.013,0.033-0.023c0.152-0.152-0.033-0.72-0.171-1.145c-0.054-0.172-0.103-0.322-0.128-0.425l0.024-0.005
							c0.022,0.103,0.071,0.252,0.125,0.422C30.492,26.197,30.674,26.753,30.511,26.912"/>
					</g>
				</g>
			</g>
			<g opacity="0.5">
				<g>
					<defs>
						<rect id="SVGID_35_" x="26.697" y="25.812" width="0.167" height="0.863"/>
					</defs>
					<clipPath id="SVGID_36_">
						<use xlink:href="#SVGID_35_"  overflow="visible"/>
					</clipPath>
					<g clip-path="url(#SVGID_36_)">
						<path fill="#3F3F3F" d="M26.864,26.661l-0.019,0.013c-0.22-0.26-0.163-0.615-0.035-0.862l0.019,0.008
							C26.704,26.062,26.65,26.409,26.864,26.661"/>
					</g>
				</g>
			</g>
			<g opacity="0.5">
				<g>
					<defs>
						<rect id="SVGID_37_" x="25.559" y="26.712" width="6.425" height="0.492"/>
					</defs>
					<clipPath id="SVGID_38_">
						<use xlink:href="#SVGID_37_"  overflow="visible"/>
					</clipPath>
					<g clip-path="url(#SVGID_38_)">
						<path fill="#3F3F3F" d="M31.973,27.204c-0.217-0.103-0.304-0.018-0.307-0.018l-0.003,0.003h-0.005
							c-0.332-0.028-1.476-0.062-1.487-0.062l-0.005-0.003c-0.408-0.157-0.723-0.203-0.723-0.203
							c-1.196-0.376-2.987-0.067-3.006-0.064c-0.193,0.026-0.489,0.085-0.875,0.178l-0.003-0.021
							c0.386-0.093,0.679-0.152,0.875-0.178c0.019-0.005,1.815-0.314,3.011,0.064c0.003,0,0.318,0.049,0.728,0.203
							c0.054,0.003,1.15,0.036,1.481,0.064c0.022-0.018,0.12-0.08,0.329,0.018L31.973,27.204z"/>
					</g>
				</g>
			</g>
			<g>
				<polygon fill="#F7CB98" points="35.835,26.952 35.696,27.354 34.509,27.575 34.115,27.557 				"/>
			</g>
			<g opacity="0.65">
				<g>
					<defs>
						<rect id="SVGID_39_" x="22.187" y="27.379" width="1.291" height="1.985"/>
					</defs>
					<clipPath id="SVGID_40_">
						<use xlink:href="#SVGID_39_"  overflow="visible"/>
					</clipPath>
					<g clip-path="url(#SVGID_40_)">
						<path fill="#FFFFFF" d="M22.703,27.383c0.307-0.051,0.639,0.347,0.745,0.893c0.103,0.545-0.063,1.032-0.37,1.083
							c-0.31,0.051-0.766-0.288-0.87-0.834C22.105,27.98,22.393,27.437,22.703,27.383"/>
					</g>
				</g>
			</g>
			<g>
				<polygon fill="#F7CB98" points="34.075,27.715 33.591,27.47 33.146,27.069 33.113,26.657 33.836,26.503 34.336,26.65 
					34.801,26.49 35.331,26.665 35.749,26.773 36.236,27.213 35.733,27.715 35.282,27.962 34.91,27.892 				"/>
			</g>
			<g>
				<path fill="#F4F4F4" d="M44.927,40.015c0,0-2.231-0.504-2.582-0.785c-0.351-0.28,3.142-10.124,3.438-10.15
					c0.296-0.026,2.582,0.785,2.582,0.785L44.927,40.015z"/>
			</g>
			<g>
				<path fill="#4F4F4F" d="M44.851,40.996c-1.073-0.738,2.508-12.193,3.911-12.128c1.402,0.062,14.798,4.196,14.798,4.196
					l-4.503,13.024C59.056,46.088,45.927,41.737,44.851,40.996"/>
			</g>
			<g opacity="0.5">
				<g>
					<defs>
						<rect id="SVGID_41_" x="25.604" y="28.124" width="0.05" height="0.609"/>
					</defs>
					<clipPath id="SVGID_42_">
						<use xlink:href="#SVGID_41_"  overflow="visible"/>
					</clipPath>
					<g clip-path="url(#SVGID_42_)">
						<path fill="#3F3F3F" d="M25.629,28.124c0.035,0.201,0.033,0.412-0.011,0.61l-0.014-0.003c0.043-0.196,0.046-0.404,0.011-0.605
							L25.629,28.124z"/>
					</g>
				</g>
			</g>
			<g opacity="0.5">
				<g>
					<defs>
						<rect id="SVGID_43_" x="25.081" y="27.506" width="0.221" height="1.927"/>
					</defs>
					<clipPath id="SVGID_44_">
						<use xlink:href="#SVGID_43_"  overflow="visible"/>
					</clipPath>
					<g clip-path="url(#SVGID_44_)">
						<path fill="#3F3F3F" d="M25.303,27.506c-0.022,0.193-0.063,0.376-0.103,0.556c-0.101,0.455-0.196,0.888,0.06,1.366
							l-0.014,0.005c-0.258-0.484-0.16-0.916-0.057-1.376c0.038-0.178,0.079-0.36,0.101-0.551H25.303z"/>
					</g>
				</g>
			</g>
			<g opacity="0.5">
				<g>
					<defs>
						<rect id="SVGID_45_" x="25.995" y="27.478" width="0.27" height="1.924"/>
					</defs>
					<clipPath id="SVGID_46_">
						<use xlink:href="#SVGID_45_"  overflow="visible"/>
					</clipPath>
					<g clip-path="url(#SVGID_46_)">
						<path fill="#3F3F3F" d="M25.995,29.4c0.027-0.19,0.076-0.373,0.122-0.548c0.12-0.455,0.231-0.882-0.005-1.369l0.011-0.005
							c0.242,0.491,0.128,0.921,0.008,1.376c-0.046,0.178-0.095,0.358-0.122,0.548L25.995,29.4z"/>
					</g>
				</g>
			</g>
			<g>
				<path fill="#5E5E5E" d="M44.796,40.899c0,0-0.712-0.103,1.109-6.352l15.499,4.755l-2.348,6.787
					C59.056,46.089,45.364,41.756,44.796,40.899"/>
			</g>
			<g opacity="0.1">
				<g>
					<defs>
						<rect id="SVGID_47_" x="8.7" y="25.606" width="9.897" height="9.732"/>
					</defs>
					<clipPath id="SVGID_48_">
						<use xlink:href="#SVGID_47_"  overflow="visible"/>
					</clipPath>
					<g clip-path="url(#SVGID_48_)">
						<polygon fill="#FFFFFF" points="8.7,35.174 14.261,35.338 18.598,26.13 9.133,25.605 						"/>
					</g>
				</g>
			</g>
			<g opacity="0.25">
				<g>
					<defs>
						<rect id="SVGID_49_" x="14.627" y="8.156" width="5.918" height="11.587"/>
					</defs>
					<clipPath id="SVGID_50_">
						<use xlink:href="#SVGID_49_"  overflow="visible"/>
					</clipPath>
					<g clip-path="url(#SVGID_50_)">
						<path fill="#A6DAE8" d="M17.217,18.372c-0.043,0.005-0.076,0.015-0.101,0.015h-0.082c-0.264,0-0.508-0.01-0.731-0.026
							c-0.215-0.015-0.421-0.046-0.603-0.075c-0.188-0.028-0.37-0.072-0.544-0.123c-0.174-0.049-0.348-0.1-0.53-0.165
							c0.008-0.183,0.052-0.363,0.106-0.545c0.054-0.185,0.125-0.363,0.185-0.538c0.299,0.093,0.606,0.175,0.919,0.244
							c0.313,0.069,0.69,0.098,1.141,0.098c0.707,0,1.239-0.126,1.587-0.391c0.348-0.26,0.516-0.633,0.516-1.086
							c0-0.224-0.038-0.422-0.103-0.574c-0.079-0.16-0.19-0.298-0.34-0.414c-0.144-0.116-0.34-0.221-0.563-0.314
							c-0.22-0.093-0.489-0.203-0.794-0.329l-0.625-0.242c-0.261-0.1-0.5-0.216-0.717-0.34c-0.22-0.126-0.405-0.265-0.565-0.435
							c-0.163-0.172-0.285-0.373-0.37-0.602c-0.09-0.226-0.133-0.502-0.133-0.826c0-0.628,0.204-1.15,0.609-1.551
							c0.402-0.404,0.978-0.654,1.737-0.754V8.202c0.13-0.028,0.283-0.046,0.446-0.046c0.171,0,0.332,0.018,0.47,0.046v1.153
							c0.364,0.015,0.72,0.054,1.073,0.111c0.353,0.054,0.655,0.129,0.908,0.221c-0.046,0.345-0.141,0.692-0.291,1.021
							c-0.234-0.08-0.505-0.152-0.807-0.219c-0.304-0.054-0.652-0.085-1.057-0.085c-0.546,0-0.965,0.093-1.264,0.291
							c-0.291,0.201-0.44,0.512-0.44,0.913c0,0.201,0.041,0.37,0.114,0.512c0.084,0.144,0.196,0.27,0.345,0.391
							c0.158,0.103,0.334,0.203,0.554,0.301c0.215,0.09,0.448,0.18,0.715,0.293l0.5,0.198c0.315,0.123,0.595,0.255,0.848,0.381
							c0.25,0.129,0.465,0.288,0.641,0.466c0.179,0.185,0.318,0.396,0.421,0.643c0.095,0.244,0.152,0.548,0.152,0.898
							c0,0.7-0.217,1.274-0.639,1.714c-0.419,0.437-1.014,0.733-1.775,0.87v1.42c-0.071,0.015-0.149,0.026-0.226,0.041
							c-0.073,0.003-0.147,0.008-0.223,0.008c-0.073,0-0.152-0.005-0.234-0.008c-0.073-0.015-0.152-0.026-0.234-0.041V18.372z"/>
					</g>
				</g>
			</g>
			<g opacity="0.25">
				<g>
					<defs>
						<rect id="SVGID_51_" x="24.471" y="3.788" width="3.893" height="7.622"/>
					</defs>
					<clipPath id="SVGID_52_">
						<use xlink:href="#SVGID_51_"  overflow="visible"/>
					</clipPath>
					<g clip-path="url(#SVGID_52_)">
						<path fill="#A6DAE8" d="M26.174,10.508c-0.027,0.005-0.049,0.01-0.065,0.01h-0.052c-0.177,0-0.337-0.005-0.484-0.018
							c-0.141-0.01-0.277-0.028-0.397-0.046c-0.125-0.021-0.242-0.049-0.356-0.082c-0.114-0.031-0.231-0.067-0.351-0.108
							c0.008-0.121,0.035-0.239,0.071-0.358c0.038-0.123,0.082-0.239,0.122-0.355c0.196,0.059,0.4,0.116,0.603,0.162
							c0.207,0.044,0.454,0.062,0.75,0.062c0.465,0,0.818-0.082,1.046-0.257c0.226-0.17,0.34-0.414,0.34-0.713
							c0-0.149-0.027-0.278-0.071-0.378c-0.052-0.105-0.125-0.196-0.223-0.27c-0.092-0.077-0.223-0.147-0.367-0.208
							c-0.149-0.059-0.326-0.134-0.522-0.216L25.807,7.57c-0.171-0.064-0.332-0.142-0.473-0.224c-0.144-0.08-0.266-0.17-0.372-0.283
							c-0.106-0.111-0.188-0.244-0.242-0.396c-0.06-0.149-0.087-0.329-0.087-0.543c0-0.412,0.133-0.754,0.4-1.019
							c0.264-0.268,0.644-0.432,1.141-0.497V3.821c0.087-0.021,0.185-0.033,0.291-0.033c0.114,0,0.22,0.013,0.313,0.033v0.754
							c0.239,0.013,0.473,0.036,0.707,0.075c0.231,0.036,0.429,0.085,0.598,0.147c-0.03,0.226-0.092,0.455-0.196,0.672
							c-0.149-0.054-0.329-0.098-0.527-0.144c-0.201-0.036-0.429-0.057-0.696-0.057c-0.361,0-0.636,0.062-0.832,0.19
							c-0.19,0.134-0.288,0.34-0.288,0.602c0,0.131,0.024,0.244,0.073,0.337c0.054,0.095,0.128,0.178,0.228,0.257
							c0.103,0.067,0.22,0.134,0.361,0.196s0.296,0.121,0.473,0.193l0.329,0.134c0.204,0.08,0.391,0.167,0.557,0.247
							c0.163,0.087,0.307,0.193,0.424,0.309c0.117,0.121,0.207,0.26,0.274,0.425c0.065,0.16,0.101,0.358,0.101,0.587
							c0,0.463-0.144,0.839-0.421,1.132c-0.274,0.286-0.666,0.481-1.166,0.571v0.931c-0.046,0.01-0.098,0.018-0.149,0.028
							c-0.049,0.003-0.095,0.005-0.147,0.005c-0.049,0-0.098-0.003-0.152-0.005c-0.049-0.01-0.101-0.018-0.155-0.028V10.508z"/>
					</g>
				</g>
			</g>
			<g opacity="0.25">
				<g>
					<defs>
						<rect id="SVGID_53_" x="0.108" y="33.829" width="3.892" height="7.62"/>
					</defs>
					<clipPath id="SVGID_54_">
						<use xlink:href="#SVGID_53_"  overflow="visible"/>
					</clipPath>
					<g clip-path="url(#SVGID_54_)">
						<path fill="#A6DAE8" d="M1.812,40.549c-0.027,0.005-0.052,0.01-0.065,0.01H1.693c-0.174,0-0.334-0.005-0.481-0.015
							c-0.141-0.013-0.277-0.031-0.397-0.049c-0.125-0.018-0.245-0.049-0.356-0.082c-0.117-0.031-0.231-0.067-0.351-0.108
							c0.008-0.121,0.035-0.237,0.071-0.358c0.038-0.123,0.084-0.242,0.122-0.355c0.196,0.059,0.399,0.113,0.603,0.16
							c0.207,0.049,0.454,0.064,0.75,0.064c0.467,0,0.818-0.082,1.046-0.255c0.226-0.172,0.34-0.417,0.34-0.715
							c0-0.147-0.027-0.278-0.071-0.378c-0.052-0.105-0.125-0.196-0.22-0.27c-0.098-0.077-0.226-0.147-0.37-0.208
							c-0.147-0.062-0.326-0.134-0.525-0.216l-0.41-0.16c-0.171-0.067-0.329-0.142-0.47-0.224c-0.147-0.082-0.269-0.172-0.375-0.286
							s-0.188-0.244-0.242-0.396c-0.06-0.149-0.087-0.329-0.087-0.545c0-0.409,0.133-0.751,0.397-1.019
							c0.266-0.265,0.647-0.43,1.144-0.494v-0.79c0.09-0.015,0.185-0.031,0.294-0.031c0.111,0,0.217,0.015,0.31,0.031v0.756
							c0.239,0.013,0.473,0.039,0.707,0.075c0.231,0.036,0.432,0.085,0.598,0.147c-0.03,0.226-0.095,0.455-0.193,0.672
							c-0.155-0.051-0.332-0.098-0.53-0.144c-0.201-0.036-0.429-0.057-0.693-0.057c-0.361,0-0.636,0.062-0.834,0.19
							c-0.19,0.134-0.288,0.337-0.288,0.602c0,0.131,0.024,0.244,0.073,0.337c0.054,0.095,0.13,0.18,0.228,0.257
							c0.103,0.067,0.217,0.134,0.361,0.198c0.141,0.059,0.296,0.118,0.473,0.19l0.329,0.134c0.207,0.08,0.391,0.167,0.557,0.247
							c0.163,0.087,0.304,0.193,0.421,0.309c0.117,0.121,0.212,0.26,0.277,0.425C3.965,38.357,4,38.555,4,38.784
							c0,0.463-0.141,0.839-0.416,1.129c-0.274,0.288-0.669,0.481-1.169,0.571v0.934c-0.049,0.01-0.098,0.018-0.149,0.028
							c-0.049,0.003-0.095,0.003-0.144,0.003c-0.052,0-0.101,0-0.155-0.003c-0.049-0.01-0.101-0.018-0.155-0.028V40.549z"/>
					</g>
				</g>
			</g>
			<g opacity="0.25">
				<g>
					<defs>
						<rect id="SVGID_55_" x="28.516" y="47.16" width="4.521" height="8.849"/>
					</defs>
					<clipPath id="SVGID_56_">
						<use xlink:href="#SVGID_55_"  overflow="visible"/>
					</clipPath>
					<g clip-path="url(#SVGID_56_)">
						<path fill="#A6DAE8" d="M30.495,54.962c-0.033,0.005-0.057,0.013-0.076,0.013h-0.06c-0.204,0-0.389-0.008-0.563-0.021
							c-0.163-0.01-0.321-0.033-0.459-0.057c-0.144-0.021-0.283-0.054-0.413-0.095c-0.133-0.036-0.269-0.075-0.408-0.123
							c0.008-0.142,0.041-0.28,0.082-0.419c0.043-0.139,0.095-0.275,0.144-0.412c0.226,0.072,0.462,0.136,0.698,0.188
							c0.242,0.057,0.53,0.075,0.872,0.075c0.541,0,0.948-0.098,1.212-0.296c0.266-0.201,0.394-0.484,0.394-0.831
							c0-0.172-0.027-0.322-0.079-0.44c-0.06-0.121-0.144-0.226-0.258-0.314c-0.111-0.087-0.258-0.17-0.429-0.242
							c-0.171-0.069-0.375-0.154-0.606-0.25l-0.478-0.185c-0.198-0.08-0.38-0.167-0.546-0.26c-0.168-0.095-0.313-0.201-0.432-0.332
							c-0.125-0.131-0.22-0.286-0.283-0.458c-0.071-0.175-0.103-0.386-0.103-0.635c0-0.476,0.155-0.875,0.465-1.184
							c0.307-0.309,0.75-0.497,1.326-0.576v-0.913c0.103-0.021,0.217-0.036,0.34-0.036c0.133,0,0.255,0.015,0.361,0.036v0.877
							c0.277,0.015,0.546,0.044,0.821,0.085c0.269,0.044,0.5,0.1,0.693,0.172c-0.035,0.262-0.109,0.527-0.226,0.78
							c-0.177-0.062-0.383-0.116-0.614-0.167c-0.234-0.044-0.497-0.067-0.807-0.067c-0.416,0-0.736,0.072-0.965,0.221
							c-0.223,0.154-0.337,0.391-0.337,0.7c0,0.152,0.03,0.28,0.087,0.391c0.065,0.111,0.149,0.208,0.264,0.298
							c0.12,0.077,0.255,0.154,0.421,0.229c0.166,0.069,0.345,0.139,0.549,0.224l0.38,0.154c0.242,0.093,0.454,0.193,0.65,0.288
							c0.19,0.1,0.356,0.221,0.489,0.358c0.136,0.139,0.242,0.301,0.321,0.491c0.073,0.188,0.117,0.417,0.117,0.684
							c0,0.535-0.166,0.973-0.486,1.31c-0.318,0.334-0.775,0.561-1.356,0.664v1.086c-0.057,0.01-0.114,0.018-0.174,0.031
							c-0.054,0.003-0.111,0.005-0.168,0.005c-0.057,0-0.117-0.003-0.177-0.005c-0.06-0.013-0.12-0.021-0.182-0.031V54.962z"/>
					</g>
				</g>
			</g>
			<g opacity="0.8">
				<g>
					<defs>
						<rect id="SVGID_57_" x="1.02" y="13.919" width="10.199" height="9.617"/>
					</defs>
					<clipPath id="SVGID_58_">
						<use xlink:href="#SVGID_57_"  overflow="visible"/>
					</clipPath>
					<g clip-path="url(#SVGID_58_)">
						<path fill="#A6DAE8" d="M9.58,23.535H2.658c-0.386,0-0.72-0.298-0.745-0.664l-0.22-3.417h8.852l-0.22,3.417
							C10.3,23.236,9.968,23.535,9.58,23.535 M1.859,19.601l0.212,3.262c0.019,0.288,0.283,0.525,0.587,0.525H9.58
							c0.307,0,0.571-0.237,0.587-0.525l0.212-3.262H1.859z M8.634,22.835c-0.174,0-0.315-0.167-0.315-0.37v-1.791
							c0-0.206,0.141-0.373,0.315-0.373c0.171,0,0.313,0.167,0.313,0.373v1.791C8.946,22.668,8.805,22.835,8.634,22.835
							 M8.634,20.45c-0.087,0-0.158,0.103-0.158,0.224v1.791c0,0.121,0.071,0.221,0.158,0.221c0.082,0,0.155-0.1,0.155-0.221v-1.791
							C8.789,20.553,8.715,20.45,8.634,20.45 M6.957,22.835c-0.174,0-0.313-0.167-0.313-0.37v-1.791
							c0-0.206,0.139-0.373,0.313-0.373c0.171,0,0.313,0.167,0.313,0.373v1.791C7.27,22.668,7.128,22.835,6.957,22.835 M6.957,20.45
							c-0.084,0-0.158,0.103-0.158,0.224v1.791c0,0.121,0.073,0.221,0.158,0.221c0.084,0,0.158-0.1,0.158-0.221v-1.791
							C7.115,20.553,7.041,20.45,6.957,20.45 M5.28,22.835c-0.171,0-0.313-0.167-0.313-0.37v-1.791c0-0.206,0.141-0.373,0.313-0.373
							c0.174,0,0.315,0.167,0.315,0.373v1.791C5.596,22.668,5.454,22.835,5.28,22.835 M5.28,20.45c-0.084,0-0.155,0.103-0.155,0.224
							v1.791c0,0.121,0.071,0.221,0.155,0.221c0.087,0,0.158-0.1,0.158-0.221v-1.791C5.438,20.553,5.367,20.45,5.28,20.45
							 M3.606,22.835c-0.174,0-0.313-0.167-0.313-0.37v-1.791c0-0.206,0.139-0.373,0.313-0.373c0.174,0,0.313,0.167,0.313,0.373
							v1.791C3.919,22.668,3.78,22.835,3.606,22.835 M3.606,20.45c-0.087,0-0.158,0.103-0.158,0.224v1.791
							c0,0.121,0.071,0.221,0.158,0.221c0.084,0,0.158-0.1,0.158-0.221v-1.791C3.764,20.553,3.69,20.45,3.606,20.45"/>
					</g>
					<g clip-path="url(#SVGID_58_)">
						<path fill="#A6DAE8" d="M5.973,19.305h-4.56c-0.217,0-0.394-0.167-0.394-0.373v-1.194c0-0.203,0.177-0.37,0.394-0.37h3.701
							l-0.337,0.316c-0.103,0.1-0.16,0.229-0.16,0.37c0,0.139,0.057,0.268,0.16,0.365l0.666,0.63
							c0.049,0.046,0.109,0.085,0.174,0.113L5.973,19.305z M1.413,17.517c-0.13,0-0.236,0.1-0.236,0.221v1.194
							c0,0.123,0.106,0.224,0.236,0.224h3.922H5.332l-0.666-0.63c-0.13-0.126-0.207-0.293-0.207-0.471
							c0-0.18,0.076-0.347,0.207-0.476l0.068-0.062H1.413z"/>
					</g>
					<g clip-path="url(#SVGID_58_)">
						<path fill="#A6DAE8" d="M10.825,19.305H5.689l0.356-0.144c0.065-0.026,0.122-0.064,0.174-0.111l1.777-1.683h2.829
							c0.215,0,0.394,0.167,0.394,0.37v1.194C11.219,19.138,11.04,19.305,10.825,19.305 M6.33,19.156h4.495
							c0.13,0,0.236-0.1,0.236-0.224v-1.194c0-0.123-0.106-0.221-0.236-0.221H8.062L6.33,19.156z"/>
					</g>
					<g clip-path="url(#SVGID_58_)">
						<path fill="#A6DAE8" d="M5.83,19.053c-0.103,0-0.204-0.039-0.277-0.108l-0.666-0.63c-0.073-0.069-0.114-0.162-0.114-0.262
							c0-0.098,0.041-0.193,0.114-0.262l3.981-3.767c0.147-0.139,0.405-0.139,0.554,0l0.666,0.63c0.149,0.144,0.149,0.381,0,0.522
							l-3.981,3.769C6.034,19.015,5.936,19.053,5.83,19.053 M9.146,14.062c-0.063,0-0.122,0.023-0.166,0.067l-3.981,3.767
							c-0.043,0.041-0.068,0.098-0.068,0.157s0.024,0.116,0.068,0.16l0.666,0.628c0.09,0.085,0.245,0.085,0.334,0l3.979-3.767
							c0.092-0.087,0.092-0.226,0-0.314l-0.666-0.63C9.268,14.085,9.208,14.062,9.146,14.062 M5.768,18.503
							c-0.231,0-0.421-0.18-0.421-0.401c0-0.219,0.19-0.399,0.421-0.399c0.234,0,0.424,0.18,0.424,0.399
							C6.192,18.323,6.002,18.503,5.768,18.503 M5.768,17.852c-0.147,0-0.266,0.113-0.266,0.25c0,0.139,0.12,0.252,0.266,0.252
							c0.147,0,0.266-0.113,0.266-0.252C6.034,17.965,5.915,17.852,5.768,17.852"/>
					</g>
				</g>
			</g>
			<g>
				<path fill="#A6DAE8" d="M34.18,18.775l-2.245-0.818l-0.016-0.021c-0.019-0.023-0.041-0.049-0.057-0.075
					c-0.008-0.015-0.016-0.028-0.022-0.041l0.019-0.015l-0.022,0.01l-0.008-0.01c-0.005-0.01-0.008-0.018-0.011-0.026l-0.003-0.008
					l0.019-0.013l-0.022,0.008l-0.005-0.008c-0.003-0.008-0.005-0.018-0.008-0.028v-0.003l-0.003-0.008
					c-0.005-0.01-0.005-0.018-0.008-0.026c0,0,0,0-0.003-0.003h-0.003v-0.008l-0.008-0.01l0.008-0.005v-0.003
					c-0.003-0.003-0.003-0.005-0.003-0.01c-0.003-0.013-0.005-0.023-0.005-0.036c-0.003-0.015-0.005-0.033-0.005-0.049
					c0-0.018,0-0.033,0.003-0.057l-0.003-0.008l0.003-0.003c0-0.01,0.003-0.026,0.005-0.046l0.014-0.059
					c0.008-0.028,0.011-0.041,0.011-0.041c0.003-0.005,0.003-0.008,0.005-0.01c0.003-0.013,0.014-0.033,0.022-0.054l0.019-0.041
					c0.005-0.021,0.016-0.041,0.022-0.059h0.027l-0.024-0.008l0.011-0.028c0.024-0.069,0.041-0.118,0.052-0.154
					c0.011-0.028,0.033-0.105,0.049-0.167c0.005-0.028,0.014-0.059,0.022-0.087l0.005-0.018c0.005-0.028,0.011-0.049,0.016-0.075
					c0.008-0.051,0.022-0.118,0.033-0.17l0.011-0.064c0.016-0.09,0.024-0.17,0.03-0.232l0.014-0.108
					c0.005-0.064,0.014-0.144,0.016-0.234l0.003-0.01l0.024-0.008l-0.024-0.003l0.003-0.062c0.003-0.069,0.005-0.149,0.005-0.214
					v-0.013v-0.015v-0.051v-0.026v-0.064c0-0.018,0-0.036,0-0.051l-0.003-0.08c-0.003-0.072-0.003-0.111-0.008-0.175
					c0-0.039-0.003-0.075-0.008-0.116l-0.005-0.082c-0.003-0.028-0.005-0.057-0.008-0.08c-0.003-0.036-0.008-0.077-0.014-0.116
					l-0.011-0.108c-0.005-0.067-0.011-0.123-0.016-0.17l-0.003-0.018c-0.005-0.033-0.011-0.064-0.016-0.093l-0.005-0.026
					c-0.019-0.121-0.027-0.208-0.027-0.211l-0.003-0.036c-0.003-0.023-0.003-0.049-0.005-0.069
					c-0.003-0.039-0.003-0.082-0.003-0.118v-0.005c0-0.026,0-0.064,0.003-0.113c0-0.033,0.003-0.077,0.005-0.108l0.011-0.113
					c0.003-0.005,0.003-0.008,0.003-0.013c0-0.005,0.003-0.013,0.003-0.021l0.027-0.005l-0.027-0.003
					c0.003-0.008,0.005-0.018,0.005-0.028l0.024-0.003l-0.024-0.005c0.003-0.013,0.005-0.023,0.008-0.036v-0.01
					c0.003-0.018,0.005-0.033,0.008-0.046l0.005-0.026c0-0.003,0-0.005,0.003-0.008l0.005-0.031
					c0.005-0.023,0.011-0.046,0.016-0.064l0.008-0.041c0.005-0.021,0.014-0.051,0.024-0.08l0.043-0.136
					c0.016-0.044,0.03-0.082,0.043-0.116c0.014-0.033,0.035-0.077,0.049-0.108l0.011-0.028c0.008-0.018,0.019-0.036,0.033-0.059
					l0.022-0.044c0.027-0.054,0.065-0.121,0.101-0.175l0.005-0.008c0.019-0.033,0.041-0.064,0.06-0.095l0.011-0.01
					c0.024-0.039,0.046-0.069,0.063-0.09c0.003-0.003,0.005-0.005,0.005-0.008c0.033-0.041,0.079-0.093,0.111-0.134l0.016-0.018
					c0.003-0.003,0.008-0.008,0.016-0.018c0.03-0.033,0.071-0.08,0.128-0.134c0.046-0.046,0.095-0.09,0.144-0.131l0.008-0.008
					c0.024-0.021,0.049-0.041,0.073-0.059c0.114-0.093,0.209-0.152,0.239-0.17l0.011-0.008c0.057-0.036,0.106-0.067,0.144-0.085
					c0.054-0.031,0.103-0.057,0.147-0.077c0.035-0.015,0.076-0.033,0.117-0.051c0.016-0.008,0.035-0.015,0.054-0.023
					c0.033-0.015,0.071-0.031,0.12-0.046c0.046-0.018,0.103-0.036,0.158-0.051c0.027-0.01,0.054-0.018,0.084-0.026
					c0.035-0.01,0.079-0.021,0.122-0.031c0.057-0.013,0.106-0.021,0.149-0.028l0.038-0.005c0.041-0.008,0.084-0.015,0.122-0.021
					c0.092-0.01,0.22-0.021,0.318-0.021c0.054,0,0.128,0,0.182,0.003l0.071,0.003l0.005,0.026v-0.026
					c0.043,0.005,0.103,0.008,0.152,0.015l0.014,0.003c0.011,0,0.03,0.003,0.054,0.005c0.014,0.003,0.027,0.005,0.038,0.008
					l0.024,0.003c0.022,0.005,0.046,0.008,0.068,0.013l0.065,0.013c0.005,0.003,0.008,0.003,0.065,0.013
					c0.027,0.008,0.054,0.013,0.082,0.021h0.003c0.019,0.005,0.038,0.01,0.06,0.018h0.008c0.035,0.01,0.071,0.021,0.106,0.031
					l0.046,0.018c0.022,0.008,0.033,0.01,0.057,0.021l0.12,0.046c0.024,0.01,0.035,0.013,0.065,0.028l0.033,0.013
					c0.024,0.013,0.054,0.026,0.079,0.039c0.046,0.021,0.09,0.044,0.133,0.069h0.003l0.008,0.003
					c0.014,0.008,0.038,0.026,0.068,0.041l0.008,0.005c0.024,0.015,0.052,0.031,0.068,0.044c0,0,0.003,0.003,0.008,0.003
					c0.024,0.018,0.046,0.033,0.076,0.051c0.03,0.021,0.063,0.044,0.095,0.067c0.011,0.01,0.022,0.018,0.033,0.026
					c0.049,0.039,0.095,0.08,0.141,0.118l0.014,0.013c0.046,0.039,0.098,0.087,0.139,0.126l-0.016,0.023l0.019-0.018l-0.011,0.023
					l0.016-0.015l0.005,0.005l-0.011,0.026l0.019-0.018c0.033,0.033,0.063,0.067,0.087,0.095l0.008,0.008
					c0.068,0.075,0.147,0.18,0.196,0.252c0.035,0.054,0.128,0.19,0.182,0.301c0,0,0.003,0.008,0.003,0.01
					c0.019,0.041,0.038,0.082,0.057,0.121c0.014,0.033,0.027,0.064,0.041,0.09c0.027,0.062,0.054,0.144,0.073,0.206
					c0.03,0.095,0.06,0.221,0.079,0.324l0.005,0.039c0.003,0.021,0.008,0.039,0.011,0.059c0.014,0.103,0.022,0.201,0.022,0.275
					v0.041c0.003,0.021,0.003,0.046,0,0.069c0,0.028,0,0.057,0,0.08c0,0.033-0.008,0.149-0.019,0.237c0,0-0.011,0.059-0.022,0.129
					c0,0.003,0,0.005-0.003,0.008v0.008l-0.003,0.015c-0.008,0.041-0.014,0.067-0.016,0.077c-0.016,0.072-0.041,0.152-0.052,0.196
					l-0.011,0.033c-0.003,0.008-0.005,0.018-0.008,0.028c-0.011,0.026-0.019,0.054-0.027,0.077l-0.011,0.028
					c-0.011,0.031-0.027,0.067-0.038,0.093c-0.019,0.044-0.035,0.082-0.043,0.1v0.003l-0.005,0.005
					c-0.008,0.015-0.016,0.036-0.027,0.059l-0.003,0.005c-0.005,0.01-0.014,0.023-0.019,0.039c-0.016,0.028-0.038,0.062-0.057,0.098
					c-0.019,0.031-0.038,0.067-0.057,0.095l-0.005,0.005c-0.019,0.031-0.046,0.069-0.065,0.098
					c-0.019,0.031-0.049,0.069-0.071,0.095c-0.06,0.075-0.109,0.134-0.147,0.172c-0.022,0.026-0.052,0.059-0.076,0.082v0.003
					l-0.008,0.008c-0.024,0.023-0.057,0.054-0.082,0.077c-0.027,0.026-0.063,0.057-0.09,0.08s-0.06,0.051-0.09,0.075
					c-0.071,0.054-0.136,0.1-0.179,0.129c-0.03,0.026-0.076,0.064-0.139,0.118l-0.098,0.082c-0.03,0.023-0.057,0.046-0.087,0.069
					c-0.019,0.015-0.038,0.033-0.063,0.054l-0.008,0.005c-0.046,0.041-0.092,0.082-0.128,0.116v0.003l-0.024,0.015
					c-0.054,0.051-0.082,0.08-0.149,0.142l-0.149,0.149l-0.022-0.013l0.016,0.018l-0.005,0.005c-0.016,0.018-0.038,0.039-0.06,0.062
					l-0.052,0.054l-0.019-0.013l0.014,0.018l-0.084,0.095c-0.019,0.021-0.038,0.041-0.057,0.062l-0.019,0.021
					c-0.057,0.069-0.109,0.129-0.149,0.183c-0.049,0.059-0.13,0.16-0.215,0.28v0.003l-0.011,0.01
					c-0.043,0.067-0.076,0.116-0.103,0.16c-0.022,0.031-0.043,0.067-0.071,0.108l-0.022,0.039c-0.033,0.054-0.068,0.121-0.087,0.157
					c-0.016,0.033-0.041,0.077-0.071,0.144c-0.005,0.008-0.008,0.021-0.014,0.028c-0.003,0.003-0.003,0.005-0.005,0.008
					c-0.005,0.018-0.016,0.036-0.024,0.059c-0.005,0.015-0.014,0.031-0.022,0.049c-0.005,0.018-0.011,0.033-0.019,0.049
					l-0.003,0.008c0,0-0.005,0.01-0.011,0.021c-0.005,0.008-0.011,0.018-0.016,0.031l-0.008,0.008
					c-0.008,0.013-0.011,0.023-0.024,0.036l-0.003,0.008l-0.024-0.01l0.019,0.013c-0.008,0.013-0.022,0.026-0.035,0.044
					l-0.005,0.005c-0.014,0.015-0.027,0.031-0.049,0.046c-0.008,0.008-0.016,0.013-0.024,0.021s-0.016,0.013-0.022,0.015
					c-0.011,0.01-0.022,0.015-0.027,0.018l-0.011,0.005c-0.019,0.013-0.03,0.021-0.046,0.026c-0.014,0.008-0.027,0.013-0.041,0.018
					l-0.008,0.003l-0.016-0.018l0.011,0.021l-0.008,0.003c-0.027,0.013-0.049,0.018-0.052,0.018
					c-0.022,0.005-0.052,0.013-0.087,0.018H34.18z M31.968,17.919l2.218,0.808c0.027-0.005,0.057-0.008,0.073-0.015
					c0.005,0,0.022-0.005,0.049-0.015l0.014,0.021l-0.008-0.023l0.016,0.021l-0.003-0.01l-0.011-0.008
					c0.003-0.003,0.005-0.003,0.005-0.003V18.69c0.003-0.003,0.005-0.003,0.008-0.003c0.008-0.005,0.024-0.008,0.035-0.015
					c0.011-0.008,0.027-0.013,0.038-0.018l0.022,0.013l-0.016-0.021l0.005-0.003c0.008-0.005,0.016-0.008,0.019-0.013l0.005-0.003
					c0.008-0.005,0.016-0.01,0.022-0.015c0.011-0.008,0.016-0.013,0.024-0.021c0.016-0.015,0.03-0.028,0.041-0.036l0.005-0.008
					c0.016-0.018,0.027-0.031,0.035-0.041l0.005-0.008c0.014-0.015,0.019-0.026,0.024-0.036l0.008-0.008
					c0.008-0.01,0.011-0.021,0.016-0.028c0.005-0.01,0.008-0.015,0.008-0.018l0.003-0.005c0.005-0.015,0.014-0.033,0.019-0.051
					c0.008-0.015,0.016-0.031,0.022-0.049c0.011-0.021,0.016-0.041,0.024-0.062l0.005-0.008c0.003-0.008,0.011-0.018,0.014-0.028
					c0.033-0.064,0.054-0.111,0.073-0.144c0.016-0.036,0.054-0.105,0.087-0.157l0.024-0.039c0.024-0.046,0.046-0.08,0.068-0.113
					c0.027-0.044,0.06-0.093,0.106-0.157l0.005-0.01c0.09-0.126,0.171-0.229,0.22-0.291c0.043-0.051,0.095-0.113,0.152-0.18
					l0.016-0.018c0.022-0.023,0.038-0.046,0.06-0.067l0.011-0.015c0.008-0.008,0.011-0.01,0.016-0.015l0.101-0.113l0.014-0.008
					c0.019-0.023,0.043-0.046,0.06-0.064c0.003-0.003,0.005-0.005,0.008-0.008l0.024,0.01l-0.019-0.015l0.149-0.149
					c0.068-0.062,0.095-0.09,0.152-0.139l0.011-0.015h0.003c0.041-0.033,0.087-0.08,0.141-0.123l0.003-0.005
					c0.024-0.021,0.046-0.039,0.068-0.054c0.024-0.023,0.054-0.046,0.087-0.072l0.095-0.08c0.063-0.054,0.109-0.093,0.141-0.118
					c0.043-0.031,0.109-0.075,0.177-0.129c0.027-0.023,0.065-0.051,0.09-0.075c0.027-0.021,0.063-0.054,0.087-0.077
					c0.024-0.023,0.057-0.051,0.079-0.077l0.005-0.005c0.027-0.026,0.057-0.059,0.079-0.082c0.038-0.041,0.087-0.098,0.147-0.172
					c0.022-0.028,0.046-0.064,0.068-0.093c0.019-0.026,0.043-0.062,0.06-0.09l0.005-0.005c0.016-0.031,0.038-0.067,0.06-0.1
					c0.022-0.033,0.038-0.064,0.054-0.093v-0.005c0.008-0.01,0.014-0.023,0.019-0.036l0.003-0.008
					c0.011-0.018,0.022-0.039,0.03-0.057l0.005-0.01c0.005-0.01,0.022-0.046,0.041-0.095c0.014-0.026,0.027-0.062,0.038-0.09h0.024
					l-0.022-0.008l0.003-0.01h0.027l-0.024-0.008c0.011-0.026,0.019-0.054,0.027-0.077c0.005-0.01,0.008-0.021,0.011-0.028
					l0.008-0.033c0.014-0.041,0.035-0.123,0.052-0.19v-0.005c0.003-0.008,0.008-0.033,0.016-0.072l0.005-0.031
					c0.011-0.064,0.019-0.123,0.019-0.126c0.008-0.059,0.016-0.147,0.022-0.234c0-0.023,0-0.051,0.003-0.077
					c0-0.023,0-0.046-0.003-0.067v-0.044c-0.003-0.075-0.008-0.17-0.024-0.268c0-0.021-0.005-0.041-0.008-0.059L37.77,13.37
					c-0.019-0.1-0.049-0.224-0.079-0.319c-0.016-0.062-0.046-0.139-0.071-0.201c-0.011-0.028-0.027-0.059-0.038-0.087
					c-0.019-0.041-0.038-0.082-0.06-0.121c0-0.005,0-0.008-0.005-0.01c-0.052-0.108-0.139-0.242-0.174-0.296
					c-0.049-0.072-0.125-0.175-0.196-0.247l-0.005-0.01c-0.024-0.026-0.054-0.059-0.082-0.087l-0.008-0.01l0.014-0.018l-0.019,0.015
					l-0.014-0.015c-0.038-0.039-0.09-0.087-0.13-0.123l-0.016-0.015c-0.043-0.036-0.092-0.077-0.141-0.116
					c-0.011-0.008-0.019-0.015-0.03-0.021c-0.033-0.028-0.063-0.049-0.095-0.067c-0.027-0.021-0.054-0.036-0.071-0.049l-0.011-0.008
					c-0.016-0.013-0.041-0.026-0.068-0.041l0.008-0.026l-0.014,0.021c-0.027-0.015-0.049-0.028-0.065-0.039h-0.003l-0.005-0.003
					c-0.046-0.026-0.09-0.049-0.136-0.072c-0.024-0.013-0.052-0.026-0.073-0.033l-0.038-0.018c-0.03-0.013-0.038-0.018-0.063-0.028
					l-0.117-0.044c-0.024-0.008-0.035-0.013-0.057-0.021l-0.041-0.013c0,0-0.003-0.003-0.008-0.003
					c-0.03-0.01-0.068-0.021-0.098-0.031l-0.011-0.003c-0.022-0.005-0.038-0.01-0.054-0.013l-0.005-0.003
					c-0.027-0.008-0.054-0.013-0.082-0.021c-0.033-0.008-0.054-0.013-0.057-0.013l-0.073-0.013c-0.027-0.005-0.057-0.01-0.082-0.015
					l-0.024-0.003c-0.005,0-0.014-0.003-0.019-0.003c-0.024-0.005-0.043-0.008-0.052-0.008l-0.016-0.003
					c-0.049-0.005-0.109-0.01-0.147-0.013h-0.008l-0.071-0.003c-0.054-0.003-0.125-0.005-0.177-0.003
					c-0.098,0-0.223,0.008-0.313,0.018c-0.038,0.005-0.084,0.013-0.122,0.021l-0.041,0.005c-0.041,0.008-0.087,0.015-0.141,0.028
					c-0.041,0.01-0.087,0.018-0.122,0.031c-0.027,0.008-0.057,0.015-0.082,0.023c-0.054,0.015-0.111,0.033-0.158,0.051
					c-0.046,0.015-0.082,0.031-0.114,0.044c-0.019,0.008-0.038,0.018-0.057,0.026c-0.041,0.018-0.079,0.036-0.114,0.049
					c-0.041,0.021-0.09,0.046-0.141,0.077c-0.038,0.018-0.087,0.046-0.144,0.082l-0.008,0.005c-0.033,0.023-0.122,0.08-0.236,0.17
					c-0.027,0.018-0.049,0.039-0.071,0.057l-0.008,0.008c-0.049,0.041-0.098,0.085-0.141,0.129
					c-0.057,0.057-0.101,0.098-0.128,0.134c-0.008,0.005-0.008,0.01-0.011,0.013l-0.022,0.021c-0.033,0.041-0.076,0.093-0.109,0.134
					l-0.003,0.008c-0.016,0.021-0.041,0.051-0.065,0.087c-0.003,0.005-0.005,0.01-0.008,0.013c-0.019,0.026-0.043,0.059-0.063,0.093
					l-0.003,0.008c-0.033,0.051-0.071,0.116-0.098,0.167l-0.024,0.046c-0.011,0.021-0.019,0.039-0.027,0.057l-0.016,0.028
					c-0.014,0.031-0.033,0.075-0.043,0.105c-0.014,0.036-0.03,0.072-0.046,0.113l-0.011,0.033c-0.003,0.01-0.005,0.018-0.008,0.023
					l-0.014,0.044h-0.024l0.022,0.005l-0.008,0.028c-0.008,0.033-0.016,0.059-0.019,0.08l-0.011,0.041
					c-0.005,0.023-0.014,0.046-0.016,0.067l-0.008,0.036l-0.024,0.003l0.022,0.008l-0.003,0.01
					c-0.003,0.018-0.005,0.031-0.005,0.044l-0.008,0.049l-0.027,0.003l0.024,0.003c-0.003,0.015-0.003,0.023-0.003,0.031
					l-0.003,0.01c0,0.008-0.003,0.013-0.003,0.021l-0.003,0.031l-0.027,0.005l0.027,0.003l-0.011,0.08
					c-0.003,0.036-0.005,0.077-0.005,0.111c-0.003,0.051-0.003,0.093-0.003,0.111v0.005c0,0.033,0.003,0.08,0.003,0.113
					c0.003,0.021,0.003,0.049,0.005,0.072l0.003,0.036c0,0,0.008,0.082,0.027,0.206l0.003,0.018
					c0.003,0.003,0.003,0.005,0.003,0.005c0.005,0.031,0.011,0.059,0.016,0.09c0,0.005,0.003,0.008,0.003,0.01v0.013
					c0.005,0.051,0.011,0.108,0.016,0.172l0.011,0.108c0.005,0.039,0.008,0.08,0.014,0.118c0.003,0.021,0.005,0.049,0.008,0.077
					l0.008,0.082c0.003,0.044,0.005,0.082,0.005,0.116c0.005,0.069,0.005,0.108,0.008,0.178l0.003,0.08
					c0.003,0.015,0.003,0.036,0.003,0.054v0.064v0.049v0.031v0.013v0.015c-0.003,0.062-0.003,0.144-0.008,0.211l-0.003,0.087
					c-0.005,0.09-0.014,0.17-0.019,0.239l-0.011,0.103c-0.008,0.062-0.016,0.142-0.033,0.234l-0.011,0.064
					c-0.011,0.054-0.022,0.121-0.033,0.172c-0.005,0.023-0.011,0.049-0.019,0.075l-0.003,0.015c-0.008,0.033-0.016,0.064-0.022,0.09
					c-0.016,0.062-0.041,0.139-0.049,0.17c-0.014,0.039-0.03,0.087-0.052,0.154l-0.014,0.039c-0.008,0.021-0.016,0.039-0.024,0.059
					l-0.019,0.044c-0.011,0.021-0.016,0.039-0.024,0.057l-0.003,0.008c0,0.003-0.005,0.013-0.008,0.033
					c-0.003,0.005-0.003,0.008-0.003,0.01l-0.011,0.041c-0.003,0.023-0.003,0.036-0.005,0.046v0.008c0,0.023-0.003,0.036,0,0.054
					c0,0.018,0,0.031,0.003,0.046c0,0.01,0.003,0.023,0.005,0.031l0.008,0.036c0.003,0.01,0.003,0.018,0.005,0.023l-0.022,0.018
					l0.024-0.008c0.003,0.01,0.008,0.021,0.008,0.028l0.005,0.008l-0.022,0.013l0.024-0.005c0.003,0.01,0.008,0.018,0.011,0.023
					l0.011,0.018c0.005,0.01,0.011,0.023,0.019,0.031c0.016,0.031,0.035,0.054,0.057,0.077L31.968,17.919z"/>
			</g>
			<g>
				<path fill="#A6DAE8" d="M33.934,19.29L33.934,19.29c-0.049,0-0.098-0.01-0.147-0.028l-1.862-0.679
					c-0.182-0.067-0.283-0.242-0.223-0.388c0.043-0.103,0.16-0.172,0.294-0.172c0.049,0,0.101,0.01,0.147,0.028l1.862,0.679
					c0.087,0.031,0.16,0.09,0.204,0.16c0.043,0.075,0.052,0.154,0.019,0.229C34.186,19.221,34.07,19.29,33.934,19.29 M31.996,18.073
					c-0.114,0-0.209,0.054-0.245,0.139c-0.049,0.123,0.038,0.268,0.193,0.327l1.864,0.677c0.041,0.015,0.082,0.023,0.125,0.023
					c0.114,0,0.209-0.054,0.247-0.142c0.022-0.057,0.016-0.121-0.019-0.183c-0.038-0.062-0.101-0.111-0.177-0.142l-1.862-0.677
					C32.083,18.078,32.039,18.073,31.996,18.073"/>
			</g>
			<g>
				<path fill="#A6DAE8" d="M33.725,19.803L33.725,19.803c-0.049,0-0.098-0.008-0.147-0.028l-1.862-0.677
					c-0.182-0.069-0.283-0.242-0.223-0.388c0.043-0.105,0.158-0.172,0.294-0.172c0.049,0,0.098,0.008,0.147,0.026l1.862,0.679
					c0.087,0.033,0.16,0.087,0.201,0.16c0.043,0.075,0.052,0.154,0.022,0.229C33.978,19.736,33.861,19.803,33.725,19.803
					 M31.787,18.586c-0.114,0-0.209,0.054-0.245,0.142c-0.049,0.121,0.035,0.265,0.19,0.324l1.864,0.677
					c0.041,0.015,0.084,0.023,0.128,0.023c0.114,0,0.212-0.054,0.245-0.142c0.024-0.057,0.019-0.121-0.019-0.183
					c-0.035-0.062-0.098-0.111-0.174-0.139l-1.862-0.679C31.872,18.593,31.831,18.586,31.787,18.586"/>
			</g>
			<g>
				<path fill="#A6DAE8" d="M32.613,20.035L32.613,20.035c-0.063,0-0.122-0.01-0.177-0.031c-0.125-0.046-0.228-0.142-0.299-0.278
					c-0.204-0.147-0.361-0.342-0.448-0.574l-0.022-0.051l1.943,0.71l-0.052,0.023c-0.209,0.105-0.448,0.157-0.688,0.144
					C32.782,20.015,32.695,20.035,32.613,20.035 M31.76,19.189c0.087,0.201,0.231,0.373,0.416,0.502l0.008,0.01
					c0.065,0.126,0.158,0.216,0.269,0.257c0.122,0.044,0.261,0.033,0.402-0.028h0.008h0.005c0.212,0.01,0.424-0.031,0.614-0.113
					L31.76,19.189z"/>
			</g>
			<g opacity="0.6">
				<g>
					<defs>
						<rect id="SVGID_59_" x="12.208" y="39.389" width="13.342" height="10.667"/>
					</defs>
					<clipPath id="SVGID_60_">
						<use xlink:href="#SVGID_59_"  overflow="visible"/>
					</clipPath>
					<g clip-path="url(#SVGID_60_)">
						<path fill-rule="evenodd" clip-rule="evenodd" fill="#A6DAE8" d="M24.836,46.81l-8.849,0.275
							c-0.024-0.003-0.046-0.005-0.068-0.01c-1.389-0.062-1.093-0.962-0.375-0.939c0.016-0.015,0.041-0.01,0.071,0.005l-1.446-5.665
							l-0.601-0.018c-0.13,0.234-0.378,0.422-0.66,0.412c-0.402-0.013-0.715-0.352-0.698-0.762s0.356-0.731,0.761-0.718
							c0.296,0.008,0.538,0.247,0.644,0.507l0.859,0.028v0.005l0.098,0.003l0.304,1.014l10.107,0.71
							c0.033,0,0.595,0.044,0.568,0.762l-0.546-0.018v0.003l0.008-0.232v-0.01l-1.497-0.1l-0.019,0.432l1.503,0.046l0.005-0.136
							c0,0,0.505,0.015,0.546,0.015l-0.147,3.548h0.005C25.379,46.684,25.018,46.816,24.836,46.81 M16.128,46.144l0.951,0.005
							l-0.101-0.841l-1.052-0.031L16.128,46.144z M15.865,44.86l1.063,0.033l-0.052-0.432l-1.182-0.036L15.865,44.86z M16.522,41.59
							l-1.514-0.103l0.204,0.749l1.394,0.044L16.522,41.59z M16.658,42.694l-1.386-0.041l0.158,0.458l1.283,0.039L16.658,42.694z
							 M16.764,43.566l-1.272-0.039l0.139,0.455l1.19,0.036L16.764,43.566z M18.626,41.732l-1.68-0.116l0.082,0.677l1.603,0.051
							L18.626,41.732z M18.637,42.758l-1.557-0.049l0.054,0.455l1.508,0.046L18.637,42.758z M18.645,43.625l-1.459-0.046
							l0.054,0.453l1.41,0.044L18.645,43.625z M18.658,44.518l-1.364-0.041l0.052,0.43l1.315,0.039L18.658,44.518z M18.666,45.359
							L17.4,45.321l0.101,0.831l1.174,0.008L18.666,45.359z M20.778,41.876l-1.734-0.116l0.008,0.597l1.728,0.054L20.778,41.876z
							 M20.784,42.825l-1.728-0.057l0.005,0.455l1.726,0.054L20.784,42.825z M20.786,43.692l-1.72-0.054l0.005,0.453l1.718,0.051
							L20.786,43.692z M20.789,44.585l-1.715-0.054l0.008,0.43l1.709,0.051L20.789,44.585z M20.794,45.426l-1.709-0.051l0.011,0.785
							l1.699,0.01V45.426z M23.096,42.03l-1.897-0.126l0.003,0.517l1.875,0.059L23.096,42.03z M23.058,42.895l-1.853-0.057
							l0.003,0.453l1.834,0.057L23.058,42.895z M23.023,43.762l-1.815-0.059l0.003,0.453l1.794,0.057L23.023,43.762z M22.985,44.652
							l-1.775-0.054v0.43l1.758,0.051L22.985,44.652z M22.952,45.493l-1.739-0.054l0.003,0.733l1.707,0.01L22.952,45.493z
							 M24.982,42.954l-1.503-0.046L23.46,43.36l1.503,0.046L24.982,42.954z M24.947,43.821l-1.506-0.046l-0.016,0.45l1.503,0.046
							L24.947,43.821z M24.909,44.714l-1.503-0.049l-0.016,0.43l1.503,0.046L24.909,44.714z M24.876,45.555l-1.506-0.046
							l-0.027,0.679l1.5,0.008l0.003-0.018l0.011-0.229L24.876,45.555z M17.283,47.258c0.761-0.021,1.397,0.592,1.424,1.364
							c0.022,0.774-0.573,1.415-1.337,1.433c-0.758,0.021-1.397-0.592-1.424-1.364C15.924,47.919,16.52,47.276,17.283,47.258
							 M17.346,49.296c0.351-0.008,0.625-0.301,0.614-0.654c-0.014-0.355-0.304-0.633-0.655-0.625
							c-0.345,0.008-0.62,0.301-0.609,0.656C16.707,49.026,17.001,49.306,17.346,49.296 M23.009,47.119
							c0.761-0.021,1.4,0.592,1.424,1.364c0.024,0.774-0.573,1.415-1.334,1.433c-0.761,0.018-1.397-0.594-1.424-1.364
							C21.651,47.778,22.246,47.137,23.009,47.119 M23.075,49.157c0.348-0.008,0.622-0.301,0.611-0.656
							c-0.011-0.352-0.304-0.633-0.652-0.623c-0.351,0.008-0.622,0.301-0.611,0.654C22.436,48.887,22.727,49.165,23.075,49.157"/>
					</g>
				</g>
			</g>
			<g>
				<path fill="#5E5E5E" d="M48.944,30.542c0,0.252,0.217,0.461,0.486,0.461c0.266,0,0.484-0.208,0.484-0.461
					c0-0.255-0.217-0.461-0.484-0.461C49.162,30.081,48.944,30.287,48.944,30.542"/>
			</g>
		</g>
	</g>
	<g>
		<g>
			<g>
				<g>
					<defs>
						<rect id="SVGID_61_" x="4.66" y="37.427" width="4.627" height="9.059"/>
					</defs>
					<clipPath id="SVGID_62_">
						<use xlink:href="#SVGID_61_"  overflow="visible"/>
					</clipPath>
				</g>
			</g>
			<g>
				<g>
					<defs>
						<rect id="SVGID_63_" x="30.197" y="25.323" width="0.378" height="1.617"/>
					</defs>
					<clipPath id="SVGID_64_">
						<use xlink:href="#SVGID_63_"  overflow="visible"/>
					</clipPath>
				</g>
			</g>
			<g>
				<g>
					<defs>
						<rect id="SVGID_65_" x="26.697" y="25.812" width="0.167" height="0.863"/>
					</defs>
					<clipPath id="SVGID_66_">
						<use xlink:href="#SVGID_65_"  overflow="visible"/>
					</clipPath>
				</g>
			</g>
			<g>
				<g>
					<defs>
						<rect id="SVGID_67_" x="25.559" y="26.712" width="6.425" height="0.492"/>
					</defs>
					<clipPath id="SVGID_68_">
						<use xlink:href="#SVGID_67_"  overflow="visible"/>
					</clipPath>
				</g>
			</g>
			<g>
				<g>
					<defs>
						<rect id="SVGID_69_" x="22.187" y="27.379" width="1.291" height="1.985"/>
					</defs>
					<clipPath id="SVGID_70_">
						<use xlink:href="#SVGID_69_"  overflow="visible"/>
					</clipPath>
				</g>
			</g>
			<g>
				<g>
					<defs>
						<rect id="SVGID_71_" x="25.604" y="28.124" width="0.05" height="0.609"/>
					</defs>
					<clipPath id="SVGID_72_">
						<use xlink:href="#SVGID_71_"  overflow="visible"/>
					</clipPath>
				</g>
			</g>
			<g>
				<g>
					<defs>
						<rect id="SVGID_73_" x="25.081" y="27.506" width="0.221" height="1.927"/>
					</defs>
					<clipPath id="SVGID_74_">
						<use xlink:href="#SVGID_73_"  overflow="visible"/>
					</clipPath>
				</g>
			</g>
			<g>
				<g>
					<defs>
						<rect id="SVGID_75_" x="25.995" y="27.478" width="0.27" height="1.924"/>
					</defs>
					<clipPath id="SVGID_76_">
						<use xlink:href="#SVGID_75_"  overflow="visible"/>
					</clipPath>
				</g>
			</g>
			<g>
				<g>
					<defs>
						<rect id="SVGID_77_" x="8.7" y="25.606" width="9.897" height="9.732"/>
					</defs>
					<clipPath id="SVGID_78_">
						<use xlink:href="#SVGID_77_"  overflow="visible"/>
					</clipPath>
				</g>
			</g>
			<g>
				<g>
					<defs>
						<rect id="SVGID_79_" x="14.627" y="8.156" width="5.918" height="11.587"/>
					</defs>
					<clipPath id="SVGID_80_">
						<use xlink:href="#SVGID_79_"  overflow="visible"/>
					</clipPath>
				</g>
			</g>
			<g>
				<g>
					<defs>
						<rect id="SVGID_81_" x="24.471" y="3.788" width="3.893" height="7.622"/>
					</defs>
					<clipPath id="SVGID_82_">
						<use xlink:href="#SVGID_81_"  overflow="visible"/>
					</clipPath>
				</g>
			</g>
			<g>
				<g>
					<defs>
						<rect id="SVGID_83_" x="0.108" y="33.829" width="3.892" height="7.62"/>
					</defs>
					<clipPath id="SVGID_84_">
						<use xlink:href="#SVGID_83_"  overflow="visible"/>
					</clipPath>
				</g>
			</g>
			<g>
				<g>
					<defs>
						<rect id="SVGID_85_" x="28.516" y="47.16" width="4.521" height="8.849"/>
					</defs>
					<clipPath id="SVGID_86_">
						<use xlink:href="#SVGID_85_"  overflow="visible"/>
					</clipPath>
				</g>
			</g>
			<g>
				<g>
					<defs>
						<rect id="SVGID_87_" x="1.02" y="13.919" width="10.199" height="9.617"/>
					</defs>
					<clipPath id="SVGID_88_">
						<use xlink:href="#SVGID_87_"  overflow="visible"/>
					</clipPath>
				</g>
			</g>
			<g>
				<g>
					<defs>
						<rect id="SVGID_89_" x="12.208" y="39.389" width="13.342" height="10.667"/>
					</defs>
					<clipPath id="SVGID_90_">
						<use xlink:href="#SVGID_89_"  overflow="visible"/>
					</clipPath>
				</g>
			</g>
		</g>
	</g>
</g>
</svg>
